T6,Potencia
-40,-40.83
-38,-38.77
-36,-36.83
-34,-34.68
-32,-32.72
-30,-30.74
-28,-28.89
-26,-27.05
-24,-25
-22,-23.04
-20,-21.02
-18,-18.92
-16,-16.88
-14,-14.82
-12,-12.77
-10,-10.77
-8,-8.67
-6,-6.63
-4,-4.74
-2,-3.98
0,-3.6
