Trace1,
Freq,,Amp,,
             9241329,Hz,              -65.55, dBm,
             9395404,Hz,              -61.33, dBm,
             9549479,Hz,              -55.44, dBm,
             9703554,Hz,              -45.93, dBm,
             9857629,Hz,              -37.14, dBm,
            10011704,Hz,              -23.62, dBm,
            10165779,Hz,              -18.67, dBm,
            10319854,Hz,              -10.11, dBm,
            10473929,Hz,               -7.17, dBm,
            10628004,Hz,               -3.13, dBm,
            10782079,Hz,               -1.99, dBm,
            10936154,Hz,               -0.73, dBm,
            11090229,Hz,               -0.40, dBm,
            11244304,Hz,               -0.40, dBm,
            11398379,Hz,               -0.51, dBm,
            11552454,Hz,               -1.43, dBm,
            11706529,Hz,               -2.53, dBm,
            11860604,Hz,               -6.13, dBm,
            12014679,Hz,               -9.18, dBm,
            12168754,Hz,              -17.47, dBm,
            12322829,Hz,              -22.97, dBm,
            12476904,Hz,              -38.70, dBm,
            12630979,Hz,              -49.24, dBm,
            12785054,Hz,              -56.63, dBm,
            12939129,Hz,              -63.22, dBm,
            13093204,Hz,              -65.97, dBm,
            13247279,Hz,              -66.12, dBm,
            13401354,Hz,              -68.46, dBm,
            13555429,Hz,              -71.29, dBm,
            13709504,Hz,              -72.13, dBm,
            13863579,Hz,              -72.63, dBm,
            14017654,Hz,              -68.71, dBm,
            14171729,Hz,              -74.23, dBm,
            14325804,Hz,              -64.98, dBm,
            14479879,Hz,              -72.81, dBm,
            14633954,Hz,              -71.50, dBm,
            14788029,Hz,              -71.85, dBm,
            14942104,Hz,              -70.66, dBm,
            15096179,Hz,              -69.13, dBm,
            15250254,Hz,              -68.46, dBm,
            15404329,Hz,              -67.16, dBm,
            15558404,Hz,              -72.57, dBm,
            15712479,Hz,              -65.81, dBm,
            15866554,Hz,              -69.26, dBm,
            16020629,Hz,              -70.26, dBm,
            16174704,Hz,              -69.35, dBm,
            16328779,Hz,              -69.46, dBm,
            16482854,Hz,              -74.48, dBm,
            16636929,Hz,              -68.72, dBm,
            16791004,Hz,              -73.39, dBm,
            16945079,Hz,              -69.82, dBm,
            17099154,Hz,              -69.53, dBm,
            17253229,Hz,              -71.46, dBm,
            17407304,Hz,              -71.14, dBm,
            17561379,Hz,              -73.95, dBm,
            17715454,Hz,              -69.58, dBm,
            17869529,Hz,              -78.07, dBm,
            18023604,Hz,              -70.65, dBm,
            18177679,Hz,              -81.13, dBm,
            18331754,Hz,              -69.82, dBm,
            18485829,Hz,              -75.49, dBm,
            18639904,Hz,              -71.96, dBm,
            18793979,Hz,              -71.37, dBm,
            18948054,Hz,              -74.96, dBm,
            19102129,Hz,              -73.69, dBm,
            19256204,Hz,              -72.79, dBm,
            19410279,Hz,              -73.16, dBm,
            19564354,Hz,              -72.16, dBm,
            19718429,Hz,              -70.40, dBm,
            19872504,Hz,              -73.86, dBm,
            20026579,Hz,              -74.26, dBm,
            20180654,Hz,              -74.25, dBm,
            20334729,Hz,              -72.94, dBm,
            20488804,Hz,              -73.28, dBm,
            20642879,Hz,              -71.55, dBm,
            20796954,Hz,              -77.76, dBm,
            20951029,Hz,              -77.20, dBm,
            21105104,Hz,              -74.71, dBm,
            21259179,Hz,              -71.20, dBm,
            21413254,Hz,              -68.32, dBm,
            21567329,Hz,              -69.66, dBm,
            21721404,Hz,              -65.52, dBm,
            21875479,Hz,              -66.25, dBm,
            22029554,Hz,              -65.62, dBm,
            22183629,Hz,              -65.66, dBm,
            22337704,Hz,              -64.98, dBm,
            22491779,Hz,              -64.81, dBm,
            22645854,Hz,              -66.47, dBm,
            22799929,Hz,              -68.86, dBm,
            22954004,Hz,              -72.50, dBm,
            23108079,Hz,              -70.29, dBm,
            23262154,Hz,              -74.69, dBm,
            23416229,Hz,              -73.98, dBm,
            23570304,Hz,              -81.28, dBm,
            23724379,Hz,              -76.01, dBm,
            23878454,Hz,              -79.47, dBm,
            24032529,Hz,              -72.15, dBm,
            24186604,Hz,              -82.23, dBm,
            24340679,Hz,              -73.90, dBm,
            24494754,Hz,              -78.17, dBm,
            24648829,Hz,              -77.76, dBm,
            24802904,Hz,              -77.53, dBm,
            24956979,Hz,              -73.69, dBm,
            25111054,Hz,              -75.45, dBm,
            25265129,Hz,              -77.03, dBm,
            25419204,Hz,              -76.55, dBm,
            25573279,Hz,              -73.12, dBm,
            25727354,Hz,              -74.50, dBm,
            25881429,Hz,              -77.11, dBm,
            26035504,Hz,              -76.07, dBm,
            26189579,Hz,              -77.10, dBm,
            26343654,Hz,              -79.60, dBm,
            26497729,Hz,              -74.81, dBm,
            26651804,Hz,              -79.93, dBm,
            26805879,Hz,              -76.58, dBm,
            26959954,Hz,              -73.68, dBm,
            27114029,Hz,              -75.95, dBm,
            27268104,Hz,              -78.00, dBm,
            27422179,Hz,              -77.34, dBm,
            27576254,Hz,              -76.45, dBm,
            27730329,Hz,              -76.65, dBm,
            27884404,Hz,              -75.82, dBm,
            28038479,Hz,              -80.63, dBm,
            28192554,Hz,              -77.33, dBm,
            28346629,Hz,              -77.58, dBm,
            28500704,Hz,              -75.79, dBm,
            28654779,Hz,              -74.12, dBm,
            28808854,Hz,              -77.05, dBm,
            28962929,Hz,              -76.23, dBm,
            29117004,Hz,              -72.35, dBm,
            29271079,Hz,              -79.05, dBm,
            29425154,Hz,              -74.50, dBm,
            29579229,Hz,              -76.51, dBm,
            29733304,Hz,              -70.58, dBm,
            29887379,Hz,              -72.92, dBm,
            30041454,Hz,              -83.99, dBm,
            30195529,Hz,              -75.70, dBm,
            30349604,Hz,              -79.43, dBm,
            30503679,Hz,              -79.38, dBm,
            30657754,Hz,              -83.57, dBm,
            30811829,Hz,              -73.38, dBm,
            30965904,Hz,              -73.59, dBm,
            31119979,Hz,              -72.96, dBm,
            31274054,Hz,              -77.91, dBm,
            31428129,Hz,              -78.36, dBm,
            31582204,Hz,              -77.22, dBm,
            31736279,Hz,              -75.25, dBm,
            31890354,Hz,              -79.38, dBm,
            32044429,Hz,              -74.23, dBm,
            32198504,Hz,              -74.03, dBm,
            32352579,Hz,              -74.98, dBm,
            32506654,Hz,              -71.94, dBm,
            32660729,Hz,              -68.36, dBm,
            32814804,Hz,              -68.87, dBm,
            32968879,Hz,              -69.76, dBm,
            33122954,Hz,              -67.82, dBm,
            33277029,Hz,              -69.58, dBm,
            33431104,Hz,              -67.76, dBm,
            33585179,Hz,              -70.38, dBm,
            33739254,Hz,              -71.05, dBm,
            33893329,Hz,              -74.45, dBm,
            34047404,Hz,              -73.92, dBm,
            34201479,Hz,              -78.12, dBm,
            34355554,Hz,              -77.43, dBm,
            34509629,Hz,              -75.76, dBm,
            34663704,Hz,              -82.07, dBm,
            34817779,Hz,              -77.56, dBm,
            34971854,Hz,              -83.93, dBm,
            35125929,Hz,              -76.22, dBm,
            35280004,Hz,              -77.38, dBm,
            35434079,Hz,              -74.84, dBm,
            35588154,Hz,              -75.46, dBm,
            35742229,Hz,              -77.24, dBm,
            35896304,Hz,              -78.06, dBm,
            36050379,Hz,              -76.80, dBm,
            36204454,Hz,              -74.21, dBm,
            36358529,Hz,              -82.26, dBm,
            36512604,Hz,              -75.10, dBm,
            36666679,Hz,              -87.29, dBm,
            36820754,Hz,              -79.64, dBm,
            36974829,Hz,              -79.21, dBm,
            37128904,Hz,              -78.05, dBm,
            37282979,Hz,              -78.61, dBm,
            37437054,Hz,              -76.06, dBm,
            37591129,Hz,              -77.14, dBm,
            37745204,Hz,              -80.03, dBm,
            37899279,Hz,              -80.23, dBm,
            38053354,Hz,              -78.42, dBm,
            38207429,Hz,              -80.94, dBm,
            38361504,Hz,              -77.65, dBm,
            38515579,Hz,              -81.16, dBm,
            38669654,Hz,              -77.05, dBm,
            38823729,Hz,              -81.66, dBm,
            38977804,Hz,              -77.77, dBm,
            39131879,Hz,              -73.97, dBm,
            39285954,Hz,              -76.21, dBm,
            39440029,Hz,              -78.64, dBm,
            39594104,Hz,              -81.43, dBm,
            39748179,Hz,              -78.26, dBm,
            39902254,Hz,              -77.71, dBm,
            40056329,Hz,              -76.77, dBm,
            40210404,Hz,              -77.17, dBm,
            40364479,Hz,              -74.43, dBm,
            40518554,Hz,              -76.40, dBm,
            40672629,Hz,              -78.50, dBm,
            40826704,Hz,              -83.51, dBm,
            40980779,Hz,              -81.32, dBm,
            41134854,Hz,              -74.72, dBm,
            41288929,Hz,              -76.17, dBm,
            41443004,Hz,              -78.65, dBm,
            41597079,Hz,              -82.63, dBm,
            41751154,Hz,              -77.41, dBm,
            41905229,Hz,              -75.88, dBm,
            42059304,Hz,              -76.01, dBm,
            42213379,Hz,              -78.87, dBm,
            42367454,Hz,              -77.89, dBm,
            42521529,Hz,              -79.89, dBm,
            42675604,Hz,              -79.43, dBm,
            42829679,Hz,              -76.62, dBm,
            42983754,Hz,              -79.82, dBm,
            43137829,Hz,              -77.87, dBm,
            43291904,Hz,              -82.72, dBm,
            43445979,Hz,              -77.58, dBm,
            43600054,Hz,              -79.49, dBm,
            43754129,Hz,              -76.71, dBm,
            43908204,Hz,              -72.20, dBm,
            44062279,Hz,              -72.94, dBm,
            44216354,Hz,              -78.18, dBm,
            44370429,Hz,              -77.91, dBm,
            44524504,Hz,              -75.23, dBm,
            44678579,Hz,              -79.11, dBm,
            44832654,Hz,              -81.19, dBm,
            44986729,Hz,              -83.70, dBm,
            45140804,Hz,              -76.19, dBm,
            45294879,Hz,              -79.96, dBm,
            45448954,Hz,              -77.30, dBm,
            45603029,Hz,              -80.36, dBm,
            45757104,Hz,              -74.88, dBm,
            45911179,Hz,              -78.81, dBm,
            46065254,Hz,              -83.25, dBm,
            46219329,Hz,              -81.52, dBm,
            46373404,Hz,              -81.65, dBm,
            46527479,Hz,              -77.92, dBm,
            46681554,Hz,              -78.77, dBm,
            46835629,Hz,              -77.02, dBm,
            46989704,Hz,              -77.26, dBm,
            47143779,Hz,              -77.16, dBm,
            47297854,Hz,              -81.04, dBm,
            47451929,Hz,              -78.94, dBm,
            47606004,Hz,              -77.13, dBm,
            47760079,Hz,              -82.00, dBm,
            47914154,Hz,              -76.94, dBm,
            48068229,Hz,              -83.54, dBm,
            48222304,Hz,              -81.54, dBm,
            48376379,Hz,              -83.61, dBm,
            48530454,Hz,              -83.10, dBm,
            48684529,Hz,              -77.78, dBm,
            48838604,Hz,              -77.21, dBm,
            48992679,Hz,              -79.09, dBm,
            49146754,Hz,              -79.05, dBm,
            49300829,Hz,              -82.54, dBm,
            49454904,Hz,              -83.51, dBm,
            49608979,Hz,              -76.10, dBm,
            49763054,Hz,              -81.06, dBm,
            49917129,Hz,              -76.45, dBm,
            50071204,Hz,              -76.59, dBm,
            50225279,Hz,              -77.40, dBm,
            50379354,Hz,              -82.56, dBm,
            50533429,Hz,              -78.25, dBm,
            50687504,Hz,              -79.45, dBm,
            50841579,Hz,              -81.36, dBm,
            50995654,Hz,              -80.30, dBm,
            51149729,Hz,              -80.85, dBm,
            51303804,Hz,              -84.98, dBm,
            51457879,Hz,              -76.67, dBm,
            51611954,Hz,              -80.90, dBm,
            51766029,Hz,              -81.11, dBm,
            51920104,Hz,              -78.15, dBm,
            52074179,Hz,              -78.38, dBm,
            52228254,Hz,              -78.63, dBm,
            52382329,Hz,              -82.07, dBm,
            52536404,Hz,              -77.76, dBm,
            52690479,Hz,              -77.00, dBm,
            52844554,Hz,              -79.93, dBm,
            52998629,Hz,              -83.19, dBm,
            53152704,Hz,              -80.41, dBm,
            53306779,Hz,              -77.28, dBm,
            53460854,Hz,              -77.13, dBm,
            53614929,Hz,              -78.10, dBm,
            53769004,Hz,              -85.48, dBm,
            53923079,Hz,              -77.09, dBm,
            54077154,Hz,              -73.84, dBm,
            54231229,Hz,              -79.04, dBm,
            54385304,Hz,              -76.27, dBm,
            54539379,Hz,              -77.26, dBm,
            54693454,Hz,              -78.09, dBm,
            54847529,Hz,              -76.82, dBm,
            55001604,Hz,              -83.55, dBm,
            55155679,Hz,              -83.31, dBm,
            55309754,Hz,              -78.74, dBm,
            55463829,Hz,              -77.80, dBm,
            55617904,Hz,              -79.84, dBm,
            55771979,Hz,              -80.80, dBm,
            55926054,Hz,              -80.87, dBm,
            56080129,Hz,              -79.61, dBm,
            56234204,Hz,              -78.53, dBm,
            56388279,Hz,              -80.32, dBm,
            56542354,Hz,              -79.28, dBm,
            56696429,Hz,              -80.74, dBm,
            56850504,Hz,              -74.91, dBm,
            57004579,Hz,              -74.14, dBm,
            57158654,Hz,              -75.03, dBm,
            57312729,Hz,              -78.00, dBm,
            57466804,Hz,              -81.38, dBm,
            57620879,Hz,              -77.42, dBm,
            57774954,Hz,              -79.71, dBm,
            57929029,Hz,              -79.24, dBm,
            58083104,Hz,              -79.37, dBm,
            58237179,Hz,              -76.21, dBm,
            58391254,Hz,              -90.01, dBm,
            58545329,Hz,              -76.58, dBm,
            58699404,Hz,              -76.50, dBm,
            58853479,Hz,              -79.24, dBm,
            59007554,Hz,              -86.61, dBm,
            59161629,Hz,              -78.42, dBm,
            59315704,Hz,              -80.02, dBm,
            59469779,Hz,              -77.97, dBm,
            59623854,Hz,              -79.22, dBm,
            59777929,Hz,              -87.33, dBm,
            59932004,Hz,              -82.24, dBm,
            60086079,Hz,              -75.94, dBm,
            60240154,Hz,              -79.48, dBm,
            60394229,Hz,              -79.89, dBm,
            60548304,Hz,              -81.00, dBm,
            60702379,Hz,              -81.60, dBm,
            60856454,Hz,              -80.99, dBm,
            61010529,Hz,              -75.34, dBm,
            61164604,Hz,              -79.25, dBm,
            61318679,Hz,              -75.07, dBm,
            61472754,Hz,              -74.47, dBm,
            61626829,Hz,              -76.25, dBm,
            61780904,Hz,              -83.68, dBm,
            61934979,Hz,              -81.94, dBm,
            62089054,Hz,              -82.85, dBm,
            62243129,Hz,              -81.24, dBm,
            62397204,Hz,              -79.53, dBm,
            62551279,Hz,              -77.01, dBm,
            62705354,Hz,              -74.91, dBm,
            62859429,Hz,              -75.21, dBm,
            63013504,Hz,              -86.40, dBm,
            63167579,Hz,              -76.79, dBm,
            63321654,Hz,              -80.40, dBm,
            63475729,Hz,              -77.21, dBm,
            63629804,Hz,              -82.51, dBm,
            63783879,Hz,              -80.22, dBm,
            63937954,Hz,              -73.94, dBm,
            64092029,Hz,              -74.60, dBm,
            64246104,Hz,              -77.68, dBm,
            64400179,Hz,              -79.23, dBm,
            64554254,Hz,              -79.44, dBm,
            64708329,Hz,              -77.99, dBm,
            64862404,Hz,              -78.86, dBm,
            65016479,Hz,              -83.22, dBm,
            65170554,Hz,              -86.18, dBm,
            65324629,Hz,              -74.96, dBm,
            65478704,Hz,              -76.17, dBm,
            65632779,Hz,              -81.05, dBm,
            65786854,Hz,              -83.26, dBm,
            65940929,Hz,              -79.43, dBm,
            66095004,Hz,              -79.16, dBm,
            66249079,Hz,              -77.86, dBm,
            66403154,Hz,              -77.15, dBm,
            66557229,Hz,              -76.07, dBm,
            66711304,Hz,              -77.66, dBm,
            66865379,Hz,              -77.01, dBm,
            67019454,Hz,              -79.53, dBm,
            67173529,Hz,              -74.77, dBm,
            67327604,Hz,              -79.28, dBm,
            67481679,Hz,              -78.78, dBm,
            67635754,Hz,              -79.12, dBm,
            67789829,Hz,              -78.02, dBm,
            67943904,Hz,              -77.41, dBm,
            68097979,Hz,              -77.74, dBm,
            68252054,Hz,              -75.11, dBm,
            68406129,Hz,              -73.99, dBm,
            68560204,Hz,              -75.29, dBm,
            68714279,Hz,              -82.73, dBm,
            68868354,Hz,              -83.69, dBm,
            69022429,Hz,              -78.83, dBm,
            69176504,Hz,              -80.77, dBm,
            69330579,Hz,              -77.14, dBm,
            69484654,Hz,              -78.68, dBm,
            69638729,Hz,              -75.03, dBm,
            69792804,Hz,              -82.13, dBm,
            69946879,Hz,              -78.73, dBm,
            70100954,Hz,              -77.35, dBm,
            70255029,Hz,              -81.88, dBm,
            70409104,Hz,              -81.42, dBm,
            70563179,Hz,              -74.66, dBm,
            70717254,Hz,              -81.43, dBm,
            70871329,Hz,              -76.59, dBm,
            71025404,Hz,              -78.12, dBm,
            71179479,Hz,              -77.76, dBm,
            71333554,Hz,              -78.38, dBm,
            71487629,Hz,              -80.43, dBm,
            71641704,Hz,              -76.20, dBm,
            71795779,Hz,              -85.64, dBm,
            71949854,Hz,              -75.93, dBm,
            72103929,Hz,              -78.90, dBm,
            72258004,Hz,              -76.56, dBm,
            72412079,Hz,              -81.19, dBm,
            72566154,Hz,              -76.38, dBm,
            72720229,Hz,              -77.38, dBm,
            72874304,Hz,              -84.76, dBm,
            73028379,Hz,              -81.94, dBm,
            73182454,Hz,              -77.64, dBm,
            73336529,Hz,              -81.42, dBm,
            73490604,Hz,              -79.46, dBm,
            73644679,Hz,              -78.84, dBm,
            73798754,Hz,              -81.19, dBm,
            73952829,Hz,              -76.81, dBm,
            74106904,Hz,              -80.47, dBm,
            74260979,Hz,              -76.75, dBm,
            74415054,Hz,              -78.24, dBm,
            74569129,Hz,              -78.50, dBm,
            74723204,Hz,              -77.72, dBm,
            74877279,Hz,              -76.72, dBm,
            75031354,Hz,              -77.97, dBm,
            75185429,Hz,              -79.78, dBm,
            75339504,Hz,              -79.01, dBm,
            75493579,Hz,              -82.65, dBm,
            75647654,Hz,              -82.40, dBm,
            75801729,Hz,              -82.36, dBm,
            75955804,Hz,              -81.03, dBm,
            76109879,Hz,              -82.61, dBm,
            76263954,Hz,              -79.29, dBm,
            76418029,Hz,              -81.80, dBm,
            76572104,Hz,              -81.36, dBm,
            76726179,Hz,              -79.74, dBm,
            76880254,Hz,              -80.87, dBm,
            77034329,Hz,              -76.79, dBm,
            77188404,Hz,              -75.23, dBm,
            77342479,Hz,              -78.84, dBm,
            77496554,Hz,              -77.59, dBm,
            77650629,Hz,              -73.88, dBm,
            77804704,Hz,              -73.75, dBm,
            77958779,Hz,              -81.06, dBm,
            78112854,Hz,              -79.26, dBm,
            78266929,Hz,              -79.26, dBm,
            78421004,Hz,              -82.03, dBm,
            78575079,Hz,              -76.25, dBm,
            78729154,Hz,              -78.08, dBm,
            78883229,Hz,              -83.88, dBm,
            79037304,Hz,              -79.16, dBm,
            79191379,Hz,              -75.30, dBm,
            79345454,Hz,              -80.82, dBm,
            79499529,Hz,              -80.04, dBm,
            79653604,Hz,              -75.43, dBm,
            79807679,Hz,              -75.80, dBm,
            79961754,Hz,              -83.72, dBm,
            80115829,Hz,              -81.51, dBm,
            80269904,Hz,              -81.09, dBm,
            80423979,Hz,              -81.39, dBm,
            80578054,Hz,              -81.68, dBm,
            80732129,Hz,              -76.67, dBm,
            80886204,Hz,              -80.29, dBm,
            81040279,Hz,              -76.21, dBm,
            81194354,Hz,              -86.31, dBm,
            81348429,Hz,              -73.59, dBm,
            81502504,Hz,              -83.84, dBm,
            81656579,Hz,              -82.25, dBm,
            81810654,Hz,              -77.66, dBm,
            81964729,Hz,              -77.18, dBm,
            82118804,Hz,              -79.17, dBm,
            82272879,Hz,              -86.15, dBm,
            82426954,Hz,              -78.11, dBm,
            82581029,Hz,              -80.67, dBm,
            82735104,Hz,              -78.62, dBm,
            82889179,Hz,              -77.55, dBm,
            83043254,Hz,              -76.16, dBm,
            83197329,Hz,              -75.95, dBm,
            83351404,Hz,              -78.95, dBm,
            83505479,Hz,              -76.75, dBm,
            83659554,Hz,              -76.72, dBm,
            83813629,Hz,              -84.17, dBm,
            83967704,Hz,              -80.97, dBm,
            84121779,Hz,              -74.99, dBm,
            84275854,Hz,              -80.24, dBm,
            84429929,Hz,              -80.62, dBm,
            84584004,Hz,              -73.07, dBm,
            84738079,Hz,              -81.07, dBm,
            84892154,Hz,              -80.18, dBm,
            85046229,Hz,              -79.93, dBm,
            85200304,Hz,              -80.23, dBm,
            85354379,Hz,              -75.92, dBm,
            85508454,Hz,              -80.58, dBm,
            85662529,Hz,              -76.02, dBm,
            85816604,Hz,              -83.88, dBm,
            85970679,Hz,              -79.22, dBm,
            86124754,Hz,              -77.63, dBm,
            86278829,Hz,              -71.92, dBm,
            86432904,Hz,              -76.53, dBm,
            86586979,Hz,              -78.76, dBm,
            86741054,Hz,              -78.85, dBm,
            86895129,Hz,              -82.31, dBm,
            87049204,Hz,              -76.07, dBm,
            87203279,Hz,              -81.94, dBm,
            87357354,Hz,              -78.44, dBm,
            87511429,Hz,              -78.46, dBm,
            87665504,Hz,              -76.74, dBm,
            87819579,Hz,              -76.90, dBm,
            87973654,Hz,              -74.54, dBm,
            88127729,Hz,              -77.78, dBm,
            88281804,Hz,              -81.42, dBm,
            88435879,Hz,              -74.49, dBm,
            88589954,Hz,              -77.00, dBm,
            88744029,Hz,              -71.08, dBm,
            88898104,Hz,              -73.69, dBm,
            89052179,Hz,              -74.72, dBm,
            89206254,Hz,              -75.63, dBm,
            89360329,Hz,              -75.15, dBm,
            89514404,Hz,              -78.03, dBm,
            89668479,Hz,              -70.31, dBm,
            89822554,Hz,              -78.69, dBm,
            89976629,Hz,              -75.74, dBm,
            90130704,Hz,              -73.64, dBm,
            90284779,Hz,              -78.67, dBm,
            90438854,Hz,              -70.57, dBm,
            90592929,Hz,              -70.73, dBm,
            90747004,Hz,              -70.85, dBm,
            90901079,Hz,              -69.55, dBm,
            91055154,Hz,              -70.02, dBm,
            91209229,Hz,              -70.73, dBm,
            91363304,Hz,              -70.04, dBm,
            91517379,Hz,              -72.09, dBm,
            91671454,Hz,              -76.52, dBm,
            91825529,Hz,              -74.74, dBm,
            91979604,Hz,              -71.20, dBm,
            92133679,Hz,              -73.52, dBm,
            92287754,Hz,              -73.36, dBm,
            92441829,Hz,              -72.18, dBm,
            92595904,Hz,              -78.14, dBm,
            92749979,Hz,              -75.71, dBm,
            92904054,Hz,              -80.40, dBm,
            93058129,Hz,              -80.99, dBm,
            93212204,Hz,              -81.86, dBm,
            93366279,Hz,              -82.83, dBm,
            93520354,Hz,              -83.89, dBm,
            93674429,Hz,              -73.54, dBm,
            93828504,Hz,              -74.93, dBm,
            93982579,Hz,              -76.60, dBm,
            94136654,Hz,              -76.57, dBm,
            94290729,Hz,              -74.68, dBm,
            94444804,Hz,              -75.24, dBm,
            94598879,Hz,              -72.68, dBm,
            94752954,Hz,              -72.88, dBm,
            94907029,Hz,              -69.12, dBm,
            95061104,Hz,              -75.71, dBm,
            95215179,Hz,              -72.65, dBm,
            95369254,Hz,              -73.54, dBm,
            95523329,Hz,              -73.44, dBm,
            95677404,Hz,              -74.12, dBm,
            95831479,Hz,              -75.14, dBm,
            95985554,Hz,              -82.26, dBm,
            96139629,Hz,              -78.66, dBm,
            96293704,Hz,              -78.43, dBm,
            96447779,Hz,              -80.39, dBm,
            96601854,Hz,              -78.04, dBm,
            96755929,Hz,              -71.75, dBm,
            96910004,Hz,              -75.02, dBm,
            97064079,Hz,              -73.55, dBm,
            97218154,Hz,              -74.61, dBm,
            97372229,Hz,              -70.40, dBm,
            97526304,Hz,              -73.15, dBm,
            97680379,Hz,              -73.29, dBm,
            97834454,Hz,              -72.96, dBm,
            97988529,Hz,              -73.50, dBm,
            98142604,Hz,              -75.55, dBm,
            98296679,Hz,              -73.19, dBm,
            98450754,Hz,              -75.07, dBm,
            98604829,Hz,              -78.13, dBm,
            98758904,Hz,              -74.98, dBm,
            98912979,Hz,              -73.85, dBm,
            99067054,Hz,              -74.90, dBm,
            99221129,Hz,              -79.12, dBm,
            99375204,Hz,              -73.33, dBm,
            99529279,Hz,              -78.36, dBm,
            99683354,Hz,              -74.12, dBm,
            99837429,Hz,              -76.43, dBm,
            99991504,Hz,              -74.62, dBm,
           100145579,Hz,              -71.53, dBm,
           100299654,Hz,              -70.90, dBm,
           100453729,Hz,              -68.04, dBm,
           100607804,Hz,              -68.09, dBm,
           100761879,Hz,              -70.70, dBm,
           100915954,Hz,              -72.85, dBm,
           101070029,Hz,              -73.63, dBm,
           101224104,Hz,              -74.79, dBm,
           101378179,Hz,              -72.17, dBm,
           101532254,Hz,              -72.33, dBm,
           101686329,Hz,              -71.18, dBm,
