EESchema Schematic File Version 4
LIBS:oscilator-cache
EELAYER 26 0
EELAYER END
$Descr A4 11693 8268
encoding utf-8
Sheet 1 1
Title ""
Date ""
Rev ""
Comp ""
Comment1 ""
Comment2 ""
Comment3 ""
Comment4 ""
$EndDescr
$Comp
L Device:R R1
U 1 1 5C7CFE19
P 2000 2850
F 0 "R1" H 2070 2896 50  0000 L CNN
F 1 "20k" H 2070 2805 50  0000 L CNN
F 2 "Resistor_SMD:R_0805_2012Metric_Pad1.15x1.40mm_HandSolder" V 1930 2850 50  0001 C CNN
F 3 "~" H 2000 2850 50  0001 C CNN
	1    2000 2850
	1    0    0    -1  
$EndComp
$Comp
L Device:R R2
U 1 1 5C7CFE65
P 2000 3350
F 0 "R2" H 2070 3396 50  0000 L CNN
F 1 "10k" H 2070 3305 50  0000 L CNN
F 2 "Resistor_SMD:R_0805_2012Metric_Pad1.15x1.40mm_HandSolder" V 1930 3350 50  0001 C CNN
F 3 "~" H 2000 3350 50  0001 C CNN
	1    2000 3350
	1    0    0    -1  
$EndComp
$Comp
L Device:R Rc1
U 1 1 5C7CFEB1
P 2850 2600
F 0 "Rc1" H 2920 2646 50  0000 L CNN
F 1 "510" H 2920 2555 50  0000 L CNN
F 2 "Resistor_SMD:R_0805_2012Metric_Pad1.15x1.40mm_HandSolder" V 2780 2600 50  0001 C CNN
F 3 "~" H 2850 2600 50  0001 C CNN
	1    2850 2600
	1    0    0    -1  
$EndComp
$Comp
L Device:R Ree1
U 1 1 5C7CFEEB
P 2850 3450
F 0 "Ree1" H 2920 3496 50  0000 L CNN
F 1 "510" H 2920 3405 50  0000 L CNN
F 2 "Resistor_SMD:R_0805_2012Metric_Pad1.15x1.40mm_HandSolder" V 2780 3450 50  0001 C CNN
F 3 "~" H 2850 3450 50  0001 C CNN
	1    2850 3450
	1    0    0    -1  
$EndComp
$Comp
L Device:R Re1
U 1 1 5C7CFFF2
P 2850 3950
F 0 "Re1" H 2920 3996 50  0000 L CNN
F 1 "47" H 2920 3905 50  0000 L CNN
F 2 "Resistor_SMD:R_0805_2012Metric_Pad1.15x1.40mm_HandSolder" V 2780 3950 50  0001 C CNN
F 3 "~" H 2850 3950 50  0001 C CNN
	1    2850 3950
	1    0    0    -1  
$EndComp
$Comp
L Device:C C2
U 1 1 5C7D00C1
P 3250 2900
F 0 "C2" V 2998 2900 50  0000 C CNN
F 1 "C" V 3089 2900 50  0000 C CNN
F 2 "Capacitor_SMD:C_0805_2012Metric_Pad1.15x1.40mm_HandSolder" H 3288 2750 50  0001 C CNN
F 3 "~" H 3250 2900 50  0001 C CNN
	1    3250 2900
	0    1    1    0   
$EndComp
$Comp
L Device:C Cb1
U 1 1 5C7D0169
P 4400 2850
F 0 "Cb1" H 4515 2896 50  0000 L CNN
F 1 "C" H 4515 2805 50  0000 L CNN
F 2 "Capacitor_SMD:C_0805_2012Metric_Pad1.15x1.40mm_HandSolder" H 4438 2700 50  0001 C CNN
F 3 "~" H 4400 2850 50  0001 C CNN
	1    4400 2850
	1    0    0    -1  
$EndComp
$Comp
L Device:C Ca1
U 1 1 5C7D01CB
P 4400 3550
F 0 "Ca1" H 4515 3596 50  0000 L CNN
F 1 "C" H 4515 3505 50  0000 L CNN
F 2 "Capacitor_SMD:C_0805_2012Metric_Pad1.15x1.40mm_HandSolder" H 4438 3400 50  0001 C CNN
F 3 "~" H 4400 3550 50  0001 C CNN
	1    4400 3550
	1    0    0    -1  
$EndComp
Wire Wire Line
	4400 2700 4400 2500
Wire Wire Line
	4400 3400 4400 3200
$Comp
L power:GND #PWR0101
U 1 1 5C7D15B7
P 4250 3200
F 0 "#PWR0101" H 4250 2950 50  0001 C CNN
F 1 "GND" V 4255 3072 50  0000 R CNN
F 2 "" H 4250 3200 50  0001 C CNN
F 3 "" H 4250 3200 50  0001 C CNN
	1    4250 3200
	0    1    1    0   
$EndComp
Connection ~ 4400 3200
Wire Wire Line
	4400 3200 4400 3000
Wire Wire Line
	4250 3200 4400 3200
Wire Wire Line
	4900 2500 4400 2500
Wire Wire Line
	4400 3700 4400 3900
Wire Wire Line
	4400 3900 4900 3900
Text Label 4250 3900 2    50   ~ 0
Retro
Wire Wire Line
	4400 3900 4250 3900
Connection ~ 4400 3900
$Comp
L power:+12V #PWR0102
U 1 1 5C7D1C95
P 1450 1000
F 0 "#PWR0102" H 1450 850 50  0001 C CNN
F 1 "+12V" H 1465 1173 50  0000 C CNN
F 2 "" H 1450 1000 50  0001 C CNN
F 3 "" H 1450 1000 50  0001 C CNN
	1    1450 1000
	1    0    0    -1  
$EndComp
$Comp
L power:GND #PWR0103
U 1 1 5C7D1EE3
P 1450 1550
F 0 "#PWR0103" H 1450 1300 50  0001 C CNN
F 1 "GND" H 1455 1377 50  0000 C CNN
F 2 "" H 1450 1550 50  0001 C CNN
F 3 "" H 1450 1550 50  0001 C CNN
	1    1450 1550
	1    0    0    -1  
$EndComp
Text Label 4300 2500 2    50   ~ 0
tanque
Wire Wire Line
	4300 2500 4400 2500
Connection ~ 4400 2500
$Comp
L Connector:Conn_01x03_Female J5
U 1 1 5C7D35EF
P 2550 3100
F 0 "J5" H 2444 2775 50  0000 C CNN
F 1 "SS9018" H 2444 2866 50  0000 C CNN
F 2 "Connector_PinHeader_2.54mm:PinHeader_1x03_P2.54mm_Vertical" H 2550 3100 50  0001 C CNN
F 3 "~" H 2550 3100 50  0001 C CNN
	1    2550 3100
	-1   0    0    1   
$EndComp
$Comp
L power:GND #PWR0104
U 1 1 5C7D432B
P 2850 4200
F 0 "#PWR0104" H 2850 3950 50  0001 C CNN
F 1 "GND" H 2855 4027 50  0000 C CNN
F 2 "" H 2850 4200 50  0001 C CNN
F 3 "" H 2850 4200 50  0001 C CNN
	1    2850 4200
	1    0    0    -1  
$EndComp
Wire Wire Line
	2850 4200 2850 4100
$Comp
L Device:C Ce1
U 1 1 5C7D47AB
P 3200 3950
F 0 "Ce1" H 3315 3996 50  0000 L CNN
F 1 "C" H 3315 3905 50  0000 L CNN
F 2 "Capacitor_SMD:C_0805_2012Metric_Pad1.15x1.40mm_HandSolder" H 3238 3800 50  0001 C CNN
F 3 "~" H 3200 3950 50  0001 C CNN
	1    3200 3950
	1    0    0    -1  
$EndComp
$Comp
L power:GND #PWR0105
U 1 1 5C7D480D
P 3200 4200
F 0 "#PWR0105" H 3200 3950 50  0001 C CNN
F 1 "GND" H 3205 4027 50  0000 C CNN
F 2 "" H 3200 4200 50  0001 C CNN
F 3 "" H 3200 4200 50  0001 C CNN
	1    3200 4200
	1    0    0    -1  
$EndComp
Wire Wire Line
	3200 4100 3200 4200
Wire Wire Line
	2850 3300 2850 3200
Wire Wire Line
	2850 3200 2750 3200
Text Label 2100 3100 0    50   ~ 0
base
Wire Wire Line
	2000 3000 2000 3100
Wire Wire Line
	2100 3100 2000 3100
Connection ~ 2000 3100
Wire Wire Line
	2000 3100 2000 3200
Text Label 2900 3100 0    50   ~ 0
base
Wire Wire Line
	2750 3100 2900 3100
Wire Wire Line
	2750 3000 2850 3000
Wire Wire Line
	2850 3000 2850 2900
Wire Wire Line
	3100 2900 2850 2900
Connection ~ 2850 2900
Wire Wire Line
	2850 2750 2850 2900
Text Label 3500 2900 0    50   ~ 0
tanque
Wire Wire Line
	3400 2900 3500 2900
$Comp
L Device:L Lrfc1
U 1 1 5C7DA0D5
P 2850 2200
F 0 "Lrfc1" H 2903 2246 50  0000 L CNN
F 1 "1m" H 2903 2155 50  0000 L CNN
F 2 "Inductor_THT:L_Axial_L9.5mm_D4.0mm_P15.24mm_Horizontal_Fastron_SMCC" H 2850 2200 50  0001 C CNN
F 3 "~" H 2850 2200 50  0001 C CNN
	1    2850 2200
	1    0    0    -1  
$EndComp
$Comp
L Device:L L1
U 1 1 5C7DA553
P 4900 3200
F 0 "L1" H 4953 3246 50  0000 L CNN
F 1 "470n" H 4953 3155 50  0000 L CNN
F 2 "Inductor_THT:L_Axial_L9.5mm_D4.0mm_P15.24mm_Horizontal_Fastron_SMCC" H 4900 3200 50  0001 C CNN
F 3 "~" H 4900 3200 50  0001 C CNN
	1    4900 3200
	1    0    0    -1  
$EndComp
Wire Wire Line
	4900 2500 4900 3050
Wire Wire Line
	4900 3350 4900 3900
$Comp
L power:+12V #PWR0106
U 1 1 5C7DB43B
P 2850 1950
F 0 "#PWR0106" H 2850 1800 50  0001 C CNN
F 1 "+12V" H 2865 2123 50  0000 C CNN
F 2 "" H 2850 1950 50  0001 C CNN
F 3 "" H 2850 1950 50  0001 C CNN
	1    2850 1950
	1    0    0    -1  
$EndComp
Wire Wire Line
	2850 2050 2850 1950
Wire Wire Line
	2850 2350 2850 2450
$Comp
L power:+12V #PWR0107
U 1 1 5C7DCB37
P 2000 2600
F 0 "#PWR0107" H 2000 2450 50  0001 C CNN
F 1 "+12V" H 2015 2773 50  0000 C CNN
F 2 "" H 2000 2600 50  0001 C CNN
F 3 "" H 2000 2600 50  0001 C CNN
	1    2000 2600
	1    0    0    -1  
$EndComp
Wire Wire Line
	2000 2600 2000 2700
$Comp
L power:GND #PWR0108
U 1 1 5C7DD3D8
P 2000 3600
F 0 "#PWR0108" H 2000 3350 50  0001 C CNN
F 1 "GND" H 2005 3427 50  0000 C CNN
F 2 "" H 2000 3600 50  0001 C CNN
F 3 "" H 2000 3600 50  0001 C CNN
	1    2000 3600
	1    0    0    -1  
$EndComp
Wire Wire Line
	2000 3500 2000 3600
Text Label 1900 1100 2    50   ~ 0
tanque
$Comp
L power:GND #PWR0109
U 1 1 5C7DF45B
P 1900 1550
F 0 "#PWR0109" H 1900 1300 50  0001 C CNN
F 1 "GND" H 1905 1377 50  0000 C CNN
F 2 "" H 1900 1550 50  0001 C CNN
F 3 "" H 1900 1550 50  0001 C CNN
	1    1900 1550
	1    0    0    -1  
$EndComp
$Comp
L Device:C Cs1
U 1 1 5C7E09D4
P 1700 3100
F 0 "Cs1" V 1448 3100 50  0000 C CNN
F 1 "C" V 1539 3100 50  0000 C CNN
F 2 "Capacitor_SMD:C_0805_2012Metric_Pad1.15x1.40mm_HandSolder" H 1738 2950 50  0001 C CNN
F 3 "~" H 1700 3100 50  0001 C CNN
	1    1700 3100
	0    1    1    0   
$EndComp
Wire Wire Line
	1850 3100 2000 3100
Text Label 1450 3100 2    50   ~ 0
Retro
Wire Wire Line
	1450 3100 1550 3100
Text Notes 1450 2300 0    50   ~ 0
Polarización Universal
Text Notes 4350 2350 0    50   ~ 0
Circuito tanque
Text Notes 900  750  0    50   ~ 0
Entrada de energía
Text Notes 1900 850  0    50   ~ 0
Salida Oscilador
Wire Wire Line
	2850 3600 2850 3800
Wire Wire Line
	3200 3200 2850 3200
Wire Wire Line
	3200 3200 3200 3800
Connection ~ 2850 3200
$Comp
L Connector:Conn_01x01_Male J1
U 1 1 5C826831
P 850 1150
F 0 "J1" H 956 1328 50  0000 C CNN
F 1 "VCC" H 956 1237 50  0000 C CNN
F 2 "Connector_PinHeader_2.54mm:PinHeader_1x01_P2.54mm_Vertical" H 850 1150 50  0001 C CNN
F 3 "~" H 850 1150 50  0001 C CNN
	1    850  1150
	1    0    0    -1  
$EndComp
$Comp
L Connector:Conn_01x01_Male J2
U 1 1 5C8274A1
P 850 1450
F 0 "J2" H 956 1628 50  0000 C CNN
F 1 "GND" H 956 1537 50  0000 C CNN
F 2 "Connector_PinHeader_2.54mm:PinHeader_1x01_P2.54mm_Vertical" H 850 1450 50  0001 C CNN
F 3 "~" H 850 1450 50  0001 C CNN
	1    850  1450
	1    0    0    -1  
$EndComp
Wire Wire Line
	1450 1550 1450 1450
Wire Wire Line
	1450 1450 1050 1450
Wire Wire Line
	1050 1150 1450 1150
Wire Wire Line
	1450 1150 1450 1000
$Comp
L Connector:Conn_01x01_Male J3
U 1 1 5C829275
P 2350 1100
F 0 "J3" H 2322 1030 50  0000 R CNN
F 1 "OUT" H 2322 1121 50  0000 R CNN
F 2 "Connector_PinHeader_2.54mm:PinHeader_1x01_P2.54mm_Vertical" H 2350 1100 50  0001 C CNN
F 3 "~" H 2350 1100 50  0001 C CNN
	1    2350 1100
	-1   0    0    1   
$EndComp
$Comp
L Connector:Conn_01x01_Male J4
U 1 1 5C829C7D
P 2350 1350
F 0 "J4" H 2323 1280 50  0000 R CNN
F 1 "GND" H 2323 1371 50  0000 R CNN
F 2 "Connector_PinHeader_2.54mm:PinHeader_1x01_P2.54mm_Vertical" H 2350 1350 50  0001 C CNN
F 3 "~" H 2350 1350 50  0001 C CNN
	1    2350 1350
	-1   0    0    1   
$EndComp
Wire Wire Line
	1900 1100 2150 1100
Wire Wire Line
	2150 1350 1900 1350
Wire Wire Line
	1900 1350 1900 1550
$EndSCHEMATC
