G04 #@! TF.GenerationSoftware,KiCad,Pcbnew,5.0.2+dfsg1-1*
G04 #@! TF.CreationDate,2019-03-08T07:06:59-05:00*
G04 #@! TF.ProjectId,oscilator,6f736369-6c61-4746-9f72-2e6b69636164,rev?*
G04 #@! TF.SameCoordinates,Original*
G04 #@! TF.FileFunction,Profile,NP*
%FSLAX46Y46*%
G04 Gerber Fmt 4.6, Leading zero omitted, Abs format (unit mm)*
G04 Created by KiCad (PCBNEW 5.0.2+dfsg1-1) date Fri 08 Mar 2019 07:06:59 AM -05*
%MOMM*%
%LPD*%
G01*
G04 APERTURE LIST*
%ADD10C,0.150000*%
G04 APERTURE END LIST*
D10*
X66040000Y-49530000D02*
X66040000Y-86995000D01*
X124460000Y-49530000D02*
X66040000Y-49530000D01*
X124460000Y-86995000D02*
X124460000Y-49530000D01*
X66040000Y-86995000D02*
X124460000Y-86995000D01*
M02*
