%!PS-Adobe-3.0 EPSF-3.0
%%Creator: nutmeg
%%BoundingBox: 54 54 612 612
/ReEncode { % inFont outFont encoding | -
   /MyEncoding exch def
      exch findfont
      dup length dict
      begin
         {def} forall
         /Encoding MyEncoding def
         currentdict
      end
      definefont
} def
/Helvetica /HelveticaLatin1 ISOLatin1Encoding ReEncode
1 1 scale
1.000 1.000 1.000 setrgbcolor
newpath
54 54 moveto 612 54 lineto
612 612 lineto 54 612 lineto
closepath fill
/HelveticaLatin1 findfont 10 scalefont setfont

0.000 0.000 0.000 setrgbcolor
0.502 0.502 0.502 setrgbcolor
0.000 0.000 0.000 setrgbcolor
0.000 0.000 0.000 setrgbcolor
243 66 moveto
0 rotate
(time) show
-0 rotate
0.000 0.000 0.000 setrgbcolor
0.502 0.502 0.502 setrgbcolor
0.000 0.000 0.000 setrgbcolor
0.000 0.000 0.000 setrgbcolor
54 596 moveto
0 rotate
(tran2: Oscilador ) show
-0 rotate
0.000 0.000 0.000 setrgbcolor
0.502 0.502 0.502 setrgbcolor
newpath
78 104 moveto
78 545 lineto
stroke
0.000 0.000 0.000 setrgbcolor
0.000 0.000 0.000 setrgbcolor
60 87 moveto
0 rotate
(11.960) show
-0 rotate
0.000 0.000 0.000 setrgbcolor
0.502 0.502 0.502 setrgbcolor
newpath
140 104 moveto
140 545 lineto
stroke
0.000 0.000 0.000 setrgbcolor
0.000 0.000 0.000 setrgbcolor
122 87 moveto
0 rotate
(11.965) show
-0 rotate
0.000 0.000 0.000 setrgbcolor
0.502 0.502 0.502 setrgbcolor
newpath
202 104 moveto
202 545 lineto
stroke
0.000 0.000 0.000 setrgbcolor
0.000 0.000 0.000 setrgbcolor
184 87 moveto
0 rotate
(11.970) show
-0 rotate
0.000 0.000 0.000 setrgbcolor
0.502 0.502 0.502 setrgbcolor
newpath
264 104 moveto
264 545 lineto
stroke
0.000 0.000 0.000 setrgbcolor
0.000 0.000 0.000 setrgbcolor
246 87 moveto
0 rotate
(11.975) show
-0 rotate
0.000 0.000 0.000 setrgbcolor
0.502 0.502 0.502 setrgbcolor
newpath
326 104 moveto
326 545 lineto
stroke
0.000 0.000 0.000 setrgbcolor
0.000 0.000 0.000 setrgbcolor
308 87 moveto
0 rotate
(11.980) show
-0 rotate
0.000 0.000 0.000 setrgbcolor
0.502 0.502 0.502 setrgbcolor
newpath
388 104 moveto
388 545 lineto
stroke
0.000 0.000 0.000 setrgbcolor
0.000 0.000 0.000 setrgbcolor
370 87 moveto
0 rotate
(11.985) show
-0 rotate
0.000 0.000 0.000 setrgbcolor
0.502 0.502 0.502 setrgbcolor
newpath
450 104 moveto
450 545 lineto
stroke
0.000 0.000 0.000 setrgbcolor
0.000 0.000 0.000 setrgbcolor
432 87 moveto
0 rotate
(11.990) show
-0 rotate
0.000 0.000 0.000 setrgbcolor
0.502 0.502 0.502 setrgbcolor
newpath
512 104 moveto
512 545 lineto
stroke
0.000 0.000 0.000 setrgbcolor
0.000 0.000 0.000 setrgbcolor
494 87 moveto
0 rotate
(11.995) show
-0 rotate
0.000 0.000 0.000 setrgbcolor
0.502 0.502 0.502 setrgbcolor
newpath
574 104 moveto
574 545 lineto
stroke
0.000 0.000 0.000 setrgbcolor
0.000 0.000 0.000 setrgbcolor
556 87 moveto
0 rotate
(12.000) show
-0 rotate
0.000 0.000 0.000 setrgbcolor
0.502 0.502 0.502 setrgbcolor
0.000 0.000 0.000 setrgbcolor
0.000 0.000 0.000 setrgbcolor
382 66 moveto
0 rotate
(us) show
-0 rotate
0.000 0.000 0.000 setrgbcolor
0.502 0.502 0.502 setrgbcolor
newpath
78 104 moveto
574 104 lineto
stroke
0.000 0.000 0.000 setrgbcolor
0.000 0.000 0.000 setrgbcolor
54 101 moveto
0 rotate
(-8.0) show
-0 rotate
0.000 0.000 0.000 setrgbcolor
0.502 0.502 0.502 setrgbcolor
newpath
78 167 moveto
574 167 lineto
stroke
0.000 0.000 0.000 setrgbcolor
0.000 0.000 0.000 setrgbcolor
54 164 moveto
0 rotate
(-6.0) show
-0 rotate
0.000 0.000 0.000 setrgbcolor
0.502 0.502 0.502 setrgbcolor
newpath
78 230 moveto
574 230 lineto
stroke
0.000 0.000 0.000 setrgbcolor
0.000 0.000 0.000 setrgbcolor
54 227 moveto
0 rotate
(-4.0) show
-0 rotate
0.000 0.000 0.000 setrgbcolor
0.502 0.502 0.502 setrgbcolor
newpath
78 293 moveto
574 293 lineto
stroke
0.000 0.000 0.000 setrgbcolor
0.000 0.000 0.000 setrgbcolor
54 290 moveto
0 rotate
(-2.0) show
-0 rotate
0.000 0.000 0.000 setrgbcolor
0.502 0.502 0.502 setrgbcolor
0.000 0.000 0.000 setrgbcolor
newpath
78 356 moveto
574 356 lineto
stroke
0.502 0.502 0.502 setrgbcolor
0.000 0.000 0.000 setrgbcolor
0.000 0.000 0.000 setrgbcolor
60 353 moveto
0 rotate
(0.0) show
-0 rotate
0.000 0.000 0.000 setrgbcolor
0.502 0.502 0.502 setrgbcolor
newpath
78 419 moveto
574 419 lineto
stroke
0.000 0.000 0.000 setrgbcolor
0.000 0.000 0.000 setrgbcolor
60 416 moveto
0 rotate
(2.0) show
-0 rotate
0.000 0.000 0.000 setrgbcolor
0.502 0.502 0.502 setrgbcolor
newpath
78 482 moveto
574 482 lineto
stroke
0.000 0.000 0.000 setrgbcolor
0.000 0.000 0.000 setrgbcolor
60 479 moveto
0 rotate
(4.0) show
-0 rotate
0.000 0.000 0.000 setrgbcolor
0.502 0.502 0.502 setrgbcolor
newpath
78 545 moveto
574 545 lineto
stroke
0.000 0.000 0.000 setrgbcolor
0.000 0.000 0.000 setrgbcolor
60 542 moveto
0 rotate
(6.0) show
-0 rotate
0.000 0.000 0.000 setrgbcolor
0.502 0.502 0.502 setrgbcolor
0.000 0.000 0.000 setrgbcolor
0.000 0.000 0.000 setrgbcolor
54 582 moveto
0 rotate
(V) show
-0 rotate
0.000 0.000 0.000 setrgbcolor
0.502 0.502 0.502 setrgbcolor
1.000 0.000 0.000 setrgbcolor
newpath
296 586 moveto
320 586 lineto
stroke
0.000 0.000 0.000 setrgbcolor
0.000 0.000 0.000 setrgbcolor
326 582 moveto
0 rotate
(v(out)) show
-0 rotate
0.000 0.000 0.000 setrgbcolor
1.000 0.000 0.000 setrgbcolor
newpath
79 166 moveto
80 166 lineto
81 167 lineto
82 167 lineto
83 167 lineto
84 168 lineto
85 168 lineto
86 169 lineto
87 169 lineto
87 170 lineto
88 170 lineto
88 171 lineto
89 171 lineto
90 172 lineto
90 174 lineto
91 175 lineto
91 176 lineto
92 178 lineto
92 180 lineto
93 183 lineto
94 185 lineto
94 188 lineto
95 191 lineto
95 194 lineto
96 197 lineto
97 201 lineto
97 204 lineto
98 208 lineto
98 212 lineto
99 216 lineto
100 221 lineto
100 225 lineto
101 230 lineto
102 234 lineto
102 239 lineto
103 244 lineto
103 250 lineto
104 255 lineto
105 260 lineto
105 266 lineto
106 272 lineto
107 277 lineto
107 283 lineto
108 289 lineto
108 295 lineto
109 301 lineto
110 307 lineto
110 313 lineto
111 320 lineto
111 326 lineto
112 332 lineto
113 338 lineto
113 344 lineto
114 350 lineto
115 356 lineto
115 362 lineto
116 368 lineto
116 374 lineto
117 380 lineto
118 386 lineto
118 392 lineto
119 398 lineto
120 404 lineto
120 409 lineto
121 415 lineto
121 420 lineto
122 426 lineto
123 431 lineto
123 436 lineto
124 441 lineto
125 446 lineto
125 451 lineto
126 456 lineto
126 460 lineto
127 465 lineto
128 469 lineto
128 473 lineto
129 477 lineto
129 481 lineto
130 485 lineto
131 489 lineto
131 492 lineto
132 496 lineto
133 499 lineto
133 502 lineto
134 505 lineto
134 507 lineto
135 510 lineto
136 512 lineto
136 515 lineto
137 517 lineto
138 518 lineto
138 520 lineto
139 522 lineto
139 523 lineto
140 524 lineto
141 525 lineto
141 526 lineto
142 526 lineto
142 527 lineto
143 527 lineto
144 527 lineto
145 527 lineto
146 526 lineto
146 525 lineto
147 525 lineto
147 524 lineto
148 522 lineto
149 521 lineto
149 520 lineto
150 518 lineto
151 516 lineto
151 514 lineto
152 512 lineto
152 509 lineto
153 507 lineto
154 504 lineto
154 501 lineto
155 498 lineto
156 495 lineto
156 492 lineto
157 489 lineto
157 485 lineto
158 481 lineto
159 478 lineto
159 474 lineto
160 470 lineto
160 465 lineto
161 461 lineto
162 457 lineto
162 452 lineto
163 448 lineto
164 443 lineto
164 439 lineto
165 434 lineto
165 429 lineto
166 424 lineto
167 419 lineto
167 414 lineto
168 409 lineto
169 404 lineto
169 398 lineto
170 393 lineto
170 388 lineto
171 382 lineto
172 377 lineto
172 372 lineto
173 366 lineto
173 361 lineto
174 356 lineto
175 350 lineto
175 345 lineto
176 340 lineto
177 334 lineto
177 329 lineto
178 324 lineto
178 318 lineto
179 313 lineto
180 308 lineto
180 303 lineto
181 298 lineto
182 293 lineto
182 288 lineto
183 283 lineto
183 279 lineto
184 274 lineto
185 269 lineto
185 264 lineto
186 259 lineto
187 255 lineto
187 250 lineto
188 245 lineto
188 240 lineto
189 235 lineto
190 231 lineto
190 226 lineto
191 222 lineto
191 217 lineto
192 213 lineto
193 209 lineto
193 205 lineto
194 201 lineto
195 197 lineto
195 194 lineto
196 190 lineto
196 187 lineto
197 184 lineto
198 181 lineto
198 179 lineto
199 176 lineto
200 175 lineto
200 173 lineto
201 172 lineto
201 171 lineto
202 170 lineto
203 169 lineto
203 168 lineto
204 168 lineto
204 167 lineto
205 167 lineto
206 167 lineto
206 166 lineto
207 166 lineto
208 166 lineto
209 166 lineto
210 167 lineto
211 167 lineto
212 167 lineto
213 168 lineto
214 168 lineto
214 169 lineto
215 169 lineto
216 169 lineto
216 170 lineto
217 170 lineto
218 171 lineto
219 172 lineto
219 174 lineto
220 175 lineto
220 176 lineto
220 178 lineto
221 180 lineto
222 182 lineto
222 185 lineto
223 188 lineto
224 190 lineto
224 194 lineto
225 197 lineto
225 200 lineto
226 204 lineto
227 208 lineto
227 212 lineto
228 216 lineto
229 220 lineto
229 224 lineto
230 229 lineto
230 234 lineto
231 239 lineto
232 244 lineto
232 249 lineto
233 254 lineto
234 260 lineto
234 265 lineto
235 271 lineto
235 276 lineto
236 282 lineto
237 288 lineto
237 294 lineto
238 300 lineto
238 306 lineto
239 312 lineto
240 319 lineto
240 325 lineto
241 331 lineto
242 337 lineto
242 343 lineto
243 349 lineto
243 355 lineto
244 361 lineto
245 367 lineto
245 373 lineto
246 379 lineto
247 385 lineto
247 391 lineto
248 397 lineto
248 403 lineto
249 408 lineto
250 414 lineto
250 419 lineto
251 425 lineto
251 430 lineto
252 435 lineto
253 440 lineto
253 445 lineto
254 450 lineto
255 455 lineto
255 460 lineto
256 464 lineto
256 468 lineto
257 473 lineto
258 477 lineto
258 481 lineto
259 485 lineto
260 488 lineto
260 492 lineto
261 495 lineto
261 498 lineto
262 501 lineto
263 504 lineto
263 507 lineto
264 510 lineto
265 512 lineto
265 514 lineto
266 516 lineto
266 518 lineto
267 520 lineto
268 521 lineto
268 523 lineto
269 524 lineto
269 525 lineto
270 526 lineto
271 526 lineto
271 527 lineto
272 527 lineto
273 527 lineto
274 527 lineto
274 526 lineto
275 526 lineto
276 525 lineto
276 524 lineto
277 523 lineto
278 521 lineto
278 520 lineto
279 518 lineto
279 516 lineto
280 514 lineto
281 512 lineto
281 510 lineto
282 507 lineto
282 505 lineto
283 502 lineto
284 499 lineto
284 496 lineto
285 492 lineto
286 489 lineto
286 486 lineto
287 482 lineto
287 478 lineto
288 474 lineto
289 470 lineto
289 466 lineto
290 462 lineto
291 458 lineto
291 453 lineto
292 449 lineto
292 444 lineto
293 439 lineto
294 434 lineto
294 430 lineto
295 425 lineto
296 420 lineto
296 415 lineto
297 410 lineto
297 404 lineto
298 399 lineto
299 394 lineto
299 389 lineto
300 383 lineto
300 378 lineto
301 373 lineto
302 367 lineto
302 362 lineto
303 357 lineto
304 351 lineto
304 346 lineto
305 340 lineto
305 335 lineto
306 330 lineto
307 325 lineto
307 319 lineto
308 314 lineto
309 309 lineto
309 304 lineto
310 299 lineto
310 294 lineto
311 289 lineto
312 284 lineto
312 279 lineto
313 275 lineto
313 270 lineto
314 265 lineto
315 260 lineto
315 255 lineto
316 251 lineto
317 246 lineto
317 241 lineto
318 236 lineto
318 232 lineto
319 227 lineto
320 222 lineto
320 218 lineto
321 214 lineto
322 210 lineto
322 206 lineto
323 202 lineto
323 198 lineto
324 194 lineto
325 191 lineto
325 187 lineto
326 184 lineto
327 181 lineto
327 179 lineto
328 177 lineto
328 175 lineto
329 173 lineto
330 172 lineto
330 171 lineto
331 170 lineto
331 169 lineto
332 168 lineto
333 168 lineto
333 167 lineto
334 167 lineto
335 167 lineto
335 166 lineto
336 166 lineto
337 166 lineto
338 166 lineto
339 167 lineto
340 167 lineto
341 167 lineto
342 168 lineto
343 168 lineto
344 169 lineto
345 170 lineto
346 170 lineto
346 171 lineto
347 171 lineto
348 172 lineto
348 174 lineto
348 175 lineto
349 175 lineto
349 176 lineto
350 178 lineto
350 180 lineto
351 183 lineto
351 185 lineto
352 188 lineto
353 191 lineto
353 194 lineto
354 197 lineto
355 201 lineto
355 204 lineto
356 208 lineto
356 212 lineto
357 216 lineto
358 221 lineto
358 225 lineto
359 230 lineto
359 234 lineto
360 239 lineto
361 244 lineto
361 250 lineto
362 255 lineto
363 260 lineto
363 266 lineto
364 272 lineto
364 277 lineto
365 283 lineto
366 289 lineto
366 295 lineto
367 301 lineto
368 307 lineto
368 313 lineto
369 320 lineto
369 326 lineto
370 332 lineto
371 338 lineto
371 344 lineto
372 350 lineto
372 356 lineto
373 362 lineto
374 368 lineto
374 374 lineto
375 380 lineto
376 386 lineto
376 392 lineto
377 398 lineto
377 404 lineto
378 409 lineto
379 415 lineto
379 420 lineto
380 426 lineto
381 431 lineto
381 436 lineto
382 441 lineto
382 446 lineto
383 451 lineto
384 456 lineto
384 460 lineto
385 465 lineto
386 469 lineto
386 473 lineto
387 477 lineto
387 481 lineto
388 485 lineto
389 489 lineto
389 492 lineto
390 496 lineto
390 499 lineto
391 502 lineto
392 505 lineto
392 507 lineto
393 510 lineto
394 512 lineto
394 515 lineto
395 517 lineto
395 518 lineto
396 520 lineto
397 522 lineto
397 523 lineto
398 524 lineto
399 525 lineto
399 526 lineto
400 526 lineto
400 527 lineto
401 527 lineto
402 527 lineto
403 527 lineto
403 526 lineto
404 525 lineto
405 525 lineto
405 524 lineto
406 522 lineto
407 521 lineto
407 520 lineto
408 518 lineto
408 516 lineto
409 514 lineto
410 512 lineto
410 509 lineto
411 507 lineto
412 504 lineto
412 501 lineto
413 498 lineto
413 495 lineto
414 492 lineto
415 489 lineto
415 485 lineto
416 481 lineto
417 478 lineto
417 474 lineto
418 470 lineto
418 465 lineto
419 461 lineto
420 457 lineto
420 452 lineto
421 448 lineto
421 443 lineto
422 439 lineto
423 434 lineto
423 429 lineto
424 424 lineto
425 419 lineto
425 414 lineto
426 409 lineto
426 404 lineto
427 398 lineto
428 393 lineto
428 388 lineto
429 382 lineto
430 377 lineto
430 372 lineto
431 366 lineto
431 361 lineto
432 356 lineto
433 350 lineto
433 345 lineto
434 340 lineto
434 334 lineto
435 329 lineto
436 324 lineto
436 318 lineto
437 313 lineto
438 308 lineto
438 303 lineto
439 298 lineto
439 293 lineto
440 288 lineto
441 283 lineto
441 279 lineto
442 274 lineto
443 269 lineto
443 264 lineto
444 259 lineto
444 255 lineto
445 250 lineto
446 245 lineto
446 240 lineto
447 235 lineto
448 231 lineto
448 226 lineto
449 222 lineto
449 217 lineto
450 213 lineto
451 209 lineto
451 205 lineto
452 201 lineto
452 197 lineto
453 194 lineto
454 190 lineto
454 187 lineto
455 184 lineto
456 181 lineto
456 179 lineto
457 176 lineto
457 175 lineto
458 173 lineto
459 172 lineto
459 171 lineto
460 170 lineto
461 169 lineto
461 168 lineto
462 168 lineto
462 167 lineto
463 167 lineto
464 167 lineto
464 166 lineto
465 166 lineto
466 166 lineto
467 166 lineto
468 167 lineto
469 167 lineto
470 167 lineto
470 168 lineto
471 168 lineto
472 168 lineto
472 169 lineto
473 169 lineto
474 169 lineto
474 170 lineto
475 170 lineto
475 171 lineto
476 171 lineto
477 172 lineto
477 174 lineto
477 175 lineto
478 176 lineto
478 178 lineto
479 180 lineto
480 182 lineto
480 185 lineto
481 188 lineto
482 190 lineto
482 194 lineto
483 197 lineto
483 200 lineto
484 204 lineto
485 208 lineto
485 212 lineto
486 216 lineto
486 220 lineto
487 224 lineto
488 229 lineto
488 234 lineto
489 239 lineto
490 244 lineto
490 249 lineto
491 254 lineto
491 260 lineto
492 265 lineto
493 271 lineto
493 276 lineto
494 282 lineto
495 288 lineto
495 294 lineto
496 300 lineto
496 306 lineto
497 312 lineto
498 319 lineto
498 325 lineto
499 331 lineto
499 337 lineto
500 343 lineto
501 349 lineto
501 355 lineto
502 361 lineto
503 367 lineto
503 373 lineto
504 379 lineto
504 385 lineto
505 391 lineto
506 397 lineto
506 403 lineto
507 408 lineto
508 414 lineto
508 419 lineto
509 425 lineto
509 430 lineto
510 435 lineto
511 440 lineto
511 445 lineto
512 450 lineto
513 455 lineto
513 460 lineto
514 464 lineto
514 468 lineto
515 473 lineto
516 477 lineto
516 481 lineto
517 485 lineto
517 488 lineto
518 492 lineto
519 495 lineto
519 498 lineto
520 501 lineto
521 504 lineto
521 507 lineto
522 510 lineto
522 512 lineto
523 514 lineto
524 516 lineto
524 518 lineto
525 520 lineto
526 521 lineto
526 523 lineto
527 524 lineto
527 525 lineto
528 526 lineto
529 526 lineto
529 527 lineto
530 527 lineto
531 527 lineto
532 527 lineto
532 526 lineto
533 526 lineto
534 525 lineto
534 524 lineto
535 523 lineto
535 521 lineto
536 520 lineto
537 518 lineto
537 516 lineto
538 514 lineto
539 512 lineto
539 510 lineto
540 507 lineto
540 505 lineto
541 502 lineto
542 499 lineto
542 496 lineto
543 492 lineto
544 489 lineto
544 486 lineto
545 482 lineto
545 478 lineto
546 474 lineto
547 470 lineto
547 466 lineto
548 462 lineto
548 458 lineto
549 453 lineto
550 449 lineto
550 444 lineto
551 439 lineto
552 434 lineto
552 430 lineto
553 425 lineto
553 420 lineto
554 415 lineto
555 410 lineto
555 404 lineto
556 399 lineto
557 394 lineto
557 389 lineto
558 383 lineto
558 378 lineto
559 373 lineto
560 367 lineto
560 362 lineto
561 357 lineto
561 351 lineto
562 346 lineto
563 340 lineto
563 335 lineto
564 330 lineto
565 325 lineto
565 319 lineto
566 314 lineto
566 309 lineto
567 304 lineto
568 299 lineto
568 294 lineto
569 289 lineto
570 284 lineto
570 279 lineto
571 275 lineto
571 270 lineto
572 265 lineto
573 260 lineto
573 255 lineto
574 251 lineto
574 250 lineto
stroke
showpage
%%EOF
