%!PS-Adobe-3.0 EPSF-3.0
%%BoundingBox: 48 66 575 604
%%HiResBoundingBox: 48.500000 66.000000 574.500000 603.500000
%%Creator: nutmeg
%%EndComments
% EPSF created by ps2eps 1.68
%%BeginProlog
save
countdictstack
mark
newpath
/showpage {} def
/setpagedevice {pop} def
%%EndProlog
%%Page 1 1
/ReEncode { % inFont outFont encoding | -
   /MyEncoding exch def
      exch findfont
      dup length dict
      begin
         {def} forall
         /Encoding MyEncoding def
         currentdict
      end
      definefont
} def
/Helvetica /HelveticaLatin1 ISOLatin1Encoding ReEncode
1 1 scale
1.000 1.000 1.000 setrgbcolor
newpath
54 54 moveto 612 54 lineto
612 612 lineto 54 612 lineto
closepath fill
/HelveticaLatin1 findfont 10 scalefont setfont
0.000 0.000 0.000 setrgbcolor
0.502 0.502 0.502 setrgbcolor
0.000 0.000 0.000 setrgbcolor
0.000 0.000 0.000 setrgbcolor
243 66 moveto
0 rotate
(time) show
-0 rotate
0.000 0.000 0.000 setrgbcolor
0.502 0.502 0.502 setrgbcolor
0.000 0.000 0.000 setrgbcolor
0.000 0.000 0.000 setrgbcolor
54 596 moveto
0 rotate
(tran1: Oscilador ) show
-0 rotate
0.000 0.000 0.000 setrgbcolor
0.502 0.502 0.502 setrgbcolor
newpath
78 104 moveto
78 545 lineto
stroke
0.000 0.000 0.000 setrgbcolor
0.000 0.000 0.000 setrgbcolor
69 87 moveto
0 rotate
(1.0) show
-0 rotate
0.000 0.000 0.000 setrgbcolor
0.502 0.502 0.502 setrgbcolor
newpath
119 104 moveto
119 545 lineto
stroke
0.000 0.000 0.000 setrgbcolor
0.000 0.000 0.000 setrgbcolor
110 87 moveto
0 rotate
(1.5) show
-0 rotate
0.000 0.000 0.000 setrgbcolor
0.502 0.502 0.502 setrgbcolor
newpath
160 104 moveto
160 545 lineto
stroke
0.000 0.000 0.000 setrgbcolor
0.000 0.000 0.000 setrgbcolor
151 87 moveto
0 rotate
(2.0) show
-0 rotate
0.000 0.000 0.000 setrgbcolor
0.502 0.502 0.502 setrgbcolor
newpath
201 104 moveto
201 545 lineto
stroke
0.000 0.000 0.000 setrgbcolor
0.000 0.000 0.000 setrgbcolor
192 87 moveto
0 rotate
(2.5) show
-0 rotate
0.000 0.000 0.000 setrgbcolor
0.502 0.502 0.502 setrgbcolor
newpath
242 104 moveto
242 545 lineto
stroke
0.000 0.000 0.000 setrgbcolor
0.000 0.000 0.000 setrgbcolor
233 87 moveto
0 rotate
(3.0) show
-0 rotate
0.000 0.000 0.000 setrgbcolor
0.502 0.502 0.502 setrgbcolor
newpath
283 104 moveto
283 545 lineto
stroke
0.000 0.000 0.000 setrgbcolor
0.000 0.000 0.000 setrgbcolor
274 87 moveto
0 rotate
(3.5) show
-0 rotate
0.000 0.000 0.000 setrgbcolor
0.502 0.502 0.502 setrgbcolor
newpath
324 104 moveto
324 545 lineto
stroke
0.000 0.000 0.000 setrgbcolor
0.000 0.000 0.000 setrgbcolor
315 87 moveto
0 rotate
(4.0) show
-0 rotate
0.000 0.000 0.000 setrgbcolor
0.502 0.502 0.502 setrgbcolor
newpath
365 104 moveto
365 545 lineto
stroke
0.000 0.000 0.000 setrgbcolor
0.000 0.000 0.000 setrgbcolor
356 87 moveto
0 rotate
(4.5) show
-0 rotate
0.000 0.000 0.000 setrgbcolor
0.502 0.502 0.502 setrgbcolor
newpath
406 104 moveto
406 545 lineto
stroke
0.000 0.000 0.000 setrgbcolor
0.000 0.000 0.000 setrgbcolor
397 87 moveto
0 rotate
(5.0) show
-0 rotate
0.000 0.000 0.000 setrgbcolor
0.502 0.502 0.502 setrgbcolor
newpath
447 104 moveto
447 545 lineto
stroke
0.000 0.000 0.000 setrgbcolor
0.000 0.000 0.000 setrgbcolor
438 87 moveto
0 rotate
(5.5) show
-0 rotate
0.000 0.000 0.000 setrgbcolor
0.502 0.502 0.502 setrgbcolor
newpath
488 104 moveto
488 545 lineto
stroke
0.000 0.000 0.000 setrgbcolor
0.000 0.000 0.000 setrgbcolor
479 87 moveto
0 rotate
(6.0) show
-0 rotate
0.000 0.000 0.000 setrgbcolor
0.502 0.502 0.502 setrgbcolor
newpath
529 104 moveto
529 545 lineto
stroke
0.000 0.000 0.000 setrgbcolor
0.000 0.000 0.000 setrgbcolor
520 87 moveto
0 rotate
(6.5) show
-0 rotate
0.000 0.000 0.000 setrgbcolor
0.502 0.502 0.502 setrgbcolor
newpath
570 104 moveto
570 545 lineto
stroke
0.000 0.000 0.000 setrgbcolor
0.000 0.000 0.000 setrgbcolor
561 87 moveto
0 rotate
(7.0) show
-0 rotate
0.000 0.000 0.000 setrgbcolor
0.502 0.502 0.502 setrgbcolor
0.000 0.000 0.000 setrgbcolor
0.000 0.000 0.000 setrgbcolor
382 66 moveto
0 rotate
(us) show
-0 rotate
0.000 0.000 0.000 setrgbcolor
0.502 0.502 0.502 setrgbcolor
newpath
78 104 moveto
570 104 lineto
stroke
0.000 0.000 0.000 setrgbcolor
0.000 0.000 0.000 setrgbcolor
48 101 moveto
0 rotate
(-10.0) show
-0 rotate
0.000 0.000 0.000 setrgbcolor
0.502 0.502 0.502 setrgbcolor
newpath
78 153 moveto
570 153 lineto
stroke
0.000 0.000 0.000 setrgbcolor
0.000 0.000 0.000 setrgbcolor
54 150 moveto
0 rotate
(-8.0) show
-0 rotate
0.000 0.000 0.000 setrgbcolor
0.502 0.502 0.502 setrgbcolor
newpath
78 202 moveto
570 202 lineto
stroke
0.000 0.000 0.000 setrgbcolor
0.000 0.000 0.000 setrgbcolor
54 199 moveto
0 rotate
(-6.0) show
-0 rotate
0.000 0.000 0.000 setrgbcolor
0.502 0.502 0.502 setrgbcolor
newpath
78 251 moveto
570 251 lineto
stroke
0.000 0.000 0.000 setrgbcolor
0.000 0.000 0.000 setrgbcolor
54 248 moveto
0 rotate
(-4.0) show
-0 rotate
0.000 0.000 0.000 setrgbcolor
0.502 0.502 0.502 setrgbcolor
newpath
78 300 moveto
570 300 lineto
stroke
0.000 0.000 0.000 setrgbcolor
0.000 0.000 0.000 setrgbcolor
54 297 moveto
0 rotate
(-2.0) show
-0 rotate
0.000 0.000 0.000 setrgbcolor
0.502 0.502 0.502 setrgbcolor
0.000 0.000 0.000 setrgbcolor
newpath
78 349 moveto
570 349 lineto
stroke
0.502 0.502 0.502 setrgbcolor
0.000 0.000 0.000 setrgbcolor
0.000 0.000 0.000 setrgbcolor
60 346 moveto
0 rotate
(0.0) show
-0 rotate
0.000 0.000 0.000 setrgbcolor
0.502 0.502 0.502 setrgbcolor
newpath
78 398 moveto
570 398 lineto
stroke
0.000 0.000 0.000 setrgbcolor
0.000 0.000 0.000 setrgbcolor
60 395 moveto
0 rotate
(2.0) show
-0 rotate
0.000 0.000 0.000 setrgbcolor
0.502 0.502 0.502 setrgbcolor
newpath
78 447 moveto
570 447 lineto
stroke
0.000 0.000 0.000 setrgbcolor
0.000 0.000 0.000 setrgbcolor
60 444 moveto
0 rotate
(4.0) show
-0 rotate
0.000 0.000 0.000 setrgbcolor
0.502 0.502 0.502 setrgbcolor
newpath
78 496 moveto
570 496 lineto
stroke
0.000 0.000 0.000 setrgbcolor
0.000 0.000 0.000 setrgbcolor
60 493 moveto
0 rotate
(6.0) show
-0 rotate
0.000 0.000 0.000 setrgbcolor
0.502 0.502 0.502 setrgbcolor
newpath
78 545 moveto
570 545 lineto
stroke
0.000 0.000 0.000 setrgbcolor
0.000 0.000 0.000 setrgbcolor
60 542 moveto
0 rotate
(8.0) show
-0 rotate
0.000 0.000 0.000 setrgbcolor
0.502 0.502 0.502 setrgbcolor
0.000 0.000 0.000 setrgbcolor
0.000 0.000 0.000 setrgbcolor
54 582 moveto
0 rotate
(V) show
-0 rotate
0.000 0.000 0.000 setrgbcolor
0.502 0.502 0.502 setrgbcolor
1.000 0.000 0.000 setrgbcolor
newpath
294 586 moveto
318 586 lineto
stroke
0.000 0.000 0.000 setrgbcolor
0.000 0.000 0.000 setrgbcolor
324 582 moveto
0 rotate
(v(out)) show
-0 rotate
0.000 0.000 0.000 setrgbcolor
1.000 0.000 0.000 setrgbcolor
newpath
78 429 moveto
79 429 lineto
80 429 lineto
81 429 lineto
82 429 lineto
83 429 lineto
84 429 lineto
85 429 lineto
86 429 lineto
87 429 lineto
88 429 lineto
89 429 lineto
90 429 lineto
91 429 lineto
92 429 lineto
93 429 lineto
94 429 lineto
95 429 lineto
96 429 lineto
97 429 lineto
98 429 lineto
99 429 lineto
100 429 lineto
101 429 lineto
102 429 lineto
103 429 lineto
104 429 lineto
105 429 lineto
106 429 lineto
107 429 lineto
108 429 lineto
109 429 lineto
110 429 lineto
111 429 lineto
112 429 lineto
113 429 lineto
114 429 lineto
115 429 lineto
116 429 lineto
117 429 lineto
118 429 lineto
119 429 lineto
120 429 lineto
121 429 lineto
122 429 lineto
123 429 lineto
124 429 lineto
125 429 lineto
126 429 lineto
127 429 lineto
128 429 lineto
129 429 lineto
130 429 lineto
131 429 lineto
132 429 lineto
133 429 lineto
134 429 lineto
135 429 lineto
136 429 lineto
137 429 lineto
138 429 lineto
139 429 lineto
140 429 lineto
141 429 lineto
142 429 lineto
143 429 lineto
144 429 lineto
145 429 lineto
146 429 lineto
147 429 lineto
148 429 lineto
149 429 lineto
150 429 lineto
151 429 lineto
152 429 lineto
153 429 lineto
154 429 lineto
155 429 lineto
156 429 lineto
157 429 lineto
158 429 lineto
159 429 lineto
160 429 lineto
161 429 lineto
162 429 lineto
163 429 lineto
164 429 lineto
165 429 lineto
166 429 lineto
166 428 lineto
167 429 lineto
167 428 lineto
167 429 lineto
168 429 lineto
168 428 lineto
168 429 lineto
169 429 lineto
169 428 lineto
169 429 lineto
170 429 lineto
170 428 lineto
170 429 lineto
170 430 lineto
171 429 lineto
171 428 lineto
171 429 lineto
171 430 lineto
172 428 lineto
172 427 lineto
172 428 lineto
172 429 lineto
172 430 lineto
172 429 lineto
172 427 lineto
173 427 lineto
173 429 lineto
173 431 lineto
173 430 lineto
173 428 lineto
173 426 lineto
174 426 lineto
174 428 lineto
174 431 lineto
174 432 lineto
174 431 lineto
174 428 lineto
174 426 lineto
174 425 lineto
175 427 lineto
175 430 lineto
175 433 lineto
175 432 lineto
175 429 lineto
175 425 lineto
175 424 lineto
175 425 lineto
176 430 lineto
176 434 lineto
176 435 lineto
176 432 lineto
176 426 lineto
176 422 lineto
176 423 lineto
176 428 lineto
177 434 lineto
177 437 lineto
177 434 lineto
177 427 lineto
177 421 lineto
177 419 lineto
177 424 lineto
177 432 lineto
177 439 lineto
178 438 lineto
178 430 lineto
178 420 lineto
178 416 lineto
178 420 lineto
178 431 lineto
178 441 lineto
178 444 lineto
179 436 lineto
179 423 lineto
179 412 lineto
179 413 lineto
179 426 lineto
179 442 lineto
179 450 lineto
179 442 lineto
180 424 lineto
180 408 lineto
180 405 lineto
180 417 lineto
180 439 lineto
180 456 lineto
180 453 lineto
180 431 lineto
181 407 lineto
181 395 lineto
181 404 lineto
181 431 lineto
181 459 lineto
181 467 lineto
181 445 lineto
181 410 lineto
182 387 lineto
182 416 lineto
182 458 lineto
182 479 lineto
182 480 lineto
182 452 lineto
182 406 lineto
182 374 lineto
182 367 lineto
183 372 lineto
183 407 lineto
183 462 lineto
183 493 lineto
183 499 lineto
183 479 lineto
183 439 lineto
183 393 lineto
183 359 lineto
183 350 lineto
183 364 lineto
183 389 lineto
184 423 lineto
184 465 lineto
184 503 lineto
184 515 lineto
184 509 lineto
184 492 lineto
184 461 lineto
184 420 lineto
184 376 lineto
184 351 lineto
184 347 lineto
184 348 lineto
184 352 lineto
184 358 lineto
184 366 lineto
184 379 lineto
184 397 lineto
184 426 lineto
184 467 lineto
185 506 lineto
185 516 lineto
185 509 lineto
185 487 lineto
185 451 lineto
185 403 lineto
185 361 lineto
185 343 lineto
185 344 lineto
185 348 lineto
185 353 lineto
185 358 lineto
185 363 lineto
185 374 lineto
185 386 lineto
185 415 lineto
185 459 lineto
185 501 lineto
186 516 lineto
186 511 lineto
186 490 lineto
186 452 lineto
186 404 lineto
186 361 lineto
186 342 lineto
186 341 lineto
186 342 lineto
186 347 lineto
186 357 lineto
186 365 lineto
186 374 lineto
186 396 lineto
186 423 lineto
186 468 lineto
186 501 lineto
186 516 lineto
186 513 lineto
186 491 lineto
187 452 lineto
187 407 lineto
187 363 lineto
187 341 lineto
187 339 lineto
187 340 lineto
187 346 lineto
187 356 lineto
187 373 lineto
187 392 lineto
187 431 lineto
187 472 lineto
187 503 lineto
187 517 lineto
187 514 lineto
187 487 lineto
187 438 lineto
188 378 lineto
188 341 lineto
188 336 lineto
188 337 lineto
188 339 lineto
188 345 lineto
188 354 lineto
188 367 lineto
188 392 lineto
188 427 lineto
188 464 lineto
188 498 lineto
188 517 lineto
188 515 lineto
188 493 lineto
188 442 lineto
188 384 lineto
189 344 lineto
189 336 lineto
189 335 lineto
189 336 lineto
189 341 lineto
189 349 lineto
189 359 lineto
189 375 lineto
189 398 lineto
189 434 lineto
189 481 lineto
189 512 lineto
189 520 lineto
189 510 lineto
189 459 lineto
189 404 lineto
189 353 lineto
189 335 lineto
189 333 lineto
190 333 lineto
190 335 lineto
190 342 lineto
190 353 lineto
190 368 lineto
190 397 lineto
190 439 lineto
190 477 lineto
190 505 lineto
190 519 lineto
190 517 lineto
190 477 lineto
190 416 lineto
190 350 lineto
190 328 lineto
190 332 lineto
191 352 lineto
191 369 lineto
191 389 lineto
191 413 lineto
191 453 lineto
191 499 lineto
191 518 lineto
191 516 lineto
191 494 lineto
191 441 lineto
191 388 lineto
191 344 lineto
191 328 lineto
191 329 lineto
191 331 lineto
191 338 lineto
191 349 lineto
191 372 lineto
191 400 lineto
192 452 lineto
192 495 lineto
192 519 lineto
192 520 lineto
192 498 lineto
192 430 lineto
192 361 lineto
192 331 lineto
192 326 lineto
192 327 lineto
192 332 lineto
192 341 lineto
192 352 lineto
192 365 lineto
192 393 lineto
192 429 lineto
192 470 lineto
193 501 lineto
193 519 lineto
193 520 lineto
193 487 lineto
193 422 lineto
193 345 lineto
193 321 lineto
193 325 lineto
193 338 lineto
193 343 lineto
193 350 lineto
193 359 lineto
193 382 lineto
193 424 lineto
193 470 lineto
193 503 lineto
193 520 lineto
194 519 lineto
194 482 lineto
194 418 lineto
194 344 lineto
194 321 lineto
194 323 lineto
194 324 lineto
194 332 lineto
194 347 lineto
194 361 lineto
194 377 lineto
194 411 lineto
194 456 lineto
194 493 lineto
194 519 lineto
194 524 lineto
194 503 lineto
195 432 lineto
195 364 lineto
195 324 lineto
195 319 lineto
195 322 lineto
195 333 lineto
195 354 lineto
195 388 lineto
195 424 lineto
195 472 lineto
195 509 lineto
195 523 lineto
195 519 lineto
195 474 lineto
195 412 lineto
196 338 lineto
196 317 lineto
196 318 lineto
196 319 lineto
196 324 lineto
196 330 lineto
196 338 lineto
196 347 lineto
196 362 lineto
196 380 lineto
196 409 lineto
196 448 lineto
196 492 lineto
196 518 lineto
196 526 lineto
196 507 lineto
196 436 lineto
196 363 lineto
197 322 lineto
197 315 lineto
197 317 lineto
197 328 lineto
197 336 lineto
197 345 lineto
197 357 lineto
197 383 lineto
197 424 lineto
197 473 lineto
197 507 lineto
197 523 lineto
197 521 lineto
197 478 lineto
197 404 lineto
197 332 lineto
197 311 lineto
198 314 lineto
198 322 lineto
198 330 lineto
198 342 lineto
198 358 lineto
198 387 lineto
198 426 lineto
198 471 lineto
198 503 lineto
198 523 lineto
198 524 lineto
198 486 lineto
198 407 lineto
198 328 lineto
198 308 lineto
198 313 lineto
199 343 lineto
199 400 lineto
199 464 lineto
199 513 lineto
199 526 lineto
199 517 lineto
199 463 lineto
199 402 lineto
199 335 lineto
199 313 lineto
199 310 lineto
199 311 lineto
199 313 lineto
199 320 lineto
199 331 lineto
199 345 lineto
199 374 lineto
199 413 lineto
200 457 lineto
200 491 lineto
200 519 lineto
200 527 lineto
200 502 lineto
200 435 lineto
200 337 lineto
200 304 lineto
200 310 lineto
200 343 lineto
200 383 lineto
200 428 lineto
200 460 lineto
200 487 lineto
201 514 lineto
201 527 lineto
201 514 lineto
201 459 lineto
201 391 lineto
201 323 lineto
201 305 lineto
201 306 lineto
201 308 lineto
201 316 lineto
201 320 lineto
201 325 lineto
201 330 lineto
201 341 lineto
201 358 lineto
201 396 lineto
201 437 lineto
201 479 lineto
201 515 lineto
201 534 lineto
202 527 lineto
202 473 lineto
202 382 lineto
202 314 lineto
202 298 lineto
202 302 lineto
202 312 lineto
202 324 lineto
202 339 lineto
202 359 lineto
202 401 lineto
202 444 lineto
202 487 lineto
202 514 lineto
202 527 lineto
202 507 lineto
203 441 lineto
203 362 lineto
203 311 lineto
203 299 lineto
203 303 lineto
203 324 lineto
203 367 lineto
203 423 lineto
203 464 lineto
203 495 lineto
203 520 lineto
203 528 lineto
203 496 lineto
203 425 lineto
204 359 lineto
204 310 lineto
204 297 lineto
204 299 lineto
204 302 lineto
204 311 lineto
204 325 lineto
204 348 lineto
204 388 lineto
204 436 lineto
204 484 lineto
204 517 lineto
204 530 lineto
204 511 lineto
204 444 lineto
204 358 lineto
205 306 lineto
205 295 lineto
205 299 lineto
205 322 lineto
205 374 lineto
205 428 lineto
205 469 lineto
205 500 lineto
205 526 lineto
205 530 lineto
205 488 lineto
205 405 lineto
205 313 lineto
205 290 lineto
206 297 lineto
206 334 lineto
206 417 lineto
206 493 lineto
206 528 lineto
206 514 lineto
206 461 lineto
206 367 lineto
206 306 lineto
206 287 lineto
206 296 lineto
207 343 lineto
207 415 lineto
207 486 lineto
207 527 lineto
207 523 lineto
207 479 lineto
207 377 lineto
207 310 lineto
207 284 lineto
207 290 lineto
207 310 lineto
207 318 lineto
207 329 lineto
207 343 lineto
207 375 lineto
208 415 lineto
208 463 lineto
208 506 lineto
208 529 lineto
208 524 lineto
208 470 lineto
208 372 lineto
208 298 lineto
208 283 lineto
208 292 lineto
208 331 lineto
208 389 lineto
208 449 lineto
209 510 lineto
209 532 lineto
209 529 lineto
209 474 lineto
209 373 lineto
209 289 lineto
209 282 lineto
209 285 lineto
209 288 lineto
209 302 lineto
209 324 lineto
209 358 lineto
209 393 lineto
209 434 lineto
209 485 lineto
209 518 lineto
209 536 lineto
210 508 lineto
210 434 lineto
210 328 lineto
210 286 lineto
210 280 lineto
210 282 lineto
210 288 lineto
210 299 lineto
210 314 lineto
210 332 lineto
210 371 lineto
210 417 lineto
210 468 lineto
210 508 lineto
210 528 lineto
210 516 lineto
211 454 lineto
211 346 lineto
211 290 lineto
211 277 lineto
211 290 lineto
211 334 lineto
211 398 lineto
211 459 lineto
211 514 lineto
211 532 lineto
211 521 lineto
211 458 lineto
212 359 lineto
212 282 lineto
212 276 lineto
212 279 lineto
212 283 lineto
212 297 lineto
212 316 lineto
212 342 lineto
212 374 lineto
212 413 lineto
212 470 lineto
212 511 lineto
212 534 lineto
212 525 lineto
212 462 lineto
212 348 lineto
213 288 lineto
213 272 lineto
213 275 lineto
213 284 lineto
213 308 lineto
213 341 lineto
213 387 lineto
213 424 lineto
213 458 lineto
213 501 lineto
213 527 lineto
213 532 lineto
213 481 lineto
213 377 lineto
213 283 lineto
214 269 lineto
214 273 lineto
214 282 lineto
214 298 lineto
214 321 lineto
214 351 lineto
214 385 lineto
214 430 lineto
214 480 lineto
214 515 lineto
214 532 lineto
214 502 lineto
214 426 lineto
214 323 lineto
214 277 lineto
214 270 lineto
214 273 lineto
215 291 lineto
215 311 lineto
215 332 lineto
215 354 lineto
215 404 lineto
215 452 lineto
215 504 lineto
215 528 lineto
215 520 lineto
215 459 lineto
215 362 lineto
215 283 lineto
215 267 lineto
215 273 lineto
215 300 lineto
215 321 lineto
216 346 lineto
216 372 lineto
216 415 lineto
216 459 lineto
216 499 lineto
216 527 lineto
216 530 lineto
216 477 lineto
216 375 lineto
216 284 lineto
216 263 lineto
216 270 lineto
216 299 lineto
216 322 lineto
216 349 lineto
216 379 lineto
216 421 lineto
217 464 lineto
217 502 lineto
217 528 lineto
217 524 lineto
217 465 lineto
217 364 lineto
217 280 lineto
217 262 lineto
217 268 lineto
217 296 lineto
217 319 lineto
217 346 lineto
217 375 lineto
217 418 lineto
217 463 lineto
217 501 lineto
218 527 lineto
218 524 lineto
218 464 lineto
218 362 lineto
218 278 lineto
218 260 lineto
218 266 lineto
218 291 lineto
218 306 lineto
218 323 lineto
218 345 lineto
218 387 lineto
218 434 lineto
218 480 lineto
218 517 lineto
218 534 lineto
219 507 lineto
219 430 lineto
219 325 lineto
219 267 lineto
219 259 lineto
219 267 lineto
219 298 lineto
219 345 lineto
219 399 lineto
219 452 lineto
219 492 lineto
219 525 lineto
219 531 lineto
219 480 lineto
220 383 lineto
220 297 lineto
220 255 lineto
220 260 lineto
220 265 lineto
220 284 lineto
220 314 lineto
220 355 lineto
220 390 lineto
220 429 lineto
220 495 lineto
220 530 lineto
220 533 lineto
220 476 lineto
220 374 lineto
221 270 lineto
221 252 lineto
221 257 lineto
221 264 lineto
221 283 lineto
221 310 lineto
221 354 lineto
221 393 lineto
221 434 lineto
221 489 lineto
221 524 lineto
221 532 lineto
221 481 lineto
221 385 lineto
221 284 lineto
222 256 lineto
222 255 lineto
222 257 lineto
222 266 lineto
222 275 lineto
222 284 lineto
222 295 lineto
222 313 lineto
222 334 lineto
222 372 lineto
222 426 lineto
222 474 lineto
222 512 lineto
222 531 lineto
222 506 lineto
222 430 lineto
222 318 lineto
222 261 lineto
222 251 lineto
223 257 lineto
223 280 lineto
223 320 lineto
223 355 lineto
223 392 lineto
223 430 lineto
223 480 lineto
223 517 lineto
223 535 lineto
223 497 lineto
223 409 lineto
223 299 lineto
223 253 lineto
223 249 lineto
223 254 lineto
223 258 lineto
224 286 lineto
224 329 lineto
224 378 lineto
224 416 lineto
224 449 lineto
224 499 lineto
224 532 lineto
224 542 lineto
224 479 lineto
224 352 lineto
224 251 lineto
224 242 lineto
224 249 lineto
224 269 lineto
224 288 lineto
224 308 lineto
224 329 lineto
224 369 lineto
225 412 lineto
225 463 lineto
225 507 lineto
225 531 lineto
225 513 lineto
225 436 lineto
225 323 lineto
225 255 lineto
225 241 lineto
225 249 lineto
225 287 lineto
225 335 lineto
225 384 lineto
225 424 lineto
225 458 lineto
226 501 lineto
226 529 lineto
226 518 lineto
226 446 lineto
226 336 lineto
226 254 lineto
226 240 lineto
226 250 lineto
226 285 lineto
226 342 lineto
226 405 lineto
226 484 lineto
226 522 lineto
227 530 lineto
227 477 lineto
227 379 lineto
227 269 lineto
227 242 lineto
227 243 lineto
227 247 lineto
227 260 lineto
227 283 lineto
227 313 lineto
227 352 lineto
227 384 lineto
227 420 lineto
227 476 lineto
227 515 lineto
227 543 lineto
227 509 lineto
228 415 lineto
228 287 lineto
228 242 lineto
228 237 lineto
228 240 lineto
228 248 lineto
228 261 lineto
228 280 lineto
228 301 lineto
228 341 lineto
228 387 lineto
228 437 lineto
228 483 lineto
228 516 lineto
228 520 lineto
228 463 lineto
229 354 lineto
229 267 lineto
229 234 lineto
229 243 lineto
229 277 lineto
229 304 lineto
229 336 lineto
229 373 lineto
229 410 lineto
229 470 lineto
229 510 lineto
229 528 lineto
229 489 lineto
229 402 lineto
229 291 lineto
230 242 lineto
230 239 lineto
230 243 lineto
230 264 lineto
230 274 lineto
230 288 lineto
230 303 lineto
230 337 lineto
230 383 lineto
230 426 lineto
230 477 lineto
230 516 lineto
230 532 lineto
230 487 lineto
230 391 lineto
230 282 lineto
230 237 lineto
231 237 lineto
231 241 lineto
231 259 lineto
231 272 lineto
231 286 lineto
231 301 lineto
231 336 lineto
231 378 lineto
231 424 lineto
231 476 lineto
231 515 lineto
231 533 lineto
231 488 lineto
231 393 lineto
231 283 lineto
231 235 lineto
231 234 lineto
231 239 lineto
232 248 lineto
232 279 lineto
232 321 lineto
232 367 lineto
232 414 lineto
232 453 lineto
232 505 lineto
232 537 lineto
232 529 lineto
232 449 lineto
232 322 lineto
232 232 lineto
232 228 lineto
232 234 lineto
232 246 lineto
232 265 lineto
stroke
newpath
232 265 moveto
232 286 lineto
232 310 lineto
233 346 lineto
233 389 lineto
233 446 lineto
233 494 lineto
233 525 lineto
233 518 lineto
233 446 lineto
233 313 lineto
233 242 lineto
233 225 lineto
233 237 lineto
233 298 lineto
233 387 lineto
234 478 lineto
234 530 lineto
234 504 lineto
234 409 lineto
234 276 lineto
234 234 lineto
234 227 lineto
234 229 lineto
234 251 lineto
234 264 lineto
234 279 lineto
234 299 lineto
234 346 lineto
234 393 lineto
234 442 lineto
234 486 lineto
234 515 lineto
235 509 lineto
235 441 lineto
235 333 lineto
235 249 lineto
235 224 lineto
235 233 lineto
235 261 lineto
235 278 lineto
235 299 lineto
235 327 lineto
235 370 lineto
235 414 lineto
235 468 lineto
235 508 lineto
235 529 lineto
236 488 lineto
236 394 lineto
236 285 lineto
236 231 lineto
236 226 lineto
236 233 lineto
236 257 lineto
236 300 lineto
236 369 lineto
236 422 lineto
236 465 lineto
236 514 lineto
236 531 lineto
236 492 lineto
236 397 lineto
237 286 lineto
237 224 lineto
237 225 lineto
237 230 lineto
237 252 lineto
237 264 lineto
237 278 lineto
237 293 lineto
237 328 lineto
237 367 lineto
237 410 lineto
237 463 lineto
237 506 lineto
237 535 lineto
237 499 lineto
237 403 lineto
237 284 lineto
238 225 lineto
238 221 lineto
238 229 lineto
238 259 lineto
238 306 lineto
238 364 lineto
238 423 lineto
238 470 lineto
238 512 lineto
238 526 lineto
238 472 lineto
238 368 lineto
238 273 lineto
238 221 lineto
239 221 lineto
239 226 lineto
239 235 lineto
239 251 lineto
239 268 lineto
239 287 lineto
239 323 lineto
239 363 lineto
239 420 lineto
239 480 lineto
239 517 lineto
239 527 lineto
239 469 lineto
239 351 lineto
239 250 lineto
239 213 lineto
239 223 lineto
240 256 lineto
240 276 lineto
240 299 lineto
240 331 lineto
240 370 lineto
240 412 lineto
240 461 lineto
240 501 lineto
240 527 lineto
240 488 lineto
240 393 lineto
240 280 lineto
240 222 lineto
240 220 lineto
240 232 lineto
240 269 lineto
241 321 lineto
241 400 lineto
241 465 lineto
241 509 lineto
241 530 lineto
241 487 lineto
241 391 lineto
241 271 lineto
241 223 lineto
241 217 lineto
241 222 lineto
241 243 lineto
241 257 lineto
241 274 lineto
241 291 lineto
241 329 lineto
241 378 lineto
241 422 lineto
242 471 lineto
242 509 lineto
242 524 lineto
242 466 lineto
242 349 lineto
242 243 lineto
242 210 lineto
242 220 lineto
242 242 lineto
242 261 lineto
242 284 lineto
242 313 lineto
242 352 lineto
242 398 lineto
242 462 lineto
242 503 lineto
243 526 lineto
243 484 lineto
243 387 lineto
243 280 lineto
243 219 lineto
243 216 lineto
243 230 lineto
243 272 lineto
243 330 lineto
243 411 lineto
243 477 lineto
243 518 lineto
243 527 lineto
244 468 lineto
244 360 lineto
244 238 lineto
244 211 lineto
244 217 lineto
244 231 lineto
244 258 lineto
244 293 lineto
244 338 lineto
244 386 lineto
244 429 lineto
244 478 lineto
244 513 lineto
244 517 lineto
244 449 lineto
245 318 lineto
245 223 lineto
245 209 lineto
245 226 lineto
245 273 lineto
245 338 lineto
245 402 lineto
245 471 lineto
245 516 lineto
245 526 lineto
245 467 lineto
245 359 lineto
246 234 lineto
246 208 lineto
246 212 lineto
246 223 lineto
246 244 lineto
246 274 lineto
246 316 lineto
246 356 lineto
246 398 lineto
246 453 lineto
246 495 lineto
246 522 lineto
246 485 lineto
246 390 lineto
246 269 lineto
246 215 lineto
247 210 lineto
247 216 lineto
247 247 lineto
247 295 lineto
247 366 lineto
247 453 lineto
247 505 lineto
247 522 lineto
247 478 lineto
247 381 lineto
247 261 lineto
247 213 lineto
247 209 lineto
247 213 lineto
248 238 lineto
248 282 lineto
248 346 lineto
248 399 lineto
248 444 lineto
248 500 lineto
248 523 lineto
248 495 lineto
248 407 lineto
248 290 lineto
248 213 lineto
248 206 lineto
248 224 lineto
248 265 lineto
249 320 lineto
249 379 lineto
249 439 lineto
249 488 lineto
249 520 lineto
249 509 lineto
249 430 lineto
249 292 lineto
249 219 lineto
249 202 lineto
249 209 lineto
249 242 lineto
249 299 lineto
249 358 lineto
249 415 lineto
250 460 lineto
250 503 lineto
250 520 lineto
250 466 lineto
250 356 lineto
250 246 lineto
250 200 lineto
250 209 lineto
250 270 lineto
250 395 lineto
250 492 lineto
251 517 lineto
251 456 lineto
251 341 lineto
251 227 lineto
251 198 lineto
251 207 lineto
251 234 lineto
251 256 lineto
251 280 lineto
251 310 lineto
251 354 lineto
251 397 lineto
251 449 lineto
251 492 lineto
251 524 lineto
252 484 lineto
252 381 lineto
252 261 lineto
252 201 lineto
252 218 lineto
252 260 lineto
252 314 lineto
252 383 lineto
252 444 lineto
252 495 lineto
252 523 lineto
252 501 lineto
252 413 lineto
253 282 lineto
253 214 lineto
253 196 lineto
253 201 lineto
253 218 lineto
253 248 lineto
253 289 lineto
253 337 lineto
253 385 lineto
253 435 lineto
253 486 lineto
253 523 lineto
253 505 lineto
253 413 lineto
253 294 lineto
254 203 lineto
254 194 lineto
254 200 lineto
254 218 lineto
254 235 lineto
254 256 lineto
254 279 lineto
254 318 lineto
254 363 lineto
254 417 lineto
254 470 lineto
254 508 lineto
254 511 lineto
254 442 lineto
254 312 lineto
254 213 lineto
255 193 lineto
255 201 lineto
255 211 lineto
255 226 lineto
255 245 lineto
255 268 lineto
255 304 lineto
255 346 lineto
255 397 lineto
255 451 lineto
255 494 lineto
255 522 lineto
255 475 lineto
255 368 lineto
255 252 lineto
255 194 lineto
255 197 lineto
256 210 lineto
256 232 lineto
256 265 lineto
256 311 lineto
256 349 lineto
256 387 lineto
256 441 lineto
256 484 lineto
256 520 lineto
256 486 lineto
256 388 lineto
256 263 lineto
256 202 lineto
256 194 lineto
256 199 lineto
256 233 lineto
256 301 lineto
257 389 lineto
257 462 lineto
257 506 lineto
257 515 lineto
257 455 lineto
257 346 lineto
257 235 lineto
257 193 lineto
257 196 lineto
257 211 lineto
257 229 lineto
257 252 lineto
257 282 lineto
257 323 lineto
257 373 lineto
257 435 lineto
258 488 lineto
258 513 lineto
258 486 lineto
258 398 lineto
258 287 lineto
258 207 lineto
258 192 lineto
258 201 lineto
258 248 lineto
258 324 lineto
258 426 lineto
258 503 lineto
259 511 lineto
259 435 lineto
259 304 lineto
259 220 lineto
259 184 lineto
259 200 lineto
259 299 lineto
259 459 lineto
259 517 lineto
259 478 lineto
260 365 lineto
260 257 lineto
260 188 lineto
260 191 lineto
260 196 lineto
260 204 lineto
260 221 lineto
260 243 lineto
260 269 lineto
260 303 lineto
260 345 lineto
260 399 lineto
260 455 lineto
260 498 lineto
260 520 lineto
260 460 lineto
261 334 lineto
261 224 lineto
261 181 lineto
261 196 lineto
261 283 lineto
261 419 lineto
261 498 lineto
261 505 lineto
261 418 lineto
261 293 lineto
262 192 lineto
262 189 lineto
262 230 lineto
262 251 lineto
262 279 lineto
262 316 lineto
262 352 lineto
262 403 lineto
262 457 lineto
262 497 lineto
262 506 lineto
262 440 lineto
262 310 lineto
262 211 lineto
263 183 lineto
263 197 lineto
263 258 lineto
263 307 lineto
263 362 lineto
263 421 lineto
263 475 lineto
263 512 lineto
263 509 lineto
263 431 lineto
263 292 lineto
263 206 lineto
263 180 lineto
264 206 lineto
264 305 lineto
264 426 lineto
264 501 lineto
264 506 lineto
264 429 lineto
264 301 lineto
264 192 lineto
264 185 lineto
264 196 lineto
264 222 lineto
264 258 lineto
264 304 lineto
265 345 lineto
265 383 lineto
265 437 lineto
265 481 lineto
265 516 lineto
265 476 lineto
265 370 lineto
265 249 lineto
265 192 lineto
265 184 lineto
265 189 lineto
265 220 lineto
265 258 lineto
265 305 lineto
265 344 lineto
265 381 lineto
265 433 lineto
266 476 lineto
266 514 lineto
266 476 lineto
266 371 lineto
266 255 lineto
266 194 lineto
266 181 lineto
266 187 lineto
266 207 lineto
266 218 lineto
266 230 lineto
266 248 lineto
266 286 lineto
266 330 lineto
266 376 lineto
266 431 lineto
266 478 lineto
266 512 lineto
267 475 lineto
267 374 lineto
267 259 lineto
267 189 lineto
267 182 lineto
267 203 lineto
267 254 lineto
267 320 lineto
267 394 lineto
267 463 lineto
267 509 lineto
267 505 lineto
268 423 lineto
268 292 lineto
268 192 lineto
268 178 lineto
268 183 lineto
268 188 lineto
268 208 lineto
268 246 lineto
268 286 lineto
268 323 lineto
268 361 lineto
268 418 lineto
268 468 lineto
268 511 lineto
268 500 lineto
268 413 lineto
269 289 lineto
269 201 lineto
269 173 lineto
269 185 lineto
269 236 lineto
269 344 lineto
269 454 lineto
269 506 lineto
269 469 lineto
269 364 lineto
269 241 lineto
270 186 lineto
270 178 lineto
270 184 lineto
270 217 lineto
270 282 lineto
270 364 lineto
270 432 lineto
270 485 lineto
270 511 lineto
270 479 lineto
270 383 lineto
270 262 lineto
270 192 lineto
270 174 lineto
271 182 lineto
271 211 lineto
271 226 lineto
271 245 lineto
271 269 lineto
271 313 lineto
271 354 lineto
271 421 lineto
271 470 lineto
271 508 lineto
271 484 lineto
271 389 lineto
271 264 lineto
271 185 lineto
271 177 lineto
271 192 lineto
272 241 lineto
272 308 lineto
272 409 lineto
272 488 lineto
272 512 lineto
272 450 lineto
272 334 lineto
272 233 lineto
272 172 lineto
272 181 lineto
272 263 lineto
273 352 lineto
273 434 lineto
273 499 lineto
273 487 lineto
273 394 lineto
273 264 lineto
273 194 lineto
273 173 lineto
273 182 lineto
273 231 lineto
273 290 lineto
273 356 lineto
273 423 lineto
274 480 lineto
274 510 lineto
274 484 lineto
274 391 lineto
274 259 lineto
274 188 lineto
274 171 lineto
274 188 lineto
274 256 lineto
274 349 lineto
274 451 lineto
274 508 lineto
275 496 lineto
275 402 lineto
275 268 lineto
275 194 lineto
275 167 lineto
275 188 lineto
275 299 lineto
275 433 lineto
275 503 lineto
275 492 lineto
276 392 lineto
276 258 lineto
276 170 lineto
276 173 lineto
276 179 lineto
276 194 lineto
276 206 lineto
276 216 lineto
276 229 lineto
276 258 lineto
276 296 lineto
276 341 lineto
276 395 lineto
276 459 lineto
276 498 lineto
276 500 lineto
276 426 lineto
277 290 lineto
277 187 lineto
277 167 lineto
277 180 lineto
277 234 lineto
277 319 lineto
277 424 lineto
277 496 lineto
277 493 lineto
277 402 lineto
277 268 lineto
278 191 lineto
278 166 lineto
278 191 lineto
278 300 lineto
278 429 lineto
278 499 lineto
278 490 lineto
278 392 lineto
278 260 lineto
278 172 lineto
279 170 lineto
279 176 lineto
279 188 lineto
279 207 lineto
279 233 lineto
279 263 lineto
279 297 lineto
279 339 lineto
279 402 lineto
279 458 lineto
279 501 lineto
279 498 lineto
279 417 lineto
279 278 lineto
279 189 lineto
279 163 lineto
279 179 lineto
280 260 lineto
280 371 lineto
280 461 lineto
280 506 lineto
280 475 lineto
280 371 lineto
280 231 lineto
280 179 lineto
280 169 lineto
280 174 lineto
280 233 lineto
281 337 lineto
281 449 lineto
281 498 lineto
281 458 lineto
281 353 lineto
281 230 lineto
281 177 lineto
281 169 lineto
281 175 lineto
281 205 lineto
281 254 lineto
281 323 lineto
281 417 lineto
282 477 lineto
282 503 lineto
282 465 lineto
282 366 lineto
282 243 lineto
282 178 lineto
282 169 lineto
282 186 lineto
282 239 lineto
282 321 lineto
282 422 lineto
282 492 lineto
283 501 lineto
283 425 lineto
283 305 lineto
283 207 lineto
283 160 lineto
283 179 lineto
283 293 lineto
283 452 lineto
283 505 lineto
283 465 lineto
284 349 lineto
284 238 lineto
284 164 lineto
284 171 lineto
284 255 lineto
284 334 lineto
284 410 lineto
284 482 lineto
284 490 lineto
284 412 lineto
285 288 lineto
285 197 lineto
285 163 lineto
285 183 lineto
285 284 lineto
285 395 lineto
285 475 lineto
285 505 lineto
285 455 lineto
285 339 lineto
285 199 lineto
286 168 lineto
286 178 lineto
286 202 lineto
286 237 lineto
286 287 lineto
286 346 lineto
286 396 lineto
286 456 lineto
286 491 lineto
286 483 lineto
286 403 lineto
286 286 lineto
286 184 lineto
287 164 lineto
287 181 lineto
287 223 lineto
287 265 lineto
287 316 lineto
287 367 lineto
287 425 lineto
287 472 lineto
287 503 lineto
287 449 lineto
287 333 lineto
287 223 lineto
287 166 lineto
287 170 lineto
288 246 lineto
288 301 lineto
288 358 lineto
288 422 lineto
288 484 lineto
288 499 lineto
288 445 lineto
288 336 lineto
288 217 lineto
288 170 lineto
288 167 lineto
288 177 lineto
288 200 lineto
288 233 lineto
288 287 lineto
288 334 lineto
289 377 lineto
289 435 lineto
289 479 lineto
289 496 lineto
289 430 lineto
289 300 lineto
289 190 lineto
289 164 lineto
289 173 lineto
289 210 lineto
289 263 lineto
289 323 lineto
289 407 lineto
289 465 lineto
290 498 lineto
290 477 lineto
290 387 lineto
290 245 lineto
290 181 lineto
290 163 lineto
290 170 lineto
290 223 lineto
290 317 lineto
290 422 lineto
290 489 lineto
291 477 lineto
291 382 lineto
291 252 lineto
291 182 lineto
291 162 lineto
291 172 lineto
291 233 lineto
291 338 lineto
291 434 lineto
291 495 lineto
291 473 lineto
292 372 lineto
292 235 lineto
292 176 lineto
292 163 lineto
292 166 lineto
292 196 lineto
292 220 lineto
292 248 lineto
292 285 lineto
292 327 lineto
292 386 lineto
292 447 lineto
292 484 lineto
292 482 lineto
292 407 lineto
292 278 lineto
293 181 lineto
293 161 lineto
293 195 lineto
293 279 lineto
293 383 lineto
293 467 lineto
293 501 lineto
293 458 lineto
293 350 lineto
293 209 lineto
294 168 lineto
294 164 lineto
294 170 lineto
294 196 lineto
294 240 lineto
294 307 lineto
294 403 lineto
294 473 lineto
294 496 lineto
294 457 lineto
294 358 lineto
294 235 lineto
294 176 lineto
294 163 lineto
294 167 lineto
295 202 lineto
295 273 lineto
295 362 lineto
295 441 lineto
295 491 lineto
295 479 lineto
295 391 lineto
295 271 lineto
295 178 lineto
295 161 lineto
295 187 lineto
295 239 lineto
296 310 lineto
296 403 lineto
296 471 lineto
296 498 lineto
296 459 lineto
296 358 lineto
296 250 lineto
296 171 lineto
296 162 lineto
296 169 lineto
296 193 lineto
296 220 lineto
296 248 lineto
296 278 lineto
296 320 lineto
296 376 lineto
297 436 lineto
297 480 lineto
297 492 lineto
297 423 lineto
297 288 lineto
297 185 lineto
297 156 lineto
297 187 lineto
297 285 lineto
297 403 lineto
297 482 lineto
298 489 lineto
298 405 lineto
298 283 lineto
298 170 lineto
298 160 lineto
298 172 lineto
298 196 lineto
298 230 lineto
298 274 lineto
298 317 lineto
298 357 lineto
298 414 lineto
298 460 lineto
298 496 lineto
298 445 lineto
299 332 lineto
299 213 lineto
299 166 lineto
299 162 lineto
299 172 lineto
299 199 lineto
299 240 lineto
299 304 lineto
299 378 lineto
299 443 lineto
299 485 lineto
299 481 lineto
299 403 lineto
300 271 lineto
300 185 lineto
300 155 lineto
300 179 lineto
300 287 lineto
300 425 lineto
300 489 lineto
300 476 lineto
300 376 lineto
300 245 lineto
301 162 lineto
301 161 lineto
301 168 lineto
301 183 lineto
301 215 lineto
301 240 lineto
301 268 lineto
301 315 lineto
301 371 lineto
301 430 lineto
301 475 lineto
301 492 lineto
301 425 lineto
301 292 lineto
301 186 lineto
301 154 lineto
302 175 lineto
302 260 lineto
302 375 lineto
302 457 lineto
302 495 lineto
302 461 lineto
302 358 lineto
302 223 lineto
302 171 lineto
302 161 lineto
302 164 lineto
302 179 lineto
302 188 lineto
302 199 lineto
303 213 lineto
303 245 lineto
303 289 lineto
303 337 lineto
303 404 lineto
303 454 lineto
303 490 lineto
303 452 lineto
303 351 lineto
303 236 lineto
303 171 lineto
303 160 lineto
303 186 lineto
303 240 lineto
303 311 lineto
304 412 lineto
304 478 lineto
304 493 lineto
304 441 lineto
304 331 lineto
304 224 lineto
304 162 lineto
304 164 lineto
304 240 lineto
304 303 lineto
304 366 lineto
304 439 lineto
305 488 lineto
305 465 lineto
305 369 lineto
305 253 lineto
305 175 lineto
305 158 lineto
305 171 lineto
stroke
newpath
305 171 moveto
305 215 lineto
305 281 lineto
305 357 lineto
305 452 lineto
305 495 lineto
306 459 lineto
306 350 lineto
306 242 lineto
306 164 lineto
306 160 lineto
306 166 lineto
306 182 lineto
306 192 lineto
306 204 lineto
306 217 lineto
306 245 lineto
306 284 lineto
306 326 lineto
306 388 lineto
306 443 lineto
306 486 lineto
306 481 lineto
306 399 lineto
307 264 lineto
307 173 lineto
307 157 lineto
307 188 lineto
307 261 lineto
307 352 lineto
307 438 lineto
307 489 lineto
307 484 lineto
307 401 lineto
307 276 lineto
308 186 lineto
308 152 lineto
308 174 lineto
308 283 lineto
308 436 lineto
308 492 lineto
308 461 lineto
308 351 lineto
308 233 lineto
309 157 lineto
309 160 lineto
309 165 lineto
309 179 lineto
309 198 lineto
309 212 lineto
309 229 lineto
309 266 lineto
309 316 lineto
309 368 lineto
309 427 lineto
309 472 lineto
309 487 lineto
309 418 lineto
309 284 lineto
309 183 lineto
309 154 lineto
310 168 lineto
310 234 lineto
310 325 lineto
310 429 lineto
310 487 lineto
310 472 lineto
310 378 lineto
310 249 lineto
310 182 lineto
310 153 lineto
310 181 lineto
311 294 lineto
311 438 lineto
311 488 lineto
311 454 lineto
311 345 lineto
311 229 lineto
311 156 lineto
311 160 lineto
311 166 lineto
311 181 lineto
311 209 lineto
311 239 lineto
311 271 lineto
311 313 lineto
311 376 lineto
312 438 lineto
312 481 lineto
312 483 lineto
312 409 lineto
312 275 lineto
312 173 lineto
312 154 lineto
312 173 lineto
312 248 lineto
312 349 lineto
312 439 lineto
313 490 lineto
313 479 lineto
313 389 lineto
313 259 lineto
313 185 lineto
313 150 lineto
313 168 lineto
313 273 lineto
313 432 lineto
313 488 lineto
314 459 lineto
314 350 lineto
314 240 lineto
314 160 lineto
314 159 lineto
314 166 lineto
314 179 lineto
314 203 lineto
314 231 lineto
314 262 lineto
314 311 lineto
314 366 lineto
314 424 lineto
314 468 lineto
314 484 lineto
314 417 lineto
315 287 lineto
315 188 lineto
315 154 lineto
315 182 lineto
315 279 lineto
315 403 lineto
315 475 lineto
315 479 lineto
315 393 lineto
315 272 lineto
316 166 lineto
316 159 lineto
316 175 lineto
316 206 lineto
316 236 lineto
316 275 lineto
316 314 lineto
316 354 lineto
316 414 lineto
316 461 lineto
316 493 lineto
316 436 lineto
316 317 lineto
316 201 lineto
316 160 lineto
317 159 lineto
317 165 lineto
317 185 lineto
317 217 lineto
317 275 lineto
317 330 lineto
317 379 lineto
317 442 lineto
317 479 lineto
317 471 lineto
317 391 lineto
317 273 lineto
317 174 lineto
317 157 lineto
317 169 lineto
318 197 lineto
318 239 lineto
318 291 lineto
318 357 lineto
318 420 lineto
318 467 lineto
318 482 lineto
318 418 lineto
318 296 lineto
318 204 lineto
318 159 lineto
318 166 lineto
318 248 lineto
319 403 lineto
319 474 lineto
319 473 lineto
319 379 lineto
319 257 lineto
319 169 lineto
319 160 lineto
319 179 lineto
319 209 lineto
319 247 lineto
319 299 lineto
319 351 lineto
319 410 lineto
320 458 lineto
320 487 lineto
320 433 lineto
320 322 lineto
320 210 lineto
320 159 lineto
320 167 lineto
320 258 lineto
320 399 lineto
320 473 lineto
321 480 lineto
321 399 lineto
321 277 lineto
321 173 lineto
321 160 lineto
321 169 lineto
321 194 lineto
321 224 lineto
321 264 lineto
321 298 lineto
321 334 lineto
321 389 lineto
321 437 lineto
321 485 lineto
321 474 lineto
322 386 lineto
322 251 lineto
322 177 lineto
322 156 lineto
322 177 lineto
322 268 lineto
322 378 lineto
322 458 lineto
322 490 lineto
322 441 lineto
322 333 lineto
323 195 lineto
323 164 lineto
323 160 lineto
323 165 lineto
323 188 lineto
323 226 lineto
323 291 lineto
323 379 lineto
323 446 lineto
323 480 lineto
323 457 lineto
323 368 lineto
323 248 lineto
324 179 lineto
324 156 lineto
324 189 lineto
324 294 lineto
324 415 lineto
324 477 lineto
324 467 lineto
324 374 lineto
324 250 lineto
324 165 lineto
325 161 lineto
325 177 lineto
325 201 lineto
325 232 lineto
325 269 lineto
325 322 lineto
325 370 lineto
325 430 lineto
325 471 lineto
325 480 lineto
325 414 lineto
325 289 lineto
325 178 lineto
325 157 lineto
325 175 lineto
326 221 lineto
326 288 lineto
326 355 lineto
326 427 lineto
326 475 lineto
326 473 lineto
326 394 lineto
326 267 lineto
326 170 lineto
326 159 lineto
326 175 lineto
326 206 lineto
326 248 lineto
326 302 lineto
327 361 lineto
327 419 lineto
327 465 lineto
327 482 lineto
327 420 lineto
327 299 lineto
327 197 lineto
327 157 lineto
327 169 lineto
327 258 lineto
327 389 lineto
328 464 lineto
328 481 lineto
328 412 lineto
328 296 lineto
328 186 lineto
328 163 lineto
328 168 lineto
328 187 lineto
328 218 lineto
328 263 lineto
328 307 lineto
328 347 lineto
328 401 lineto
328 447 lineto
328 483 lineto
329 439 lineto
329 333 lineto
329 217 lineto
329 169 lineto
329 163 lineto
329 171 lineto
329 197 lineto
329 240 lineto
329 306 lineto
329 383 lineto
329 443 lineto
329 479 lineto
329 462 lineto
330 378 lineto
330 248 lineto
330 179 lineto
330 159 lineto
330 197 lineto
330 308 lineto
330 426 lineto
330 480 lineto
330 454 lineto
330 355 lineto
331 248 lineto
331 169 lineto
331 161 lineto
331 172 lineto
331 196 lineto
331 229 lineto
331 277 lineto
331 334 lineto
331 383 lineto
331 448 lineto
331 480 lineto
331 466 lineto
331 383 lineto
331 271 lineto
331 175 lineto
332 159 lineto
332 174 lineto
332 207 lineto
332 256 lineto
332 309 lineto
332 370 lineto
332 426 lineto
332 468 lineto
332 478 lineto
332 413 lineto
332 290 lineto
332 197 lineto
332 158 lineto
333 177 lineto
333 281 lineto
333 418 lineto
333 479 lineto
333 464 lineto
333 366 lineto
333 241 lineto
333 163 lineto
333 164 lineto
333 250 lineto
334 335 lineto
334 409 lineto
334 473 lineto
334 465 lineto
334 379 lineto
334 259 lineto
334 182 lineto
334 159 lineto
334 197 lineto
334 302 lineto
335 422 lineto
335 478 lineto
335 457 lineto
335 359 lineto
335 234 lineto
335 164 lineto
335 170 lineto
335 194 lineto
335 228 lineto
335 286 lineto
335 353 lineto
335 409 lineto
335 464 lineto
336 485 lineto
336 428 lineto
336 318 lineto
336 210 lineto
336 158 lineto
336 167 lineto
336 256 lineto
336 385 lineto
336 464 lineto
336 478 lineto
337 411 lineto
337 295 lineto
337 191 lineto
337 163 lineto
337 168 lineto
337 188 lineto
337 227 lineto
337 283 lineto
337 344 lineto
337 400 lineto
337 456 lineto
337 479 lineto
337 437 lineto
338 340 lineto
338 240 lineto
338 175 lineto
338 162 lineto
338 177 lineto
338 215 lineto
338 271 lineto
338 340 lineto
338 418 lineto
338 472 lineto
338 479 lineto
338 410 lineto
338 299 lineto
339 195 lineto
339 165 lineto
339 168 lineto
339 186 lineto
339 203 lineto
339 225 lineto
339 251 lineto
339 290 lineto
339 332 lineto
339 388 lineto
339 437 lineto
339 477 lineto
339 459 lineto
339 372 lineto
339 263 lineto
339 183 lineto
340 161 lineto
340 179 lineto
340 246 lineto
340 341 lineto
340 427 lineto
340 478 lineto
340 477 lineto
340 401 lineto
340 285 lineto
340 195 lineto
340 158 lineto
340 176 lineto
341 280 lineto
341 422 lineto
341 479 lineto
341 459 lineto
341 360 lineto
341 247 lineto
341 166 lineto
341 181 lineto
341 203 lineto
341 233 lineto
341 267 lineto
342 315 lineto
342 357 lineto
342 413 lineto
342 457 lineto
342 482 lineto
342 424 lineto
342 306 lineto
342 198 lineto
342 164 lineto
342 166 lineto
342 179 lineto
342 197 lineto
342 221 lineto
342 256 lineto
342 297 lineto
342 338 lineto
342 392 lineto
342 438 lineto
343 477 lineto
343 444 lineto
343 349 lineto
343 241 lineto
343 175 lineto
343 166 lineto
343 172 lineto
343 205 lineto
343 257 lineto
343 349 lineto
343 437 lineto
343 479 lineto
344 465 lineto
344 379 lineto
344 259 lineto
344 175 lineto
344 165 lineto
344 178 lineto
344 204 lineto
344 242 lineto
344 292 lineto
344 354 lineto
344 416 lineto
344 463 lineto
344 481 lineto
344 422 lineto
345 307 lineto
345 212 lineto
345 164 lineto
345 170 lineto
345 240 lineto
345 322 lineto
345 401 lineto
345 470 lineto
345 390 lineto
345 275 lineto
346 192 lineto
346 162 lineto
346 193 lineto
346 296 lineto
346 422 lineto
346 478 lineto
346 449 lineto
346 345 lineto
346 236 lineto
347 167 lineto
347 168 lineto
347 250 lineto
347 332 lineto
347 404 lineto
347 470 lineto
347 466 lineto
347 384 lineto
347 271 lineto
347 190 lineto
347 163 lineto
348 200 lineto
348 305 lineto
348 426 lineto
348 477 lineto
348 445 lineto
348 343 lineto
348 235 lineto
348 168 lineto
348 177 lineto
348 195 lineto
348 220 lineto
349 254 lineto
349 294 lineto
349 331 lineto
349 387 lineto
349 435 lineto
349 477 lineto
349 460 lineto
349 374 lineto
349 263 lineto
349 181 lineto
349 164 lineto
349 177 lineto
349 241 lineto
349 332 lineto
350 423 lineto
350 477 lineto
350 471 lineto
350 388 lineto
350 266 lineto
350 193 lineto
350 158 lineto
350 175 lineto
350 270 lineto
350 418 lineto
351 476 lineto
351 458 lineto
351 360 lineto
351 253 lineto
351 172 lineto
351 168 lineto
351 177 lineto
351 201 lineto
351 236 lineto
351 279 lineto
351 325 lineto
351 368 lineto
351 431 lineto
351 470 lineto
351 477 lineto
352 411 lineto
352 287 lineto
352 177 lineto
352 164 lineto
352 178 lineto
352 208 lineto
352 247 lineto
352 294 lineto
352 346 lineto
352 408 lineto
352 452 lineto
352 480 lineto
352 427 lineto
353 318 lineto
353 217 lineto
353 166 lineto
353 171 lineto
353 247 lineto
353 326 lineto
353 401 lineto
353 466 lineto
353 470 lineto
353 397 lineto
353 286 lineto
354 199 lineto
354 165 lineto
354 189 lineto
354 285 lineto
354 407 lineto
354 470 lineto
354 465 lineto
354 378 lineto
354 261 lineto
354 173 lineto
355 169 lineto
355 186 lineto
355 213 lineto
355 248 lineto
355 291 lineto
355 338 lineto
355 400 lineto
355 446 lineto
355 481 lineto
355 441 lineto
355 340 lineto
355 231 lineto
355 171 lineto
356 241 lineto
356 280 lineto
356 328 lineto
356 393 lineto
356 452 lineto
356 478 lineto
356 447 lineto
356 357 lineto
356 251 lineto
356 184 lineto
356 167 lineto
356 187 lineto
356 239 lineto
357 312 lineto
357 403 lineto
357 466 lineto
357 477 lineto
357 421 lineto
357 316 lineto
357 221 lineto
357 170 lineto
357 175 lineto
357 257 lineto
357 383 lineto
358 465 lineto
358 473 lineto
358 406 lineto
358 293 lineto
358 186 lineto
358 169 lineto
358 184 lineto
358 216 lineto
358 263 lineto
358 316 lineto
358 372 lineto
358 425 lineto
358 465 lineto
359 472 lineto
359 409 lineto
359 291 lineto
359 201 lineto
359 167 lineto
359 191 lineto
359 293 lineto
359 420 lineto
359 475 lineto
359 455 lineto
360 358 lineto
360 250 lineto
360 174 lineto
360 172 lineto
360 183 lineto
360 206 lineto
360 236 lineto
360 274 lineto
360 318 lineto
360 358 lineto
360 413 lineto
360 455 lineto
360 478 lineto
360 420 lineto
361 304 lineto
361 202 lineto
361 170 lineto
361 175 lineto
361 195 lineto
361 211 lineto
361 230 lineto
361 254 lineto
361 295 lineto
361 335 lineto
361 390 lineto
361 437 lineto
361 474 lineto
361 452 lineto
361 365 lineto
361 260 lineto
362 188 lineto
362 169 lineto
362 185 lineto
362 242 lineto
362 320 lineto
362 409 lineto
362 468 lineto
362 473 lineto
362 404 lineto
362 296 lineto
362 208 lineto
362 168 lineto
363 180 lineto
363 277 lineto
363 417 lineto
363 475 lineto
363 459 lineto
363 364 lineto
363 256 lineto
363 177 lineto
363 174 lineto
363 190 lineto
364 211 lineto
364 237 lineto
364 269 lineto
364 309 lineto
364 347 lineto
364 400 lineto
364 444 lineto
364 480 lineto
364 442 lineto
364 343 lineto
364 233 lineto
364 181 lineto
364 173 lineto
364 178 lineto
364 205 lineto
364 252 lineto
364 309 lineto
365 364 lineto
365 424 lineto
365 463 lineto
365 472 lineto
365 412 lineto
365 296 lineto
365 202 lineto
365 170 lineto
365 197 lineto
365 289 lineto
365 402 lineto
366 468 lineto
366 466 lineto
366 384 lineto
366 271 lineto
366 181 lineto
366 173 lineto
366 187 lineto
366 210 lineto
366 241 lineto
366 280 lineto
366 336 lineto
366 386 lineto
366 446 lineto
366 476 lineto
367 459 lineto
367 378 lineto
367 271 lineto
367 185 lineto
367 171 lineto
367 187 lineto
367 233 lineto
367 298 lineto
367 372 lineto
367 444 lineto
367 479 lineto
367 457 lineto
368 368 lineto
368 261 lineto
368 179 lineto
368 173 lineto
368 183 lineto
368 208 lineto
368 242 lineto
368 289 lineto
368 352 lineto
368 405 lineto
368 457 lineto
368 479 lineto
368 431 lineto
368 331 lineto
369 231 lineto
369 174 lineto
369 176 lineto
369 245 lineto
369 288 lineto
369 334 lineto
369 394 lineto
369 451 lineto
369 476 lineto
369 444 lineto
369 356 lineto
369 250 lineto
369 189 lineto
370 173 lineto
370 195 lineto
370 254 lineto
370 334 lineto
370 417 lineto
370 470 lineto
370 472 lineto
370 403 lineto
370 297 lineto
370 212 lineto
370 173 lineto
371 182 lineto
371 266 lineto
371 405 lineto
371 468 lineto
371 465 lineto
371 378 lineto
371 264 lineto
371 183 lineto
371 177 lineto
371 190 lineto
371 214 lineto
372 246 lineto
372 286 lineto
372 343 lineto
372 394 lineto
372 451 lineto
372 479 lineto
372 457 lineto
372 372 lineto
372 265 lineto
372 186 lineto
372 175 lineto
372 190 lineto
372 222 lineto
372 266 lineto
372 324 lineto
372 384 lineto
373 437 lineto
373 472 lineto
373 466 lineto
373 395 lineto
373 274 lineto
373 197 lineto
373 171 lineto
373 199 lineto
373 297 lineto
373 417 lineto
374 473 lineto
374 460 lineto
374 370 lineto
374 252 lineto
374 177 lineto
374 178 lineto
374 208 lineto
374 225 lineto
374 245 lineto
374 274 lineto
374 313 lineto
374 355 lineto
374 406 lineto
374 448 lineto
374 477 lineto
375 429 lineto
375 326 lineto
375 228 lineto
375 181 lineto
375 177 lineto
375 188 lineto
375 212 lineto
375 246 lineto
375 303 lineto
375 363 lineto
375 423 lineto
375 464 lineto
375 466 lineto
375 398 lineto
376 278 lineto
376 199 lineto
376 172 lineto
376 207 lineto
376 311 lineto
376 427 lineto
376 476 lineto
376 442 lineto
376 341 lineto
376 243 lineto
377 179 lineto
377 177 lineto
377 187 lineto
377 208 lineto
377 236 lineto
377 271 lineto
377 309 lineto
377 345 lineto
377 397 lineto
377 441 lineto
377 478 lineto
377 444 lineto
377 349 lineto
377 236 lineto
377 186 lineto
378 176 lineto
378 181 lineto
378 208 lineto
378 263 lineto
378 340 lineto
378 408 lineto
378 458 lineto
378 475 lineto
378 434 lineto
378 343 lineto
378 240 lineto
378 188 lineto
378 176 lineto
378 186 lineto
379 226 lineto
379 285 lineto
379 392 lineto
379 462 lineto
379 475 lineto
379 403 lineto
379 292 lineto
379 210 lineto
379 170 lineto
379 187 lineto
379 288 lineto
380 429 lineto
380 478 lineto
380 451 lineto
380 351 lineto
380 246 lineto
380 176 lineto
380 180 lineto
380 199 lineto
380 217 lineto
380 242 lineto
380 270 lineto
380 309 lineto
380 346 lineto
380 397 lineto
381 441 lineto
381 479 lineto
381 445 lineto
381 349 lineto
381 241 lineto
381 186 lineto
381 176 lineto
381 197 lineto
381 250 lineto
381 320 lineto
381 405 lineto
381 465 lineto
382 477 lineto
382 429 lineto
382 330 lineto
382 233 lineto
382 178 lineto
382 181 lineto
382 255 lineto
382 336 lineto
382 407 lineto
382 467 lineto
383 393 lineto
383 286 lineto
383 203 lineto
383 175 lineto
383 207 lineto
383 307 lineto
383 424 lineto
383 475 lineto
383 443 lineto
383 343 lineto
384 249 lineto
384 183 lineto
384 179 lineto
384 186 lineto
384 207 lineto
384 238 lineto
384 288 lineto
384 337 lineto
384 381 lineto
384 443 lineto
384 475 lineto
384 465 lineto
384 389 lineto
384 283 lineto
stroke
newpath
384 283 moveto
385 191 lineto
385 176 lineto
385 187 lineto
385 213 lineto
385 254 lineto
385 302 lineto
385 364 lineto
385 424 lineto
385 463 lineto
385 469 lineto
385 405 lineto
385 285 lineto
385 203 lineto
385 174 lineto
386 203 lineto
386 305 lineto
386 425 lineto
386 475 lineto
386 450 lineto
386 353 lineto
386 248 lineto
386 179 lineto
386 181 lineto
387 257 lineto
387 329 lineto
387 394 lineto
387 459 lineto
387 468 lineto
387 401 lineto
387 298 lineto
387 216 lineto
387 180 lineto
387 190 lineto
387 267 lineto
388 383 lineto
388 454 lineto
388 474 lineto
388 422 lineto
388 318 lineto
388 205 lineto
388 183 lineto
388 191 lineto
388 212 lineto
388 243 lineto
388 285 lineto
388 336 lineto
388 382 lineto
388 434 lineto
389 468 lineto
389 466 lineto
389 400 lineto
389 284 lineto
389 197 lineto
389 180 lineto
389 202 lineto
389 242 lineto
389 298 lineto
389 368 lineto
389 429 lineto
389 471 lineto
390 469 lineto
390 398 lineto
390 286 lineto
390 194 lineto
390 181 lineto
390 204 lineto
390 250 lineto
390 310 lineto
390 390 lineto
390 455 lineto
390 480 lineto
390 451 lineto
391 364 lineto
391 261 lineto
391 189 lineto
391 182 lineto
391 193 lineto
391 216 lineto
391 248 lineto
391 294 lineto
391 352 lineto
391 403 lineto
391 456 lineto
391 478 lineto
391 445 lineto
391 357 lineto
392 260 lineto
392 191 lineto
392 182 lineto
392 195 lineto
392 222 lineto
392 259 lineto
392 313 lineto
392 370 lineto
392 425 lineto
392 465 lineto
392 473 lineto
392 412 lineto
392 298 lineto
392 210 lineto
393 178 lineto
393 198 lineto
393 293 lineto
393 415 lineto
393 474 lineto
393 464 lineto
393 376 lineto
393 260 lineto
393 184 lineto
394 184 lineto
394 241 lineto
394 281 lineto
394 326 lineto
394 378 lineto
394 431 lineto
394 466 lineto
394 468 lineto
394 404 lineto
394 289 lineto
394 204 lineto
394 179 lineto
394 206 lineto
395 291 lineto
395 395 lineto
395 462 lineto
395 474 lineto
395 404 lineto
395 297 lineto
395 199 lineto
395 183 lineto
395 189 lineto
395 211 lineto
395 245 lineto
395 289 lineto
395 336 lineto
395 377 lineto
396 432 lineto
396 467 lineto
396 470 lineto
396 406 lineto
396 290 lineto
396 197 lineto
396 181 lineto
396 194 lineto
396 224 lineto
396 267 lineto
396 317 lineto
396 373 lineto
396 425 lineto
396 464 lineto
397 472 lineto
397 413 lineto
397 300 lineto
397 215 lineto
397 180 lineto
397 199 lineto
397 297 lineto
397 422 lineto
397 475 lineto
398 454 lineto
398 361 lineto
398 256 lineto
398 185 lineto
398 186 lineto
398 243 lineto
398 288 lineto
398 336 lineto
398 395 lineto
398 447 lineto
398 474 lineto
398 450 lineto
398 370 lineto
399 261 lineto
399 198 lineto
399 183 lineto
399 217 lineto
399 291 lineto
399 379 lineto
399 450 lineto
399 477 lineto
399 435 lineto
399 340 lineto
400 230 lineto
400 191 lineto
400 186 lineto
400 190 lineto
400 208 lineto
400 245 lineto
400 301 lineto
400 359 lineto
400 414 lineto
400 461 lineto
400 475 lineto
400 421 lineto
400 322 lineto
400 231 lineto
400 188 lineto
401 187 lineto
401 195 lineto
401 216 lineto
401 244 lineto
401 289 lineto
401 338 lineto
401 380 lineto
401 433 lineto
401 469 lineto
401 472 lineto
401 409 lineto
401 293 lineto
401 199 lineto
401 183 lineto
401 195 lineto
402 226 lineto
402 274 lineto
402 328 lineto
402 391 lineto
402 441 lineto
402 474 lineto
402 464 lineto
402 391 lineto
402 271 lineto
402 205 lineto
402 181 lineto
402 201 lineto
402 293 lineto
403 407 lineto
403 469 lineto
403 471 lineto
403 392 lineto
403 280 lineto
403 189 lineto
403 186 lineto
403 212 lineto
403 235 lineto
403 264 lineto
403 298 lineto
403 336 lineto
403 391 lineto
404 437 lineto
404 475 lineto
404 465 lineto
404 389 lineto
404 269 lineto
404 196 lineto
404 183 lineto
404 202 lineto
404 244 lineto
404 301 lineto
404 376 lineto
404 444 lineto
404 476 lineto
405 452 lineto
405 367 lineto
405 269 lineto
405 193 lineto
405 186 lineto
405 195 lineto
405 223 lineto
405 265 lineto
405 321 lineto
405 389 lineto
405 441 lineto
405 476 lineto
405 468 lineto
406 395 lineto
406 274 lineto
406 207 lineto
406 180 lineto
406 203 lineto
406 300 lineto
406 426 lineto
406 477 lineto
406 453 lineto
406 359 lineto
407 261 lineto
407 188 lineto
407 186 lineto
407 195 lineto
407 212 lineto
407 236 lineto
407 265 lineto
407 301 lineto
407 340 lineto
407 397 lineto
407 442 lineto
407 477 lineto
407 458 lineto
407 376 lineto
407 255 lineto
408 194 lineto
408 186 lineto
408 197 lineto
408 241 lineto
408 301 lineto
408 394 lineto
408 462 lineto
408 479 lineto
408 429 lineto
408 327 lineto
408 236 lineto
408 184 lineto
409 187 lineto
409 192 lineto
409 206 lineto
409 232 lineto
409 257 lineto
409 284 lineto
409 326 lineto
409 380 lineto
409 434 lineto
409 470 lineto
409 474 lineto
409 410 lineto
409 293 lineto
409 205 lineto
409 180 lineto
409 205 lineto
410 289 lineto
410 395 lineto
410 465 lineto
410 473 lineto
410 400 lineto
410 294 lineto
410 198 lineto
410 185 lineto
410 193 lineto
410 212 lineto
410 240 lineto
410 278 lineto
410 317 lineto
411 353 lineto
411 403 lineto
411 445 lineto
411 477 lineto
411 440 lineto
411 348 lineto
411 242 lineto
411 195 lineto
411 187 lineto
411 192 lineto
411 222 lineto
411 270 lineto
411 340 lineto
411 418 lineto
412 465 lineto
412 476 lineto
412 419 lineto
412 324 lineto
412 225 lineto
412 190 lineto
412 204 lineto
412 225 lineto
412 254 lineto
412 291 lineto
412 347 lineto
412 399 lineto
412 453 lineto
412 475 lineto
413 450 lineto
413 369 lineto
413 267 lineto
413 198 lineto
413 189 lineto
413 214 lineto
413 257 lineto
413 311 lineto
413 383 lineto
413 446 lineto
413 478 lineto
413 463 lineto
414 385 lineto
414 283 lineto
414 199 lineto
414 186 lineto
414 201 lineto
414 239 lineto
414 293 lineto
414 356 lineto
414 424 lineto
414 473 lineto
414 478 lineto
414 414 lineto
414 311 lineto
415 213 lineto
415 188 lineto
415 192 lineto
415 211 lineto
415 228 lineto
415 248 lineto
415 271 lineto
415 311 lineto
415 351 lineto
415 402 lineto
415 446 lineto
415 477 lineto
415 444 lineto
415 356 lineto
415 258 lineto
415 199 lineto
416 187 lineto
416 194 lineto
416 218 lineto
416 243 lineto
416 272 lineto
416 303 lineto
416 339 lineto
416 392 lineto
416 437 lineto
416 474 lineto
416 467 lineto
416 395 lineto
416 288 lineto
416 208 lineto
416 184 lineto
417 202 lineto
417 274 lineto
417 371 lineto
417 446 lineto
417 480 lineto
417 455 lineto
417 367 lineto
417 252 lineto
417 203 lineto
417 188 lineto
417 192 lineto
417 256 lineto
418 372 lineto
418 451 lineto
418 470 lineto
418 415 lineto
418 316 lineto
418 224 lineto
418 192 lineto
418 205 lineto
418 219 lineto
418 238 lineto
418 262 lineto
418 301 lineto
418 347 lineto
419 411 lineto
419 454 lineto
419 475 lineto
419 433 lineto
419 343 lineto
419 249 lineto
419 199 lineto
419 191 lineto
419 198 lineto
419 228 lineto
419 273 lineto
419 357 lineto
419 430 lineto
419 473 lineto
420 477 lineto
420 415 lineto
420 312 lineto
420 215 lineto
420 190 lineto
420 194 lineto
420 211 lineto
420 225 lineto
420 243 lineto
420 263 lineto
420 301 lineto
420 345 lineto
420 406 lineto
420 451 lineto
420 477 lineto
421 442 lineto
421 354 lineto
421 258 lineto
421 201 lineto
421 189 lineto
421 203 lineto
421 242 lineto
421 298 lineto
421 377 lineto
421 448 lineto
421 479 lineto
421 451 lineto
421 364 lineto
422 265 lineto
422 196 lineto
422 191 lineto
422 202 lineto
422 222 lineto
422 248 lineto
422 284 lineto
422 325 lineto
422 363 lineto
422 412 lineto
422 452 lineto
422 480 lineto
422 436 lineto
422 340 lineto
422 236 lineto
423 196 lineto
423 191 lineto
423 196 lineto
423 217 lineto
423 249 lineto
423 309 lineto
423 390 lineto
423 448 lineto
423 478 lineto
423 452 lineto
423 369 lineto
423 261 lineto
423 206 lineto
424 187 lineto
424 221 lineto
424 324 lineto
424 426 lineto
424 477 lineto
424 454 lineto
424 363 lineto
424 265 lineto
424 193 lineto
424 190 lineto
425 211 lineto
425 231 lineto
425 256 lineto
425 285 lineto
425 333 lineto
425 376 lineto
425 426 lineto
425 463 lineto
425 473 lineto
425 413 lineto
425 297 lineto
425 204 lineto
425 186 lineto
425 197 lineto
425 244 lineto
425 290 lineto
426 340 lineto
426 394 lineto
426 445 lineto
426 478 lineto
426 469 lineto
426 396 lineto
426 275 lineto
426 208 lineto
426 185 lineto
426 212 lineto
426 310 lineto
426 422 lineto
427 474 lineto
427 457 lineto
427 369 lineto
427 266 lineto
427 192 lineto
427 191 lineto
427 201 lineto
427 224 lineto
427 254 lineto
427 293 lineto
427 335 lineto
427 374 lineto
427 426 lineto
427 464 lineto
428 477 lineto
428 416 lineto
428 300 lineto
428 202 lineto
428 186 lineto
428 199 lineto
428 229 lineto
428 271 lineto
428 321 lineto
428 377 lineto
428 429 lineto
428 467 lineto
428 474 lineto
429 415 lineto
429 303 lineto
429 219 lineto
429 185 lineto
429 199 lineto
429 290 lineto
429 416 lineto
429 474 lineto
429 465 lineto
429 379 lineto
430 266 lineto
430 191 lineto
430 194 lineto
430 274 lineto
430 359 lineto
430 429 lineto
430 475 lineto
430 450 lineto
430 363 lineto
430 248 lineto
431 201 lineto
431 192 lineto
431 198 lineto
431 229 lineto
431 276 lineto
431 345 lineto
431 419 lineto
431 465 lineto
431 478 lineto
431 426 lineto
431 335 lineto
431 229 lineto
431 195 lineto
432 194 lineto
432 205 lineto
432 228 lineto
432 259 lineto
432 306 lineto
432 359 lineto
432 415 lineto
432 460 lineto
432 477 lineto
432 430 lineto
432 338 lineto
432 246 lineto
432 195 lineto
432 194 lineto
432 204 lineto
432 226 lineto
433 256 lineto
433 301 lineto
433 353 lineto
433 399 lineto
433 455 lineto
433 480 lineto
433 460 lineto
433 381 lineto
433 280 lineto
433 202 lineto
433 190 lineto
433 201 lineto
433 231 lineto
433 277 lineto
433 330 lineto
434 396 lineto
434 445 lineto
434 478 lineto
434 467 lineto
434 394 lineto
434 275 lineto
434 210 lineto
434 188 lineto
434 211 lineto
434 307 lineto
434 420 lineto
435 474 lineto
435 462 lineto
435 376 lineto
435 262 lineto
435 193 lineto
435 192 lineto
435 198 lineto
435 216 lineto
435 245 lineto
435 298 lineto
435 346 lineto
435 388 lineto
435 441 lineto
435 475 lineto
436 472 lineto
436 404 lineto
436 297 lineto
436 204 lineto
436 188 lineto
436 199 lineto
436 229 lineto
436 275 lineto
436 325 lineto
436 387 lineto
436 438 lineto
436 472 lineto
436 470 lineto
436 403 lineto
437 287 lineto
437 213 lineto
437 186 lineto
437 206 lineto
437 299 lineto
437 421 lineto
437 476 lineto
437 463 lineto
437 375 lineto
438 260 lineto
438 190 lineto
438 193 lineto
438 198 lineto
438 213 lineto
438 240 lineto
438 270 lineto
438 303 lineto
438 340 lineto
438 397 lineto
438 444 lineto
438 479 lineto
438 468 lineto
438 391 lineto
438 286 lineto
438 209 lineto
439 185 lineto
439 198 lineto
439 253 lineto
439 355 lineto
439 440 lineto
439 479 lineto
439 447 lineto
439 355 lineto
439 247 lineto
439 201 lineto
439 191 lineto
440 194 lineto
440 238 lineto
440 301 lineto
440 367 lineto
440 433 lineto
440 473 lineto
440 457 lineto
440 377 lineto
440 269 lineto
440 203 lineto
440 191 lineto
440 201 lineto
440 233 lineto
441 282 lineto
441 353 lineto
441 424 lineto
441 469 lineto
441 481 lineto
441 427 lineto
441 331 lineto
441 224 lineto
441 195 lineto
441 194 lineto
441 202 lineto
441 220 lineto
441 248 lineto
441 289 lineto
441 335 lineto
441 376 lineto
442 425 lineto
442 461 lineto
442 472 lineto
442 415 lineto
442 303 lineto
442 208 lineto
442 191 lineto
442 207 lineto
442 250 lineto
442 293 lineto
442 340 lineto
442 385 lineto
442 435 lineto
442 471 lineto
443 480 lineto
443 421 lineto
443 307 lineto
443 220 lineto
443 186 lineto
443 205 lineto
443 300 lineto
443 427 lineto
443 480 lineto
444 458 lineto
444 364 lineto
444 259 lineto
444 191 lineto
444 195 lineto
444 269 lineto
444 346 lineto
444 412 lineto
444 470 lineto
444 463 lineto
444 386 lineto
445 280 lineto
445 213 lineto
445 190 lineto
445 211 lineto
445 294 lineto
445 405 lineto
445 469 lineto
445 472 lineto
445 402 lineto
445 293 lineto
446 201 lineto
446 194 lineto
446 212 lineto
446 243 lineto
446 282 lineto
446 331 lineto
446 377 lineto
446 427 lineto
446 466 lineto
446 479 lineto
446 419 lineto
446 303 lineto
446 215 lineto
447 187 lineto
447 216 lineto
447 312 lineto
447 429 lineto
447 480 lineto
447 451 lineto
447 353 lineto
447 260 lineto
447 194 lineto
447 192 lineto
448 197 lineto
448 207 lineto
448 214 lineto
448 221 lineto
448 229 lineto
448 247 lineto
448 276 lineto
448 318 lineto
448 357 lineto
448 407 lineto
448 449 lineto
448 481 lineto
448 446 lineto
448 355 lineto
448 253 lineto
448 200 lineto
448 192 lineto
448 208 lineto
448 246 lineto
449 297 lineto
449 365 lineto
449 427 lineto
449 475 lineto
449 408 lineto
449 306 lineto
449 208 lineto
449 192 lineto
449 201 lineto
449 225 lineto
449 262 lineto
449 308 lineto
449 368 lineto
450 416 lineto
450 463 lineto
450 480 lineto
450 433 lineto
450 340 lineto
450 250 lineto
450 197 lineto
450 196 lineto
450 232 lineto
450 253 lineto
450 280 lineto
450 312 lineto
450 347 lineto
450 396 lineto
450 438 lineto
450 474 lineto
451 465 lineto
451 393 lineto
451 279 lineto
451 209 lineto
451 192 lineto
451 209 lineto
451 262 lineto
451 336 lineto
451 424 lineto
451 478 lineto
451 477 lineto
452 406 lineto
452 300 lineto
452 225 lineto
452 189 lineto
452 199 lineto
452 250 lineto
452 279 lineto
452 311 lineto
452 355 lineto
452 398 lineto
452 445 lineto
452 479 lineto
452 469 lineto
452 395 lineto
453 292 lineto
453 210 lineto
453 190 lineto
453 202 lineto
453 246 lineto
453 311 lineto
453 374 lineto
453 453 lineto
453 485 lineto
453 446 lineto
453 351 lineto
453 252 lineto
454 195 lineto
454 219 lineto
454 241 lineto
454 268 lineto
454 301 lineto
454 340 lineto
454 387 lineto
454 440 lineto
454 473 lineto
454 472 lineto
454 406 lineto
454 301 lineto
454 209 lineto
455 191 lineto
455 201 lineto
455 235 lineto
455 287 lineto
455 346 lineto
455 419 lineto
455 465 lineto
455 481 lineto
455 439 lineto
455 350 lineto
455 243 lineto
455 201 lineto
455 196 lineto
455 199 lineto
456 224 lineto
456 267 lineto
456 341 lineto
456 411 lineto
456 460 lineto
456 479 lineto
456 444 lineto
456 358 lineto
456 257 lineto
456 205 lineto
456 195 lineto
456 199 lineto
456 227 lineto
456 271 lineto
456 322 lineto
457 374 lineto
457 425 lineto
457 464 lineto
457 477 lineto
457 423 lineto
457 318 lineto
457 227 lineto
457 193 lineto
457 215 lineto
457 300 lineto
457 409 lineto
458 471 lineto
458 470 lineto
458 395 lineto
458 287 lineto
458 203 lineto
458 195 lineto
458 207 lineto
458 228 lineto
458 257 lineto
458 295 lineto
458 339 lineto
458 378 lineto
458 427 lineto
458 464 lineto
459 478 lineto
459 422 lineto
459 312 lineto
459 218 lineto
459 194 lineto
459 203 lineto
459 237 lineto
459 292 lineto
459 351 lineto
459 424 lineto
459 469 lineto
459 481 lineto
459 428 lineto
460 335 lineto
460 230 lineto
460 198 lineto
460 208 lineto
460 229 lineto
460 258 lineto
460 300 lineto
460 355 lineto
460 403 lineto
460 453 lineto
460 478 lineto
460 459 lineto
460 383 lineto
461 285 lineto
461 213 lineto
461 194 lineto
461 202 lineto
461 231 lineto
461 266 lineto
461 313 lineto
461 370 lineto
461 419 lineto
461 465 lineto
461 483 lineto
461 436 lineto
461 344 lineto
stroke
newpath
461 344 moveto
461 250 lineto
462 198 lineto
462 256 lineto
462 290 lineto
462 332 lineto
462 392 lineto
462 443 lineto
462 474 lineto
462 468 lineto
462 401 lineto
462 288 lineto
462 214 lineto
462 194 lineto
463 211 lineto
463 273 lineto
463 356 lineto
463 433 lineto
463 481 lineto
463 474 lineto
463 401 lineto
463 295 lineto
463 223 lineto
463 191 lineto
463 204 lineto
464 290 lineto
464 402 lineto
464 472 lineto
464 480 lineto
464 416 lineto
464 307 lineto
464 203 lineto
464 195 lineto
464 204 lineto
464 230 lineto
464 257 lineto
464 293 lineto
464 326 lineto
464 357 lineto
465 407 lineto
465 449 lineto
465 487 lineto
465 467 lineto
465 380 lineto
465 270 lineto
465 210 lineto
465 189 lineto
465 203 lineto
465 278 lineto
465 377 lineto
465 453 lineto
466 485 lineto
466 451 lineto
466 358 lineto
466 237 lineto
466 202 lineto
466 195 lineto
466 197 lineto
466 236 lineto
466 303 lineto
466 375 lineto
466 440 lineto
466 475 lineto
467 452 lineto
467 367 lineto
467 258 lineto
467 199 lineto
467 197 lineto
467 211 lineto
467 237 lineto
467 271 lineto
467 318 lineto
467 364 lineto
467 424 lineto
467 463 lineto
467 481 lineto
467 430 lineto
468 328 lineto
468 239 lineto
468 194 lineto
468 200 lineto
468 262 lineto
468 350 lineto
468 430 lineto
468 478 lineto
468 462 lineto
468 380 lineto
469 267 lineto
469 209 lineto
469 193 lineto
469 218 lineto
469 290 lineto
469 381 lineto
469 453 lineto
469 483 lineto
469 452 lineto
469 361 lineto
469 244 lineto
470 204 lineto
470 196 lineto
470 200 lineto
470 220 lineto
470 237 lineto
470 254 lineto
470 274 lineto
470 312 lineto
470 354 lineto
470 406 lineto
470 451 lineto
470 480 lineto
470 456 lineto
470 373 lineto
470 273 lineto
470 205 lineto
470 195 lineto
471 219 lineto
471 269 lineto
471 332 lineto
471 417 lineto
471 471 lineto
471 483 lineto
471 436 lineto
471 340 lineto
471 247 lineto
471 196 lineto
471 199 lineto
472 264 lineto
472 322 lineto
472 382 lineto
472 447 lineto
472 479 lineto
472 439 lineto
472 347 lineto
472 253 lineto
472 200 lineto
472 199 lineto
472 211 lineto
472 235 lineto
472 267 lineto
472 314 lineto
472 363 lineto
473 414 lineto
473 460 lineto
473 484 lineto
473 445 lineto
473 354 lineto
473 257 lineto
473 199 lineto
473 198 lineto
473 224 lineto
473 245 lineto
473 273 lineto
473 308 lineto
473 347 lineto
473 398 lineto
473 446 lineto
474 478 lineto
474 468 lineto
474 395 lineto
474 293 lineto
474 210 lineto
474 194 lineto
474 211 lineto
474 261 lineto
474 332 lineto
474 421 lineto
474 478 lineto
474 481 lineto
475 414 lineto
475 309 lineto
475 227 lineto
475 189 lineto
475 205 lineto
475 297 lineto
475 435 lineto
475 483 lineto
475 454 lineto
476 357 lineto
476 258 lineto
476 194 lineto
476 200 lineto
476 277 lineto
476 367 lineto
476 440 lineto
476 479 lineto
476 445 lineto
476 354 lineto
477 239 lineto
477 201 lineto
477 198 lineto
477 208 lineto
477 233 lineto
477 267 lineto
477 320 lineto
477 376 lineto
477 436 lineto
477 472 lineto
477 471 lineto
477 405 lineto
477 290 lineto
477 217 lineto
478 192 lineto
478 211 lineto
478 292 lineto
478 400 lineto
478 468 lineto
478 481 lineto
478 425 lineto
478 317 lineto
478 209 lineto
478 197 lineto
479 209 lineto
479 228 lineto
479 255 lineto
479 288 lineto
479 324 lineto
479 361 lineto
479 410 lineto
479 451 lineto
479 482 lineto
479 452 lineto
479 365 lineto
479 262 lineto
479 208 lineto
479 195 lineto
479 217 lineto
480 276 lineto
480 352 lineto
480 430 lineto
480 478 lineto
480 479 lineto
480 414 lineto
480 312 lineto
480 231 lineto
480 192 lineto
480 204 lineto
480 293 lineto
481 430 lineto
481 482 lineto
481 458 lineto
481 363 lineto
481 266 lineto
481 199 lineto
481 210 lineto
481 230 lineto
481 256 lineto
481 289 lineto
481 324 lineto
481 362 lineto
481 411 lineto
481 452 lineto
482 484 lineto
482 454 lineto
482 366 lineto
482 260 lineto
482 208 lineto
482 195 lineto
482 209 lineto
482 261 lineto
482 333 lineto
482 420 lineto
482 476 lineto
482 481 lineto
483 415 lineto
483 311 lineto
483 228 lineto
483 189 lineto
483 204 lineto
483 294 lineto
483 427 lineto
483 480 lineto
483 458 lineto
484 366 lineto
484 267 lineto
484 198 lineto
484 199 lineto
484 215 lineto
484 232 lineto
484 254 lineto
484 281 lineto
484 317 lineto
484 356 lineto
484 408 lineto
484 451 lineto
484 483 lineto
484 461 lineto
484 379 lineto
484 274 lineto
485 210 lineto
485 194 lineto
485 210 lineto
485 263 lineto
485 338 lineto
485 423 lineto
485 478 lineto
485 479 lineto
485 411 lineto
485 307 lineto
485 225 lineto
486 190 lineto
486 206 lineto
486 301 lineto
486 442 lineto
486 486 lineto
486 448 lineto
486 347 lineto
486 253 lineto
486 192 lineto
487 200 lineto
487 253 lineto
487 289 lineto
487 327 lineto
487 372 lineto
487 415 lineto
487 457 lineto
487 484 lineto
487 443 lineto
487 349 lineto
487 253 lineto
487 200 lineto
487 198 lineto
487 218 lineto
487 249 lineto
488 288 lineto
488 335 lineto
488 379 lineto
488 428 lineto
488 466 lineto
488 480 lineto
488 423 lineto
488 311 lineto
488 222 lineto
488 192 lineto
488 219 lineto
488 314 lineto
489 430 lineto
489 482 lineto
489 452 lineto
489 356 lineto
489 263 lineto
489 198 lineto
489 196 lineto
489 201 lineto
489 210 lineto
489 225 lineto
489 243 lineto
489 265 lineto
489 299 lineto
489 338 lineto
489 394 lineto
489 447 lineto
490 479 lineto
490 474 lineto
490 404 lineto
490 286 lineto
490 213 lineto
490 192 lineto
490 207 lineto
490 277 lineto
490 369 lineto
490 445 lineto
490 484 lineto
491 463 lineto
491 378 lineto
491 265 lineto
491 213 lineto
491 194 lineto
491 202 lineto
491 284 lineto
491 398 lineto
491 466 lineto
491 474 lineto
491 405 lineto
492 300 lineto
492 209 lineto
492 198 lineto
492 209 lineto
492 230 lineto
492 258 lineto
492 296 lineto
492 340 lineto
492 379 lineto
492 428 lineto
492 465 lineto
492 480 lineto
492 425 lineto
492 316 lineto
493 222 lineto
493 196 lineto
493 206 lineto
493 244 lineto
493 303 lineto
493 365 lineto
493 438 lineto
493 479 lineto
493 475 lineto
493 405 lineto
493 299 lineto
493 209 lineto
494 197 lineto
494 208 lineto
494 234 lineto
494 266 lineto
494 306 lineto
494 348 lineto
494 386 lineto
494 437 lineto
494 473 lineto
494 482 lineto
494 424 lineto
494 312 lineto
494 211 lineto
494 194 lineto
495 207 lineto
495 240 lineto
495 284 lineto
495 336 lineto
495 394 lineto
495 443 lineto
495 477 lineto
495 474 lineto
495 408 lineto
495 292 lineto
495 219 lineto
495 192 lineto
495 214 lineto
496 308 lineto
496 429 lineto
496 481 lineto
496 461 lineto
496 370 lineto
496 266 lineto
496 197 lineto
496 198 lineto
496 203 lineto
496 216 lineto
496 243 lineto
496 264 lineto
496 287 lineto
496 334 lineto
496 381 lineto
497 431 lineto
497 469 lineto
497 480 lineto
497 420 lineto
497 303 lineto
497 214 lineto
497 191 lineto
497 211 lineto
497 289 lineto
497 386 lineto
497 459 lineto
498 485 lineto
498 447 lineto
498 351 lineto
498 234 lineto
498 202 lineto
498 198 lineto
498 201 lineto
498 223 lineto
498 265 lineto
498 333 lineto
498 408 lineto
498 460 lineto
498 480 lineto
499 446 lineto
499 360 lineto
499 262 lineto
499 210 lineto
499 197 lineto
499 201 lineto
499 226 lineto
499 246 lineto
499 270 lineto
499 299 lineto
499 342 lineto
499 390 lineto
499 440 lineto
499 473 lineto
499 474 lineto
499 413 lineto
500 302 lineto
500 219 lineto
500 194 lineto
500 212 lineto
500 283 lineto
500 378 lineto
500 458 lineto
500 487 lineto
500 459 lineto
500 369 lineto
500 252 lineto
501 206 lineto
501 198 lineto
501 200 lineto
501 230 lineto
501 294 lineto
501 366 lineto
501 431 lineto
501 472 lineto
501 476 lineto
501 417 lineto
501 320 lineto
501 232 lineto
502 199 lineto
502 204 lineto
502 237 lineto
502 293 lineto
502 354 lineto
502 425 lineto
502 469 lineto
502 482 lineto
502 431 lineto
502 341 lineto
502 237 lineto
502 200 lineto
502 202 lineto
503 221 lineto
503 262 lineto
503 319 lineto
503 377 lineto
503 432 lineto
503 473 lineto
503 477 lineto
503 417 lineto
503 313 lineto
503 219 lineto
503 195 lineto
503 226 lineto
503 316 lineto
504 418 lineto
504 479 lineto
504 466 lineto
504 381 lineto
504 271 lineto
504 202 lineto
504 197 lineto
504 203 lineto
504 220 lineto
504 254 lineto
504 286 lineto
504 319 lineto
504 356 lineto
504 406 lineto
505 449 lineto
505 484 lineto
505 466 lineto
505 386 lineto
505 279 lineto
505 212 lineto
505 193 lineto
505 203 lineto
505 253 lineto
505 329 lineto
505 427 lineto
505 479 lineto
506 467 lineto
506 385 lineto
506 271 lineto
506 214 lineto
506 192 lineto
506 218 lineto
506 317 lineto
506 431 lineto
506 480 lineto
506 455 lineto
507 364 lineto
507 269 lineto
507 199 lineto
507 197 lineto
507 207 lineto
507 228 lineto
507 257 lineto
507 296 lineto
507 335 lineto
507 370 lineto
507 419 lineto
507 458 lineto
507 485 lineto
507 440 lineto
507 342 lineto
508 239 lineto
508 200 lineto
508 197 lineto
508 202 lineto
508 220 lineto
508 251 lineto
508 309 lineto
508 366 lineto
508 414 lineto
508 468 lineto
508 482 lineto
508 442 lineto
508 354 lineto
508 256 lineto
509 199 lineto
509 198 lineto
509 204 lineto
509 227 lineto
509 266 lineto
509 341 lineto
509 412 lineto
509 464 lineto
509 488 lineto
509 457 lineto
509 370 lineto
509 254 lineto
509 206 lineto
509 195 lineto
510 199 lineto
510 232 lineto
510 265 lineto
510 304 lineto
510 343 lineto
510 381 lineto
510 430 lineto
510 466 lineto
510 477 lineto
510 419 lineto
510 306 lineto
510 211 lineto
510 193 lineto
510 210 lineto
511 263 lineto
511 310 lineto
511 359 lineto
511 406 lineto
511 459 lineto
511 486 lineto
511 467 lineto
511 388 lineto
511 262 lineto
511 208 lineto
511 194 lineto
511 199 lineto
511 226 lineto
511 248 lineto
511 275 lineto
511 306 lineto
511 346 lineto
512 402 lineto
512 447 lineto
512 478 lineto
512 462 lineto
512 386 lineto
512 285 lineto
512 210 lineto
512 196 lineto
512 218 lineto
512 277 lineto
512 352 lineto
512 432 lineto
513 480 lineto
513 412 lineto
513 309 lineto
513 225 lineto
513 192 lineto
513 210 lineto
513 303 lineto
513 443 lineto
513 487 lineto
514 448 lineto
514 348 lineto
514 254 lineto
514 194 lineto
514 200 lineto
514 275 lineto
514 362 lineto
514 434 lineto
514 480 lineto
514 455 lineto
515 368 lineto
515 254 lineto
515 206 lineto
515 198 lineto
515 202 lineto
515 233 lineto
515 284 lineto
515 355 lineto
515 435 lineto
515 476 lineto
515 477 lineto
515 413 lineto
515 312 lineto
516 213 lineto
516 196 lineto
516 209 lineto
516 238 lineto
516 280 lineto
516 330 lineto
516 383 lineto
516 434 lineto
516 471 lineto
516 476 lineto
516 415 lineto
516 300 lineto
516 221 lineto
517 192 lineto
517 210 lineto
517 294 lineto
517 391 lineto
517 462 lineto
517 487 lineto
517 447 lineto
517 347 lineto
517 228 lineto
517 199 lineto
517 197 lineto
518 201 lineto
518 220 lineto
518 250 lineto
518 300 lineto
518 349 lineto
518 391 lineto
518 442 lineto
518 474 lineto
518 473 lineto
518 408 lineto
518 305 lineto
518 213 lineto
518 195 lineto
518 206 lineto
518 234 lineto
519 278 lineto
519 329 lineto
519 388 lineto
519 439 lineto
519 474 lineto
519 475 lineto
519 411 lineto
519 298 lineto
519 221 lineto
519 192 lineto
519 208 lineto
519 292 lineto
520 413 lineto
520 480 lineto
520 477 lineto
520 398 lineto
520 285 lineto
520 199 lineto
520 197 lineto
520 203 lineto
520 224 lineto
520 257 lineto
520 306 lineto
520 347 lineto
520 385 lineto
520 437 lineto
521 474 lineto
521 483 lineto
521 425 lineto
521 312 lineto
521 211 lineto
521 192 lineto
521 202 lineto
521 231 lineto
521 274 lineto
521 328 lineto
521 395 lineto
521 447 lineto
521 480 lineto
522 470 lineto
522 398 lineto
522 279 lineto
522 213 lineto
522 192 lineto
522 217 lineto
522 315 lineto
522 421 lineto
522 480 lineto
522 472 lineto
523 388 lineto
523 273 lineto
523 195 lineto
523 197 lineto
523 203 lineto
523 226 lineto
523 260 lineto
523 305 lineto
523 350 lineto
523 392 lineto
523 449 lineto
523 482 lineto
523 477 lineto
523 407 lineto
523 298 lineto
524 205 lineto
524 191 lineto
524 201 lineto
524 225 lineto
524 267 lineto
524 316 lineto
524 383 lineto
524 435 lineto
524 474 lineto
524 477 lineto
524 412 lineto
524 299 lineto
524 218 lineto
525 189 lineto
525 214 lineto
525 309 lineto
525 431 lineto
525 482 lineto
525 457 lineto
525 363 lineto
525 247 lineto
525 190 lineto
526 201 lineto
526 291 lineto
526 417 lineto
526 477 lineto
526 470 lineto
526 385 lineto
526 272 lineto
526 197 lineto
526 199 lineto
527 276 lineto
527 339 lineto
527 400 lineto
527 463 lineto
527 481 lineto
527 434 lineto
527 338 lineto
527 252 lineto
527 202 lineto
527 199 lineto
527 260 lineto
527 300 lineto
527 348 lineto
528 416 lineto
528 464 lineto
528 483 lineto
528 449 lineto
528 364 lineto
528 255 lineto
528 203 lineto
528 198 lineto
528 213 lineto
528 243 lineto
528 284 lineto
528 340 lineto
528 393 lineto
528 442 lineto
529 476 lineto
529 475 lineto
529 410 lineto
529 296 lineto
529 219 lineto
529 192 lineto
529 207 lineto
529 285 lineto
529 397 lineto
529 470 lineto
529 487 lineto
530 435 lineto
530 327 lineto
530 212 lineto
530 196 lineto
530 201 lineto
530 218 lineto
530 254 lineto
530 285 lineto
530 317 lineto
530 356 lineto
530 406 lineto
530 449 lineto
530 482 lineto
530 464 lineto
531 385 lineto
531 284 lineto
531 214 lineto
531 193 lineto
531 202 lineto
531 244 lineto
531 325 lineto
531 421 lineto
531 477 lineto
531 466 lineto
531 384 lineto
532 267 lineto
532 208 lineto
532 196 lineto
532 201 lineto
532 234 lineto
532 295 lineto
532 391 lineto
532 461 lineto
532 481 lineto
532 436 lineto
532 332 lineto
532 236 lineto
533 194 lineto
533 203 lineto
533 283 lineto
533 403 lineto
533 471 lineto
533 476 lineto
533 406 lineto
533 297 lineto
533 206 lineto
534 196 lineto
534 209 lineto
534 234 lineto
534 270 lineto
534 309 lineto
534 354 lineto
534 396 lineto
534 449 lineto
534 481 lineto
534 477 lineto
534 407 lineto
534 301 lineto
534 209 lineto
534 193 lineto
534 205 lineto
535 248 lineto
535 311 lineto
535 378 lineto
535 457 lineto
535 488 lineto
535 451 lineto
535 355 lineto
535 262 lineto
535 196 lineto
535 195 lineto
535 200 lineto
535 211 lineto
535 226 lineto
535 246 lineto
535 269 lineto
535 302 lineto
535 341 lineto
536 399 lineto
536 452 lineto
536 484 lineto
536 472 lineto
536 396 lineto
536 274 lineto
536 208 lineto
536 191 lineto
536 213 lineto
536 283 lineto
536 373 lineto
536 450 lineto
537 488 lineto
537 469 lineto
537 383 lineto
537 267 lineto
537 213 lineto
537 192 lineto
537 198 lineto
537 256 lineto
537 320 lineto
537 385 lineto
537 451 lineto
537 477 lineto
538 429 lineto
538 335 lineto
538 246 lineto
538 199 lineto
538 201 lineto
538 280 lineto
538 412 lineto
538 476 lineto
538 470 lineto
539 390 lineto
539 278 lineto
539 203 lineto
539 197 lineto
539 209 lineto
539 232 lineto
539 262 lineto
539 302 lineto
539 348 lineto
539 389 lineto
539 439 lineto
539 474 lineto
539 480 lineto
539 420 lineto
539 308 lineto
540 213 lineto
540 194 lineto
540 209 lineto
540 247 lineto
540 304 lineto
540 363 lineto
540 426 lineto
540 472 lineto
540 484 lineto
540 430 lineto
540 336 lineto
540 231 lineto
541 197 lineto
541 201 lineto
541 221 lineto
541 263 lineto
541 318 lineto
541 377 lineto
541 430 lineto
stroke
newpath
541 430 moveto
541 471 lineto
541 479 lineto
541 421 lineto
541 318 lineto
541 227 lineto
541 194 lineto
542 213 lineto
542 295 lineto
542 402 lineto
542 469 lineto
542 479 lineto
542 422 lineto
542 313 lineto
542 211 lineto
542 196 lineto
542 207 lineto
542 229 lineto
542 261 lineto
543 304 lineto
543 354 lineto
543 397 lineto
543 448 lineto
543 479 lineto
543 474 lineto
543 405 lineto
543 303 lineto
543 212 lineto
543 194 lineto
543 209 lineto
543 245 lineto
543 299 lineto
543 357 lineto
544 420 lineto
544 467 lineto
544 485 lineto
544 449 lineto
544 363 lineto
544 254 lineto
544 205 lineto
544 197 lineto
544 201 lineto
544 232 lineto
544 291 lineto
544 369 lineto
544 445 lineto
545 482 lineto
545 472 lineto
545 396 lineto
545 288 lineto
545 208 lineto
545 194 lineto
545 209 lineto
545 247 lineto
545 302 lineto
545 362 lineto
545 429 lineto
545 476 lineto
545 485 lineto
546 428 lineto
546 330 lineto
546 226 lineto
546 197 lineto
546 198 lineto
546 209 lineto
546 226 lineto
546 251 lineto
546 283 lineto
546 323 lineto
546 363 lineto
546 414 lineto
546 455 lineto
546 482 lineto
546 446 lineto
546 358 lineto
547 258 lineto
547 207 lineto
547 195 lineto
547 201 lineto
547 233 lineto
547 292 lineto
547 389 lineto
547 458 lineto
547 485 lineto
547 455 lineto
547 366 lineto
547 267 lineto
548 201 lineto
548 196 lineto
548 202 lineto
548 222 lineto
548 253 lineto
548 308 lineto
548 358 lineto
548 402 lineto
548 455 lineto
548 484 lineto
548 469 lineto
548 392 lineto
548 292 lineto
548 206 lineto
549 193 lineto
549 204 lineto
549 233 lineto
549 277 lineto
549 329 lineto
549 396 lineto
549 447 lineto
549 481 lineto
549 472 lineto
549 401 lineto
549 282 lineto
549 215 lineto
549 190 lineto
549 212 lineto
550 311 lineto
550 425 lineto
550 482 lineto
550 469 lineto
550 380 lineto
550 263 lineto
550 193 lineto
550 195 lineto
550 200 lineto
550 213 lineto
550 239 lineto
550 258 lineto
550 278 lineto
550 320 lineto
551 363 lineto
551 415 lineto
551 458 lineto
551 487 lineto
551 448 lineto
551 354 lineto
551 248 lineto
551 197 lineto
551 194 lineto
551 214 lineto
551 246 lineto
551 286 lineto
551 336 lineto
551 384 lineto
551 433 lineto
552 470 lineto
552 479 lineto
552 422 lineto
552 311 lineto
552 222 lineto
552 189 lineto
552 209 lineto
552 297 lineto
552 414 lineto
552 475 lineto
553 473 lineto
553 392 lineto
553 281 lineto
553 199 lineto
553 196 lineto
553 211 lineto
553 234 lineto
553 264 lineto
553 301 lineto
553 354 lineto
553 400 lineto
553 452 lineto
553 482 lineto
553 473 lineto
554 400 lineto
554 294 lineto
554 207 lineto
554 192 lineto
554 206 lineto
554 245 lineto
554 303 lineto
554 366 lineto
554 438 lineto
554 483 lineto
554 478 lineto
554 403 lineto
555 294 lineto
555 202 lineto
555 193 lineto
555 207 lineto
555 234 lineto
555 270 lineto
555 318 lineto
555 371 lineto
555 428 lineto
555 469 lineto
555 484 lineto
555 429 lineto
555 324 lineto
555 229 lineto
556 190 lineto
556 204 lineto
556 298 lineto
556 425 lineto
556 482 lineto
556 465 lineto
556 375 lineto
556 271 lineto
556 197 lineto
557 195 lineto
557 201 lineto
557 216 lineto
557 245 lineto
557 273 lineto
557 304 lineto
557 345 lineto
557 409 lineto
557 455 lineto
557 486 lineto
557 464 lineto
557 381 lineto
557 273 lineto
557 208 lineto
557 191 lineto
557 200 lineto
558 247 lineto
558 321 lineto
558 415 lineto
558 475 lineto
558 474 lineto
558 397 lineto
558 284 lineto
558 216 lineto
558 188 lineto
558 209 lineto
558 300 lineto
559 424 lineto
559 480 lineto
559 466 lineto
559 377 lineto
559 261 lineto
559 194 lineto
559 195 lineto
559 200 lineto
559 214 lineto
559 241 lineto
559 263 lineto
559 285 lineto
559 333 lineto
559 380 lineto
559 431 lineto
560 470 lineto
560 482 lineto
560 421 lineto
560 302 lineto
560 212 lineto
560 188 lineto
560 206 lineto
560 284 lineto
560 383 lineto
560 458 lineto
560 488 lineto
561 454 lineto
561 358 lineto
561 238 lineto
561 201 lineto
561 194 lineto
561 197 lineto
561 237 lineto
561 302 lineto
561 372 lineto
561 437 lineto
561 478 lineto
561 462 lineto
562 382 lineto
562 276 lineto
562 206 lineto
562 193 lineto
562 211 lineto
562 247 lineto
562 299 lineto
562 365 lineto
562 427 lineto
562 473 lineto
562 483 lineto
562 427 lineto
562 332 lineto
563 229 lineto
563 196 lineto
563 199 lineto
563 221 lineto
563 266 lineto
563 322 lineto
563 393 lineto
563 449 lineto
563 480 lineto
563 465 lineto
563 389 lineto
563 283 lineto
564 208 lineto
564 194 lineto
564 209 lineto
564 264 lineto
564 341 lineto
564 432 lineto
564 484 lineto
564 479 lineto
564 403 lineto
564 291 lineto
564 221 lineto
564 188 lineto
565 202 lineto
565 288 lineto
565 431 lineto
565 484 lineto
565 459 lineto
565 362 lineto
565 261 lineto
565 194 lineto
565 198 lineto
566 272 lineto
566 353 lineto
566 421 lineto
566 477 lineto
566 467 lineto
566 388 lineto
566 279 lineto
566 213 lineto
566 191 lineto
566 216 lineto
566 306 lineto
567 413 lineto
567 475 lineto
567 474 lineto
567 396 lineto
567 286 lineto
567 200 lineto
567 195 lineto
567 207 lineto
567 231 lineto
567 262 lineto
567 303 lineto
567 353 lineto
567 396 lineto
567 449 lineto
568 481 lineto
568 476 lineto
568 406 lineto
568 300 lineto
568 207 lineto
568 191 lineto
568 203 lineto
568 241 lineto
568 283 lineto
568 329 lineto
568 382 lineto
568 433 lineto
568 472 lineto
569 485 lineto
569 425 lineto
569 306 lineto
569 219 lineto
569 185 lineto
569 201 lineto
569 291 lineto
569 430 lineto
569 482 lineto
569 460 lineto
570 366 lineto
570 259 lineto
570 192 lineto
570 196 lineto
570 200 lineto
570 214 lineto
570 239 lineto
570 265 lineto
570 283 lineto
stroke
showpage
%%Trailer
cleartomark
countdictstack
exch sub { end } repeat
restore
%%EOF
