%!PS-Adobe-3.0 EPSF-3.0
%%BoundingBox: 54 66 575 604
%%HiResBoundingBox: 54.000000 66.000000 574.500000 603.500000
%%Creator: nutmeg
%%EndComments
% EPSF created by ps2eps 1.68
%%BeginProlog
save
countdictstack
mark
newpath
/showpage {} def
/setpagedevice {pop} def
%%EndProlog
%%Page 1 1
/ReEncode { % inFont outFont encoding | -
   /MyEncoding exch def
      exch findfont
      dup length dict
      begin
         {def} forall
         /Encoding MyEncoding def
         currentdict
      end
      definefont
} def
/Helvetica /HelveticaLatin1 ISOLatin1Encoding ReEncode
1 1 scale
1.000 1.000 1.000 setrgbcolor
newpath
54 54 moveto 612 54 lineto
612 612 lineto 54 612 lineto
closepath fill
/HelveticaLatin1 findfont 10 scalefont setfont
0.000 0.000 0.000 setrgbcolor
0.502 0.502 0.502 setrgbcolor
0.000 0.000 0.000 setrgbcolor
0.000 0.000 0.000 setrgbcolor
243 66 moveto
0 rotate
(time) show
-0 rotate
0.000 0.000 0.000 setrgbcolor
0.502 0.502 0.502 setrgbcolor
0.000 0.000 0.000 setrgbcolor
0.000 0.000 0.000 setrgbcolor
54 596 moveto
0 rotate
(tran1: Oscilador ) show
-0 rotate
0.000 0.000 0.000 setrgbcolor
0.502 0.502 0.502 setrgbcolor
newpath
78 104 moveto
78 545 lineto
stroke
0.000 0.000 0.000 setrgbcolor
0.000 0.000 0.000 setrgbcolor
69 87 moveto
0 rotate
(1.0) show
-0 rotate
0.000 0.000 0.000 setrgbcolor
0.502 0.502 0.502 setrgbcolor
newpath
119 104 moveto
119 545 lineto
stroke
0.000 0.000 0.000 setrgbcolor
0.000 0.000 0.000 setrgbcolor
110 87 moveto
0 rotate
(1.5) show
-0 rotate
0.000 0.000 0.000 setrgbcolor
0.502 0.502 0.502 setrgbcolor
newpath
160 104 moveto
160 545 lineto
stroke
0.000 0.000 0.000 setrgbcolor
0.000 0.000 0.000 setrgbcolor
151 87 moveto
0 rotate
(2.0) show
-0 rotate
0.000 0.000 0.000 setrgbcolor
0.502 0.502 0.502 setrgbcolor
newpath
201 104 moveto
201 545 lineto
stroke
0.000 0.000 0.000 setrgbcolor
0.000 0.000 0.000 setrgbcolor
192 87 moveto
0 rotate
(2.5) show
-0 rotate
0.000 0.000 0.000 setrgbcolor
0.502 0.502 0.502 setrgbcolor
newpath
242 104 moveto
242 545 lineto
stroke
0.000 0.000 0.000 setrgbcolor
0.000 0.000 0.000 setrgbcolor
233 87 moveto
0 rotate
(3.0) show
-0 rotate
0.000 0.000 0.000 setrgbcolor
0.502 0.502 0.502 setrgbcolor
newpath
283 104 moveto
283 545 lineto
stroke
0.000 0.000 0.000 setrgbcolor
0.000 0.000 0.000 setrgbcolor
274 87 moveto
0 rotate
(3.5) show
-0 rotate
0.000 0.000 0.000 setrgbcolor
0.502 0.502 0.502 setrgbcolor
newpath
324 104 moveto
324 545 lineto
stroke
0.000 0.000 0.000 setrgbcolor
0.000 0.000 0.000 setrgbcolor
315 87 moveto
0 rotate
(4.0) show
-0 rotate
0.000 0.000 0.000 setrgbcolor
0.502 0.502 0.502 setrgbcolor
newpath
365 104 moveto
365 545 lineto
stroke
0.000 0.000 0.000 setrgbcolor
0.000 0.000 0.000 setrgbcolor
356 87 moveto
0 rotate
(4.5) show
-0 rotate
0.000 0.000 0.000 setrgbcolor
0.502 0.502 0.502 setrgbcolor
newpath
406 104 moveto
406 545 lineto
stroke
0.000 0.000 0.000 setrgbcolor
0.000 0.000 0.000 setrgbcolor
397 87 moveto
0 rotate
(5.0) show
-0 rotate
0.000 0.000 0.000 setrgbcolor
0.502 0.502 0.502 setrgbcolor
newpath
447 104 moveto
447 545 lineto
stroke
0.000 0.000 0.000 setrgbcolor
0.000 0.000 0.000 setrgbcolor
438 87 moveto
0 rotate
(5.5) show
-0 rotate
0.000 0.000 0.000 setrgbcolor
0.502 0.502 0.502 setrgbcolor
newpath
488 104 moveto
488 545 lineto
stroke
0.000 0.000 0.000 setrgbcolor
0.000 0.000 0.000 setrgbcolor
479 87 moveto
0 rotate
(6.0) show
-0 rotate
0.000 0.000 0.000 setrgbcolor
0.502 0.502 0.502 setrgbcolor
newpath
529 104 moveto
529 545 lineto
stroke
0.000 0.000 0.000 setrgbcolor
0.000 0.000 0.000 setrgbcolor
520 87 moveto
0 rotate
(6.5) show
-0 rotate
0.000 0.000 0.000 setrgbcolor
0.502 0.502 0.502 setrgbcolor
newpath
570 104 moveto
570 545 lineto
stroke
0.000 0.000 0.000 setrgbcolor
0.000 0.000 0.000 setrgbcolor
561 87 moveto
0 rotate
(7.0) show
-0 rotate
0.000 0.000 0.000 setrgbcolor
0.502 0.502 0.502 setrgbcolor
0.000 0.000 0.000 setrgbcolor
0.000 0.000 0.000 setrgbcolor
382 66 moveto
0 rotate
(us) show
-0 rotate
0.000 0.000 0.000 setrgbcolor
0.502 0.502 0.502 setrgbcolor
newpath
78 104 moveto
570 104 lineto
stroke
0.000 0.000 0.000 setrgbcolor
0.000 0.000 0.000 setrgbcolor
54 101 moveto
0 rotate
(-6.0) show
-0 rotate
0.000 0.000 0.000 setrgbcolor
0.502 0.502 0.502 setrgbcolor
newpath
78 167 moveto
570 167 lineto
stroke
0.000 0.000 0.000 setrgbcolor
0.000 0.000 0.000 setrgbcolor
54 164 moveto
0 rotate
(-4.0) show
-0 rotate
0.000 0.000 0.000 setrgbcolor
0.502 0.502 0.502 setrgbcolor
newpath
78 230 moveto
570 230 lineto
stroke
0.000 0.000 0.000 setrgbcolor
0.000 0.000 0.000 setrgbcolor
54 227 moveto
0 rotate
(-2.0) show
-0 rotate
0.000 0.000 0.000 setrgbcolor
0.502 0.502 0.502 setrgbcolor
0.000 0.000 0.000 setrgbcolor
newpath
78 293 moveto
570 293 lineto
stroke
0.502 0.502 0.502 setrgbcolor
0.000 0.000 0.000 setrgbcolor
0.000 0.000 0.000 setrgbcolor
54 290 moveto
0 rotate
(-0.0) show
-0 rotate
0.000 0.000 0.000 setrgbcolor
0.502 0.502 0.502 setrgbcolor
newpath
78 356 moveto
570 356 lineto
stroke
0.000 0.000 0.000 setrgbcolor
0.000 0.000 0.000 setrgbcolor
60 353 moveto
0 rotate
(2.0) show
-0 rotate
0.000 0.000 0.000 setrgbcolor
0.502 0.502 0.502 setrgbcolor
newpath
78 419 moveto
570 419 lineto
stroke
0.000 0.000 0.000 setrgbcolor
0.000 0.000 0.000 setrgbcolor
60 416 moveto
0 rotate
(4.0) show
-0 rotate
0.000 0.000 0.000 setrgbcolor
0.502 0.502 0.502 setrgbcolor
newpath
78 482 moveto
570 482 lineto
stroke
0.000 0.000 0.000 setrgbcolor
0.000 0.000 0.000 setrgbcolor
60 479 moveto
0 rotate
(6.0) show
-0 rotate
0.000 0.000 0.000 setrgbcolor
0.502 0.502 0.502 setrgbcolor
newpath
78 545 moveto
570 545 lineto
stroke
0.000 0.000 0.000 setrgbcolor
0.000 0.000 0.000 setrgbcolor
60 542 moveto
0 rotate
(8.0) show
-0 rotate
0.000 0.000 0.000 setrgbcolor
0.502 0.502 0.502 setrgbcolor
0.000 0.000 0.000 setrgbcolor
0.000 0.000 0.000 setrgbcolor
54 582 moveto
0 rotate
(V) show
-0 rotate
0.000 0.000 0.000 setrgbcolor
0.502 0.502 0.502 setrgbcolor
1.000 0.000 0.000 setrgbcolor
newpath
294 586 moveto
318 586 lineto
stroke
0.000 0.000 0.000 setrgbcolor
0.000 0.000 0.000 setrgbcolor
324 582 moveto
0 rotate
(v(out)) show
-0 rotate
0.000 0.000 0.000 setrgbcolor
1.000 0.000 0.000 setrgbcolor
newpath
78 395 moveto
79 395 lineto
80 395 lineto
81 395 lineto
82 395 lineto
83 395 lineto
84 395 lineto
85 395 lineto
86 395 lineto
87 395 lineto
88 395 lineto
89 395 lineto
90 395 lineto
91 395 lineto
92 395 lineto
93 395 lineto
94 395 lineto
95 395 lineto
96 395 lineto
97 395 lineto
98 395 lineto
99 395 lineto
100 395 lineto
101 395 lineto
102 395 lineto
103 395 lineto
104 395 lineto
105 395 lineto
106 395 lineto
107 395 lineto
108 395 lineto
109 395 lineto
110 395 lineto
111 395 lineto
112 395 lineto
113 395 lineto
114 395 lineto
115 395 lineto
116 395 lineto
117 395 lineto
118 395 lineto
119 395 lineto
120 395 lineto
121 395 lineto
122 395 lineto
123 395 lineto
124 395 lineto
125 395 lineto
126 395 lineto
127 395 lineto
128 395 lineto
129 395 lineto
130 395 lineto
131 395 lineto
132 395 lineto
133 395 lineto
134 395 lineto
135 395 lineto
136 395 lineto
137 395 lineto
138 395 lineto
139 395 lineto
140 395 lineto
141 395 lineto
142 395 lineto
143 395 lineto
144 395 lineto
145 395 lineto
146 395 lineto
147 395 lineto
148 395 lineto
149 395 lineto
150 395 lineto
151 395 lineto
152 395 lineto
153 395 lineto
154 395 lineto
155 395 lineto
156 395 lineto
157 395 lineto
158 395 lineto
159 395 lineto
160 395 lineto
161 395 lineto
162 395 lineto
163 395 lineto
164 395 lineto
165 395 lineto
166 395 lineto
167 395 lineto
168 395 lineto
169 395 lineto
170 395 lineto
171 395 lineto
172 395 lineto
173 395 lineto
174 395 lineto
175 395 lineto
176 395 lineto
177 395 lineto
178 395 lineto
179 395 lineto
180 395 lineto
181 395 lineto
182 395 lineto
183 395 lineto
184 395 lineto
185 395 lineto
186 395 lineto
186 396 lineto
186 395 lineto
187 395 lineto
187 396 lineto
187 395 lineto
188 395 lineto
188 396 lineto
188 395 lineto
189 396 lineto
189 395 lineto
189 396 lineto
190 396 lineto
190 395 lineto
190 396 lineto
191 395 lineto
191 396 lineto
191 395 lineto
192 395 lineto
192 396 lineto
192 395 lineto
193 395 lineto
193 396 lineto
193 395 lineto
193 396 lineto
194 396 lineto
194 395 lineto
194 394 lineto
194 395 lineto
194 396 lineto
194 397 lineto
195 396 lineto
195 395 lineto
195 394 lineto
195 396 lineto
195 397 lineto
195 396 lineto
195 395 lineto
196 394 lineto
196 395 lineto
196 397 lineto
196 398 lineto
196 397 lineto
196 395 lineto
196 394 lineto
196 393 lineto
197 394 lineto
197 396 lineto
197 398 lineto
197 396 lineto
197 394 lineto
197 392 lineto
197 393 lineto
197 396 lineto
198 398 lineto
198 399 lineto
198 398 lineto
198 394 lineto
198 391 lineto
198 394 lineto
198 398 lineto
199 401 lineto
199 399 lineto
199 395 lineto
199 391 lineto
199 390 lineto
199 392 lineto
199 397 lineto
199 402 lineto
199 397 lineto
200 391 lineto
200 388 lineto
200 390 lineto
200 396 lineto
200 402 lineto
200 405 lineto
200 401 lineto
200 393 lineto
201 386 lineto
201 393 lineto
201 402 lineto
201 408 lineto
201 405 lineto
201 395 lineto
201 385 lineto
201 381 lineto
201 387 lineto
202 399 lineto
202 410 lineto
202 400 lineto
202 386 lineto
202 377 lineto
202 381 lineto
202 396 lineto
203 412 lineto
203 417 lineto
203 408 lineto
203 390 lineto
203 373 lineto
203 389 lineto
203 411 lineto
203 424 lineto
204 417 lineto
204 394 lineto
204 371 lineto
204 362 lineto
204 375 lineto
204 404 lineto
204 428 lineto
204 433 lineto
204 412 lineto
204 378 lineto
205 355 lineto
205 354 lineto
205 379 lineto
205 420 lineto
205 441 lineto
205 446 lineto
205 425 lineto
205 383 lineto
205 349 lineto
205 337 lineto
206 344 lineto
206 386 lineto
206 437 lineto
206 456 lineto
206 460 lineto
206 455 lineto
206 438 lineto
206 401 lineto
206 361 lineto
206 327 lineto
206 318 lineto
206 336 lineto
206 375 lineto
207 430 lineto
207 465 lineto
207 473 lineto
207 466 lineto
207 444 lineto
207 409 lineto
207 368 lineto
207 325 lineto
207 307 lineto
207 305 lineto
207 319 lineto
207 347 lineto
207 398 lineto
207 434 lineto
207 462 lineto
207 477 lineto
207 476 lineto
208 444 lineto
208 390 lineto
208 330 lineto
208 302 lineto
208 300 lineto
208 320 lineto
208 353 lineto
208 393 lineto
208 425 lineto
208 451 lineto
208 470 lineto
208 474 lineto
208 455 lineto
208 404 lineto
209 344 lineto
209 306 lineto
209 299 lineto
209 297 lineto
209 298 lineto
209 302 lineto
209 305 lineto
209 309 lineto
209 316 lineto
209 325 lineto
209 342 lineto
209 371 lineto
209 412 lineto
209 447 lineto
209 469 lineto
209 474 lineto
209 458 lineto
209 396 lineto
209 325 lineto
209 297 lineto
210 295 lineto
210 304 lineto
210 312 lineto
210 321 lineto
210 334 lineto
210 364 lineto
210 402 lineto
210 442 lineto
210 468 lineto
210 473 lineto
210 458 lineto
210 405 lineto
210 349 lineto
210 308 lineto
210 297 lineto
210 295 lineto
210 294 lineto
210 295 lineto
210 296 lineto
210 298 lineto
210 299 lineto
210 303 lineto
210 313 lineto
210 342 lineto
211 384 lineto
211 432 lineto
211 462 lineto
211 474 lineto
211 469 lineto
211 428 lineto
211 375 lineto
211 321 lineto
211 299 lineto
211 295 lineto
211 294 lineto
211 293 lineto
211 292 lineto
211 294 lineto
211 297 lineto
211 301 lineto
211 306 lineto
211 312 lineto
211 320 lineto
211 333 lineto
211 353 lineto
211 386 lineto
211 433 lineto
211 463 lineto
212 475 lineto
212 469 lineto
212 425 lineto
212 369 lineto
212 317 lineto
212 297 lineto
212 294 lineto
212 293 lineto
212 292 lineto
212 291 lineto
212 294 lineto
212 299 lineto
212 306 lineto
212 319 lineto
212 336 lineto
212 366 lineto
212 408 lineto
212 446 lineto
212 468 lineto
212 475 lineto
212 459 lineto
213 398 lineto
213 334 lineto
213 298 lineto
213 292 lineto
213 290 lineto
213 289 lineto
213 292 lineto
213 299 lineto
213 308 lineto
213 324 lineto
213 348 lineto
213 389 lineto
213 433 lineto
213 467 lineto
213 475 lineto
213 462 lineto
213 404 lineto
213 346 lineto
214 302 lineto
214 293 lineto
214 290 lineto
214 288 lineto
214 292 lineto
214 296 lineto
214 302 lineto
214 311 lineto
214 324 lineto
214 344 lineto
214 376 lineto
214 415 lineto
214 447 lineto
214 469 lineto
214 476 lineto
214 454 lineto
214 395 lineto
214 331 lineto
214 294 lineto
214 288 lineto
214 286 lineto
214 289 lineto
215 297 lineto
215 304 lineto
215 312 lineto
215 332 lineto
215 368 lineto
215 413 lineto
215 448 lineto
215 469 lineto
215 476 lineto
215 451 lineto
215 388 lineto
215 319 lineto
215 290 lineto
215 286 lineto
215 285 lineto
215 286 lineto
215 289 lineto
215 292 lineto
215 295 lineto
215 301 lineto
215 308 lineto
215 324 lineto
215 353 lineto
215 396 lineto
216 437 lineto
216 466 lineto
216 476 lineto
216 463 lineto
216 405 lineto
216 343 lineto
216 299 lineto
216 287 lineto
216 285 lineto
216 283 lineto
216 288 lineto
216 296 lineto
216 310 lineto
216 334 lineto
216 373 lineto
216 412 lineto
216 445 lineto
216 469 lineto
216 476 lineto
217 455 lineto
217 396 lineto
217 333 lineto
217 292 lineto
217 286 lineto
217 284 lineto
217 282 lineto
217 285 lineto
217 293 lineto
217 305 lineto
217 320 lineto
217 349 lineto
217 396 lineto
217 434 lineto
217 466 lineto
217 477 lineto
217 463 lineto
217 406 lineto
218 325 lineto
218 288 lineto
218 283 lineto
218 281 lineto
218 282 lineto
218 286 lineto
218 291 lineto
218 295 lineto
218 304 lineto
218 313 lineto
218 333 lineto
218 363 lineto
218 402 lineto
218 438 lineto
218 466 lineto
218 478 lineto
218 465 lineto
218 413 lineto
218 351 lineto
218 301 lineto
218 285 lineto
218 282 lineto
219 279 lineto
219 280 lineto
219 285 lineto
219 290 lineto
219 296 lineto
219 306 lineto
219 319 lineto
219 343 lineto
219 379 lineto
219 430 lineto
219 464 lineto
219 478 lineto
219 470 lineto
219 419 lineto
219 356 lineto
219 301 lineto
219 281 lineto
219 279 lineto
219 283 lineto
219 288 lineto
219 295 lineto
219 304 lineto
219 323 lineto
219 351 lineto
220 391 lineto
220 432 lineto
220 464 lineto
220 477 lineto
220 466 lineto
220 413 lineto
220 351 lineto
220 299 lineto
220 282 lineto
220 279 lineto
220 277 lineto
220 279 lineto
220 282 lineto
220 284 lineto
220 287 lineto
220 294 lineto
220 307 lineto
220 341 lineto
220 386 lineto
220 432 lineto
220 468 lineto
221 478 lineto
221 463 lineto
221 403 lineto
221 338 lineto
221 292 lineto
221 279 lineto
221 276 lineto
221 278 lineto
221 285 lineto
221 295 lineto
221 308 lineto
221 335 lineto
221 373 lineto
221 417 lineto
221 451 lineto
221 472 lineto
221 478 lineto
221 448 lineto
222 379 lineto
222 308 lineto
222 275 lineto
222 273 lineto
222 300 lineto
222 351 lineto
222 410 lineto
222 464 lineto
222 477 lineto
222 468 lineto
222 418 lineto
222 360 lineto
222 300 lineto
223 281 lineto
223 277 lineto
223 273 lineto
223 272 lineto
223 277 lineto
223 285 lineto
223 295 lineto
223 317 lineto
223 347 lineto
223 385 lineto
223 427 lineto
223 463 lineto
223 478 lineto
223 469 lineto
223 416 lineto
223 353 lineto
223 293 lineto
223 275 lineto
223 272 lineto
223 270 lineto
223 275 lineto
223 286 lineto
224 301 lineto
224 320 lineto
224 358 lineto
224 401 lineto
224 436 lineto
224 465 lineto
224 479 lineto
224 463 lineto
224 410 lineto
224 344 lineto
224 290 lineto
224 273 lineto
224 271 lineto
224 269 lineto
224 273 lineto
224 283 lineto
224 292 lineto
224 302 lineto
224 326 lineto
224 362 lineto
224 411 lineto
225 449 lineto
225 472 lineto
225 479 lineto
225 448 lineto
225 379 lineto
225 307 lineto
225 272 lineto
225 269 lineto
225 268 lineto
225 275 lineto
225 287 lineto
225 310 lineto
225 354 lineto
225 406 lineto
225 449 lineto
225 472 lineto
225 477 lineto
226 445 lineto
226 371 lineto
226 292 lineto
226 268 lineto
226 266 lineto
226 267 lineto
226 274 lineto
226 283 lineto
226 298 lineto
226 327 lineto
226 369 lineto
226 419 lineto
226 455 lineto
226 476 lineto
226 475 lineto
226 434 lineto
226 353 lineto
227 285 lineto
227 266 lineto
227 264 lineto
227 286 lineto
227 335 lineto
227 394 lineto
227 458 lineto
227 478 lineto
227 471 lineto
227 421 lineto
227 358 lineto
227 287 lineto
227 267 lineto
227 265 lineto
228 263 lineto
228 269 lineto
228 282 lineto
228 297 lineto
228 315 lineto
228 355 lineto
228 401 lineto
228 438 lineto
228 466 lineto
228 479 lineto
228 456 lineto
228 398 lineto
228 335 lineto
228 282 lineto
228 264 lineto
228 262 lineto
228 264 lineto
228 272 lineto
228 284 lineto
228 302 lineto
228 338 lineto
229 387 lineto
229 430 lineto
229 462 lineto
229 479 lineto
229 465 lineto
229 410 lineto
229 334 lineto
229 279 lineto
229 264 lineto
229 260 lineto
229 276 lineto
229 315 lineto
229 378 lineto
229 430 lineto
229 463 lineto
230 478 lineto
230 461 lineto
230 398 lineto
230 325 lineto
230 276 lineto
230 262 lineto
230 259 lineto
230 282 lineto
230 327 lineto
230 407 lineto
230 464 lineto
230 481 lineto
230 468 lineto
230 410 lineto
231 345 lineto
231 277 lineto
231 261 lineto
231 259 lineto
231 256 lineto
231 261 lineto
231 265 lineto
231 270 lineto
231 275 lineto
231 288 lineto
231 322 lineto
231 364 lineto
231 413 lineto
231 453 lineto
231 478 lineto
231 474 lineto
231 425 lineto
231 339 lineto
231 273 lineto
232 256 lineto
232 255 lineto
232 275 lineto
232 314 lineto
232 374 lineto
232 424 lineto
232 458 lineto
232 479 lineto
232 468 lineto
232 413 lineto
232 327 lineto
232 273 lineto
232 259 lineto
232 253 lineto
233 286 lineto
233 357 lineto
233 431 lineto
233 474 lineto
233 466 lineto
233 423 lineto
233 343 lineto
233 274 lineto
233 255 lineto
233 252 lineto
233 286 lineto
233 347 lineto
233 415 lineto
234 467 lineto
234 479 lineto
234 463 lineto
234 400 lineto
234 333 lineto
234 273 lineto
234 257 lineto
234 254 lineto
234 251 lineto
234 252 lineto
234 257 lineto
234 265 lineto
234 275 lineto
234 294 lineto
234 317 lineto
234 357 lineto
234 403 lineto
234 449 lineto
234 475 lineto
234 476 lineto
235 434 lineto
235 352 lineto
235 272 lineto
235 251 lineto
235 250 lineto
235 252 lineto
235 263 lineto
235 278 lineto
235 301 lineto
235 347 lineto
235 393 lineto
235 438 lineto
235 466 lineto
235 479 lineto
235 451 lineto
235 385 lineto
236 306 lineto
236 261 lineto
236 252 lineto
236 249 lineto
236 256 lineto
236 262 lineto
236 269 lineto
236 278 lineto
236 302 lineto
236 335 lineto
236 376 lineto
236 415 lineto
236 452 lineto
236 475 lineto
236 473 lineto
236 427 lineto
236 344 lineto
236 269 lineto
236 247 lineto
237 246 lineto
237 270 lineto
237 321 lineto
237 384 lineto
237 450 lineto
237 475 lineto
237 473 lineto
237 425 lineto
237 334 lineto
237 263 lineto
237 246 lineto
237 245 lineto
237 254 lineto
237 269 lineto
237 291 lineto
238 333 lineto
238 374 lineto
238 421 lineto
238 456 lineto
238 479 lineto
238 471 lineto
238 416 lineto
238 323 lineto
238 263 lineto
238 243 lineto
238 241 lineto
238 272 lineto
238 339 lineto
238 419 lineto
238 470 lineto
239 476 lineto
239 447 lineto
239 366 lineto
239 294 lineto
239 248 lineto
239 241 lineto
239 240 lineto
239 251 lineto
239 270 lineto
239 298 lineto
239 336 lineto
239 382 lineto
239 430 lineto
239 462 lineto
239 478 lineto
239 453 lineto
240 388 lineto
240 299 lineto
240 254 lineto
240 244 lineto
240 240 lineto
240 251 lineto
240 268 lineto
240 287 lineto
240 310 lineto
240 352 lineto
240 401 lineto
240 447 lineto
240 473 lineto
240 471 lineto
240 422 lineto
240 333 lineto
241 261 lineto
241 239 lineto
241 245 lineto
241 285 lineto
241 349 lineto
241 421 lineto
241 469 lineto
241 475 lineto
241 440 lineto
241 353 lineto
241 269 lineto
241 238 lineto
242 278 lineto
242 362 lineto
242 438 lineto
242 476 lineto
242 450 lineto
242 379 lineto
242 285 lineto
242 248 lineto
242 240 lineto
242 235 lineto
242 254 lineto
242 276 lineto
242 304 lineto
242 333 lineto
242 378 lineto
243 421 lineto
243 455 lineto
243 476 lineto
243 458 lineto
243 396 lineto
243 306 lineto
243 251 lineto
243 236 lineto
243 235 lineto
243 258 lineto
243 297 lineto
243 356 lineto
243 409 lineto
243 448 lineto
243 475 lineto
244 469 lineto
244 415 lineto
244 318 lineto
244 256 lineto
244 234 lineto
244 233 lineto
244 254 lineto
244 289 lineto
244 332 lineto
244 367 lineto
244 400 lineto
244 440 lineto
244 468 lineto
244 479 lineto
244 439 lineto
245 351 lineto
245 264 lineto
245 235 lineto
245 233 lineto
245 231 lineto
245 234 lineto
245 250 lineto
245 272 lineto
245 305 lineto
245 336 lineto
245 378 lineto
245 430 lineto
245 468 lineto
245 483 lineto
245 448 lineto
245 374 lineto
245 275 lineto
245 240 lineto
246 230 lineto
246 228 lineto
246 244 lineto
246 261 lineto
246 278 lineto
246 299 lineto
246 343 lineto
246 386 lineto
246 438 lineto
246 469 lineto
246 474 lineto
246 429 lineto
246 341 lineto
246 255 lineto
246 228 lineto
246 253 lineto
247 296 lineto
247 349 lineto
247 394 lineto
247 429 lineto
247 464 lineto
247 474 lineto
247 437 lineto
247 362 lineto
247 264 lineto
247 230 lineto
247 236 lineto
247 247 lineto
247 263 lineto
247 284 lineto
247 322 lineto
247 364 lineto
247 408 lineto
247 447 lineto
248 473 lineto
248 472 lineto
248 419 lineto
248 328 lineto
248 251 lineto
248 225 lineto
248 232 lineto
248 289 lineto
248 370 lineto
248 453 lineto
248 476 lineto
249 442 lineto
249 359 lineto
249 264 lineto
249 235 lineto
249 229 lineto
249 226 lineto
249 231 lineto
249 237 lineto
249 245 lineto
249 254 lineto
249 270 lineto
249 292 lineto
249 337 lineto
249 382 lineto
249 431 lineto
stroke
newpath
249 431 moveto
249 468 lineto
249 473 lineto
249 429 lineto
249 349 lineto
250 268 lineto
250 230 lineto
250 227 lineto
250 236 lineto
250 251 lineto
250 276 lineto
250 319 lineto
250 368 lineto
250 418 lineto
250 454 lineto
250 474 lineto
250 453 lineto
250 388 lineto
250 292 lineto
250 240 lineto
250 227 lineto
251 224 lineto
251 242 lineto
251 278 lineto
251 341 lineto
251 390 lineto
251 430 lineto
251 465 lineto
251 474 lineto
251 435 lineto
251 358 lineto
251 281 lineto
251 234 lineto
251 224 lineto
251 225 lineto
251 243 lineto
251 272 lineto
251 316 lineto
252 353 lineto
252 391 lineto
252 437 lineto
252 467 lineto
252 477 lineto
252 435 lineto
252 347 lineto
252 258 lineto
252 227 lineto
252 224 lineto
252 221 lineto
252 229 lineto
252 248 lineto
252 274 lineto
252 310 lineto
252 351 lineto
252 387 lineto
252 432 lineto
252 464 lineto
253 480 lineto
253 441 lineto
253 357 lineto
253 262 lineto
253 226 lineto
253 220 lineto
253 218 lineto
253 232 lineto
253 254 lineto
253 276 lineto
253 300 lineto
253 343 lineto
253 385 lineto
253 431 lineto
253 464 lineto
253 475 lineto
253 434 lineto
254 348 lineto
254 264 lineto
254 222 lineto
254 219 lineto
254 231 lineto
254 249 lineto
254 279 lineto
254 314 lineto
254 363 lineto
254 413 lineto
254 451 lineto
254 472 lineto
254 456 lineto
254 392 lineto
254 296 lineto
254 236 lineto
255 218 lineto
255 217 lineto
255 247 lineto
255 313 lineto
255 401 lineto
255 460 lineto
255 475 lineto
255 451 lineto
255 373 lineto
255 292 lineto
255 228 lineto
255 215 lineto
256 235 lineto
256 272 lineto
256 323 lineto
256 361 lineto
256 394 lineto
256 436 lineto
256 465 lineto
256 471 lineto
256 419 lineto
256 326 lineto
256 236 lineto
256 214 lineto
256 217 lineto
256 233 lineto
256 258 lineto
256 296 lineto
256 335 lineto
256 374 lineto
257 425 lineto
257 460 lineto
257 475 lineto
257 436 lineto
257 354 lineto
257 259 lineto
257 221 lineto
257 216 lineto
257 213 lineto
257 226 lineto
257 254 lineto
257 284 lineto
257 317 lineto
257 369 lineto
257 417 lineto
257 456 lineto
257 472 lineto
258 442 lineto
258 370 lineto
258 276 lineto
258 225 lineto
258 215 lineto
258 213 lineto
258 224 lineto
258 232 lineto
258 241 lineto
258 252 lineto
258 281 lineto
258 322 lineto
258 372 lineto
258 419 lineto
258 458 lineto
258 473 lineto
258 441 lineto
258 368 lineto
259 275 lineto
259 222 lineto
259 213 lineto
259 212 lineto
259 231 lineto
259 270 lineto
259 328 lineto
259 372 lineto
259 410 lineto
259 452 lineto
259 474 lineto
259 456 lineto
259 388 lineto
259 291 lineto
259 222 lineto
259 211 lineto
260 210 lineto
260 216 lineto
260 228 lineto
260 243 lineto
260 262 lineto
260 297 lineto
260 339 lineto
260 382 lineto
260 427 lineto
260 461 lineto
260 475 lineto
260 432 lineto
260 341 lineto
260 254 lineto
260 212 lineto
260 209 lineto
260 222 lineto
260 236 lineto
260 254 lineto
260 280 lineto
261 318 lineto
261 364 lineto
261 413 lineto
261 452 lineto
261 469 lineto
261 439 lineto
261 368 lineto
261 274 lineto
261 219 lineto
261 211 lineto
261 212 lineto
261 225 lineto
261 249 lineto
261 290 lineto
261 335 lineto
261 376 lineto
261 427 lineto
261 460 lineto
262 470 lineto
262 426 lineto
262 340 lineto
262 252 lineto
262 216 lineto
262 211 lineto
262 209 lineto
262 218 lineto
262 238 lineto
262 270 lineto
262 308 lineto
262 364 lineto
262 413 lineto
262 451 lineto
262 472 lineto
262 446 lineto
263 375 lineto
263 280 lineto
263 222 lineto
263 210 lineto
263 208 lineto
263 230 lineto
263 268 lineto
263 329 lineto
263 381 lineto
263 422 lineto
263 463 lineto
263 470 lineto
263 424 lineto
263 340 lineto
263 261 lineto
264 214 lineto
264 207 lineto
264 209 lineto
264 225 lineto
264 249 lineto
264 283 lineto
264 319 lineto
264 362 lineto
264 421 lineto
264 462 lineto
264 474 lineto
264 433 lineto
264 351 lineto
264 252 lineto
264 214 lineto
264 208 lineto
264 205 lineto
264 216 lineto
265 227 lineto
265 240 lineto
265 254 lineto
265 288 lineto
265 331 lineto
265 374 lineto
265 422 lineto
265 457 lineto
265 471 lineto
265 430 lineto
265 345 lineto
265 255 lineto
265 210 lineto
265 205 lineto
265 208 lineto
265 230 lineto
265 263 lineto
265 318 lineto
265 366 lineto
265 407 lineto
266 450 lineto
266 470 lineto
266 450 lineto
266 380 lineto
266 286 lineto
266 215 lineto
266 201 lineto
266 206 lineto
266 227 lineto
266 258 lineto
266 302 lineto
266 342 lineto
266 378 lineto
266 422 lineto
266 455 lineto
266 470 lineto
267 428 lineto
267 337 lineto
267 243 lineto
267 207 lineto
267 203 lineto
267 202 lineto
267 212 lineto
267 231 lineto
267 275 lineto
267 319 lineto
267 367 lineto
267 423 lineto
267 459 lineto
267 468 lineto
267 423 lineto
267 337 lineto
268 247 lineto
268 207 lineto
268 203 lineto
268 202 lineto
268 217 lineto
268 241 lineto
268 286 lineto
268 329 lineto
268 370 lineto
268 422 lineto
268 457 lineto
268 470 lineto
268 427 lineto
268 340 lineto
268 239 lineto
268 205 lineto
268 202 lineto
269 202 lineto
269 215 lineto
269 235 lineto
269 270 lineto
269 308 lineto
269 359 lineto
269 413 lineto
269 453 lineto
269 469 lineto
269 434 lineto
269 359 lineto
269 261 lineto
269 214 lineto
269 203 lineto
269 200 lineto
269 204 lineto
269 219 lineto
269 243 lineto
269 279 lineto
269 314 lineto
270 355 lineto
270 415 lineto
270 456 lineto
270 474 lineto
270 436 lineto
270 355 lineto
270 244 lineto
270 205 lineto
270 199 lineto
270 196 lineto
270 210 lineto
270 226 lineto
270 242 lineto
270 261 lineto
270 305 lineto
270 353 lineto
270 403 lineto
270 446 lineto
270 467 lineto
271 446 lineto
271 375 lineto
271 280 lineto
271 211 lineto
271 194 lineto
271 207 lineto
271 249 lineto
271 307 lineto
271 378 lineto
271 435 lineto
271 468 lineto
271 458 lineto
271 390 lineto
272 297 lineto
272 214 lineto
272 193 lineto
272 194 lineto
272 213 lineto
272 251 lineto
272 307 lineto
272 353 lineto
272 392 lineto
272 437 lineto
272 462 lineto
272 453 lineto
272 389 lineto
272 300 lineto
272 216 lineto
273 193 lineto
273 194 lineto
273 217 lineto
273 261 lineto
273 320 lineto
273 378 lineto
273 421 lineto
273 459 lineto
273 463 lineto
273 410 lineto
273 314 lineto
273 226 lineto
273 195 lineto
273 194 lineto
273 193 lineto
273 198 lineto
273 207 lineto
274 215 lineto
274 223 lineto
274 238 lineto
274 254 lineto
274 284 lineto
274 327 lineto
274 369 lineto
274 416 lineto
274 453 lineto
274 472 lineto
274 429 lineto
274 335 lineto
274 235 lineto
274 191 lineto
274 211 lineto
274 224 lineto
274 242 lineto
274 267 lineto
274 305 lineto
274 351 lineto
274 402 lineto
275 446 lineto
275 464 lineto
275 436 lineto
275 362 lineto
275 268 lineto
275 204 lineto
275 192 lineto
275 200 lineto
275 231 lineto
275 277 lineto
275 348 lineto
275 407 lineto
275 447 lineto
275 465 lineto
276 430 lineto
276 352 lineto
276 254 lineto
276 205 lineto
276 194 lineto
276 192 lineto
276 203 lineto
276 225 lineto
276 245 lineto
276 269 lineto
276 311 lineto
276 358 lineto
276 417 lineto
276 453 lineto
276 465 lineto
276 420 lineto
276 329 lineto
277 239 lineto
277 196 lineto
277 192 lineto
277 206 lineto
277 228 lineto
277 257 lineto
277 300 lineto
277 352 lineto
277 397 lineto
277 441 lineto
277 465 lineto
277 448 lineto
277 378 lineto
277 285 lineto
277 210 lineto
277 191 lineto
277 190 lineto
278 192 lineto
278 202 lineto
278 218 lineto
278 242 lineto
278 284 lineto
278 326 lineto
278 377 lineto
278 423 lineto
278 457 lineto
278 463 lineto
278 407 lineto
278 296 lineto
278 215 lineto
278 185 lineto
278 194 lineto
278 270 lineto
279 373 lineto
279 449 lineto
279 465 lineto
279 417 lineto
279 320 lineto
279 211 lineto
279 188 lineto
279 187 lineto
279 192 lineto
279 214 lineto
279 246 lineto
279 291 lineto
279 336 lineto
279 374 lineto
279 420 lineto
279 452 lineto
280 457 lineto
280 401 lineto
280 308 lineto
280 216 lineto
280 188 lineto
280 190 lineto
280 206 lineto
280 231 lineto
280 279 lineto
280 317 lineto
280 358 lineto
280 408 lineto
280 445 lineto
280 466 lineto
280 428 lineto
281 342 lineto
281 242 lineto
281 196 lineto
281 189 lineto
281 186 lineto
281 211 lineto
281 258 lineto
281 316 lineto
281 374 lineto
281 418 lineto
281 455 lineto
281 459 lineto
281 405 lineto
281 304 lineto
281 220 lineto
282 185 lineto
282 186 lineto
282 235 lineto
282 337 lineto
282 431 lineto
282 459 lineto
282 413 lineto
282 322 lineto
282 222 lineto
282 189 lineto
282 185 lineto
282 188 lineto
282 206 lineto
283 235 lineto
283 285 lineto
283 329 lineto
283 368 lineto
283 413 lineto
283 447 lineto
283 458 lineto
283 408 lineto
283 306 lineto
283 212 lineto
283 183 lineto
283 185 lineto
283 214 lineto
283 267 lineto
283 328 lineto
283 420 lineto
284 458 lineto
284 459 lineto
284 401 lineto
284 302 lineto
284 204 lineto
284 182 lineto
284 184 lineto
284 208 lineto
284 251 lineto
284 305 lineto
284 357 lineto
284 400 lineto
284 446 lineto
284 464 lineto
285 427 lineto
285 344 lineto
285 249 lineto
285 190 lineto
285 182 lineto
285 200 lineto
285 237 lineto
285 285 lineto
285 324 lineto
285 357 lineto
285 405 lineto
285 443 lineto
285 468 lineto
285 427 lineto
285 332 lineto
286 224 lineto
286 184 lineto
286 180 lineto
286 179 lineto
286 196 lineto
286 225 lineto
286 283 lineto
286 327 lineto
286 366 lineto
286 413 lineto
286 446 lineto
286 455 lineto
286 399 lineto
286 306 lineto
286 211 lineto
286 180 lineto
287 181 lineto
287 193 lineto
287 203 lineto
287 216 lineto
287 233 lineto
287 274 lineto
287 323 lineto
287 368 lineto
287 414 lineto
287 447 lineto
287 451 lineto
287 394 lineto
287 302 lineto
287 219 lineto
287 183 lineto
287 182 lineto
287 200 lineto
287 218 lineto
287 241 lineto
287 271 lineto
287 318 lineto
288 361 lineto
288 409 lineto
288 445 lineto
288 458 lineto
288 412 lineto
288 318 lineto
288 229 lineto
288 186 lineto
288 182 lineto
288 197 lineto
288 218 lineto
288 246 lineto
288 287 lineto
288 342 lineto
288 387 lineto
288 432 lineto
288 459 lineto
289 448 lineto
289 380 lineto
289 282 lineto
289 201 lineto
289 181 lineto
289 180 lineto
289 184 lineto
289 196 lineto
289 213 lineto
289 239 lineto
289 276 lineto
289 320 lineto
289 369 lineto
289 417 lineto
289 452 lineto
289 457 lineto
289 398 lineto
290 295 lineto
290 212 lineto
290 175 lineto
290 179 lineto
290 232 lineto
290 345 lineto
290 432 lineto
290 453 lineto
290 397 lineto
290 300 lineto
290 197 lineto
291 174 lineto
291 177 lineto
291 190 lineto
291 217 lineto
291 258 lineto
291 297 lineto
291 340 lineto
291 395 lineto
291 436 lineto
291 460 lineto
291 426 lineto
291 344 lineto
291 241 lineto
291 191 lineto
291 176 lineto
291 199 lineto
292 247 lineto
292 296 lineto
292 345 lineto
292 387 lineto
292 435 lineto
292 462 lineto
292 441 lineto
292 364 lineto
292 260 lineto
292 188 lineto
292 174 lineto
292 177 lineto
292 188 lineto
292 205 lineto
292 227 lineto
292 263 lineto
292 303 lineto
292 351 lineto
292 401 lineto
293 440 lineto
293 461 lineto
293 418 lineto
293 322 lineto
293 221 lineto
293 173 lineto
293 174 lineto
293 236 lineto
293 362 lineto
293 439 lineto
293 441 lineto
294 363 lineto
294 257 lineto
294 183 lineto
294 173 lineto
294 181 lineto
294 194 lineto
294 213 lineto
294 235 lineto
294 273 lineto
294 316 lineto
294 366 lineto
294 414 lineto
294 448 lineto
294 453 lineto
294 394 lineto
294 280 lineto
295 195 lineto
295 169 lineto
295 176 lineto
295 239 lineto
295 329 lineto
295 416 lineto
295 461 lineto
295 439 lineto
295 355 lineto
295 232 lineto
295 187 lineto
295 174 lineto
296 170 lineto
296 197 lineto
296 214 lineto
296 237 lineto
296 268 lineto
296 310 lineto
296 352 lineto
296 397 lineto
296 433 lineto
296 447 lineto
296 401 lineto
296 305 lineto
296 219 lineto
296 178 lineto
296 175 lineto
296 215 lineto
297 296 lineto
297 379 lineto
297 446 lineto
297 443 lineto
297 370 lineto
297 261 lineto
297 195 lineto
297 178 lineto
297 174 lineto
297 208 lineto
297 282 lineto
297 381 lineto
297 445 lineto
298 442 lineto
298 377 lineto
298 263 lineto
298 191 lineto
298 173 lineto
298 177 lineto
298 218 lineto
298 288 lineto
298 384 lineto
298 449 lineto
298 451 lineto
298 379 lineto
299 262 lineto
299 197 lineto
299 169 lineto
299 170 lineto
299 188 lineto
299 205 lineto
299 226 lineto
299 249 lineto
299 290 lineto
299 333 lineto
299 388 lineto
299 431 lineto
299 455 lineto
299 421 lineto
299 338 lineto
299 239 lineto
300 179 lineto
300 170 lineto
300 184 lineto
300 207 lineto
300 240 lineto
300 288 lineto
300 336 lineto
300 387 lineto
300 435 lineto
300 455 lineto
300 425 lineto
300 346 lineto
300 249 lineto
300 183 lineto
300 169 lineto
301 184 lineto
301 216 lineto
301 259 lineto
301 315 lineto
301 366 lineto
301 414 lineto
301 448 lineto
301 449 lineto
301 387 lineto
301 272 lineto
301 192 lineto
301 169 lineto
301 171 lineto
301 217 lineto
301 301 lineto
302 389 lineto
302 449 lineto
302 439 lineto
302 359 lineto
302 237 lineto
302 183 lineto
302 170 lineto
302 167 lineto
302 176 lineto
302 187 lineto
302 198 lineto
302 213 lineto
302 249 lineto
302 296 lineto
302 341 lineto
302 393 lineto
302 432 lineto
302 449 lineto
303 406 lineto
303 316 lineto
303 219 lineto
303 172 lineto
303 170 lineto
303 219 lineto
303 306 lineto
303 399 lineto
303 449 lineto
303 426 lineto
303 345 lineto
304 228 lineto
304 179 lineto
304 170 lineto
304 171 lineto
304 191 lineto
304 225 lineto
304 286 lineto
304 347 lineto
304 395 lineto
304 443 lineto
304 450 lineto
304 397 lineto
304 307 lineto
304 221 lineto
304 174 lineto
305 170 lineto
305 248 lineto
305 381 lineto
305 447 lineto
305 436 lineto
305 351 lineto
305 251 lineto
305 177 lineto
305 169 lineto
305 168 lineto
305 176 lineto
305 190 lineto
305 208 lineto
305 231 lineto
306 268 lineto
306 311 lineto
306 360 lineto
306 409 lineto
306 445 lineto
306 450 lineto
306 388 lineto
306 267 lineto
306 189 lineto
306 163 lineto
306 173 lineto
306 235 lineto
306 323 lineto
306 407 lineto
307 453 lineto
307 439 lineto
307 360 lineto
307 245 lineto
307 187 lineto
307 167 lineto
307 165 lineto
307 187 lineto
307 203 lineto
307 224 lineto
307 258 lineto
307 306 lineto
307 350 lineto
307 397 lineto
307 432 lineto
307 442 lineto
307 389 lineto
308 286 lineto
308 203 lineto
308 168 lineto
308 175 lineto
308 228 lineto
308 311 lineto
308 402 lineto
308 448 lineto
308 434 lineto
308 359 lineto
308 248 lineto
309 186 lineto
309 171 lineto
309 167 lineto
309 199 lineto
309 266 lineto
309 357 lineto
309 431 lineto
309 453 lineto
309 421 lineto
309 331 lineto
309 234 lineto
309 172 lineto
309 166 lineto
310 227 lineto
310 289 lineto
310 353 lineto
310 419 lineto
310 452 lineto
310 419 lineto
310 328 lineto
310 232 lineto
310 173 lineto
310 166 lineto
310 214 lineto
310 302 lineto
311 390 lineto
311 446 lineto
311 427 lineto
311 346 lineto
311 228 lineto
311 172 lineto
311 165 lineto
311 175 lineto
311 200 lineto
311 236 lineto
311 293 lineto
311 348 lineto
311 407 lineto
311 441 lineto
312 438 lineto
312 375 lineto
312 260 lineto
312 189 lineto
312 162 lineto
312 196 lineto
312 290 lineto
312 393 lineto
312 448 lineto
312 419 lineto
312 328 lineto
313 234 lineto
313 170 lineto
313 163 lineto
313 224 lineto
313 285 lineto
313 350 lineto
313 418 lineto
313 448 lineto
stroke
newpath
313 448 moveto
313 411 lineto
313 318 lineto
313 223 lineto
313 173 lineto
314 165 lineto
314 196 lineto
314 217 lineto
314 246 lineto
314 279 lineto
314 318 lineto
314 370 lineto
314 417 lineto
314 446 lineto
314 434 lineto
314 365 lineto
314 262 lineto
314 187 lineto
314 162 lineto
314 179 lineto
314 232 lineto
315 306 lineto
315 390 lineto
315 443 lineto
315 447 lineto
315 388 lineto
315 292 lineto
315 210 lineto
315 167 lineto
315 165 lineto
315 236 lineto
315 365 lineto
316 438 lineto
316 436 lineto
316 356 lineto
316 248 lineto
316 172 lineto
316 163 lineto
316 175 lineto
316 188 lineto
316 203 lineto
316 220 lineto
316 257 lineto
316 300 lineto
316 347 lineto
316 397 lineto
316 436 lineto
316 451 lineto
317 397 lineto
317 286 lineto
317 192 lineto
317 157 lineto
317 163 lineto
317 216 lineto
317 310 lineto
317 401 lineto
317 446 lineto
317 412 lineto
317 325 lineto
318 202 lineto
318 166 lineto
318 161 lineto
318 163 lineto
318 174 lineto
318 193 lineto
318 220 lineto
318 258 lineto
318 315 lineto
318 370 lineto
318 416 lineto
318 442 lineto
318 425 lineto
318 355 lineto
318 252 lineto
318 185 lineto
318 160 lineto
319 193 lineto
319 287 lineto
319 388 lineto
319 444 lineto
319 423 lineto
319 338 lineto
319 248 lineto
319 175 lineto
319 160 lineto
319 166 lineto
319 192 lineto
319 231 lineto
319 287 lineto
320 357 lineto
320 412 lineto
320 446 lineto
320 434 lineto
320 361 lineto
320 253 lineto
320 186 lineto
320 157 lineto
320 175 lineto
320 270 lineto
320 383 lineto
320 445 lineto
321 434 lineto
321 351 lineto
321 250 lineto
321 169 lineto
321 159 lineto
321 175 lineto
321 208 lineto
321 236 lineto
321 264 lineto
321 302 lineto
321 357 lineto
321 410 lineto
321 447 lineto
321 379 lineto
322 270 lineto
322 186 lineto
322 153 lineto
322 158 lineto
322 202 lineto
322 295 lineto
322 384 lineto
322 437 lineto
322 419 lineto
322 338 lineto
322 219 lineto
323 167 lineto
323 159 lineto
323 164 lineto
323 193 lineto
323 239 lineto
323 313 lineto
323 381 lineto
323 427 lineto
323 443 lineto
323 401 lineto
323 317 lineto
323 217 lineto
323 169 lineto
323 162 lineto
323 166 lineto
323 187 lineto
324 220 lineto
324 272 lineto
324 337 lineto
324 388 lineto
324 435 lineto
324 442 lineto
324 388 lineto
324 298 lineto
324 211 lineto
324 166 lineto
324 164 lineto
324 232 lineto
324 349 lineto
325 426 lineto
325 442 lineto
325 380 lineto
325 280 lineto
325 185 lineto
325 161 lineto
325 163 lineto
325 178 lineto
325 205 lineto
325 246 lineto
325 284 lineto
325 326 lineto
325 381 lineto
325 422 lineto
325 448 lineto
325 415 lineto
326 332 lineto
326 227 lineto
326 171 lineto
326 162 lineto
326 167 lineto
326 190 lineto
326 226 lineto
326 286 lineto
326 354 lineto
326 408 lineto
326 443 lineto
326 432 lineto
326 362 lineto
326 257 lineto
327 182 lineto
327 161 lineto
327 162 lineto
327 205 lineto
327 283 lineto
327 375 lineto
327 440 lineto
327 437 lineto
327 360 lineto
327 242 lineto
327 180 lineto
327 161 lineto
328 159 lineto
328 195 lineto
328 236 lineto
328 285 lineto
328 344 lineto
328 390 lineto
328 428 lineto
328 436 lineto
328 386 lineto
328 291 lineto
328 208 lineto
328 166 lineto
328 221 lineto
329 316 lineto
329 409 lineto
329 444 lineto
329 409 lineto
329 324 lineto
329 221 lineto
329 175 lineto
329 162 lineto
329 161 lineto
329 182 lineto
329 234 lineto
329 293 lineto
329 350 lineto
329 399 lineto
329 438 lineto
330 446 lineto
330 387 lineto
330 275 lineto
330 190 lineto
330 156 lineto
330 160 lineto
330 221 lineto
330 323 lineto
330 407 lineto
330 444 lineto
330 406 lineto
331 318 lineto
331 207 lineto
331 167 lineto
331 159 lineto
331 161 lineto
331 182 lineto
331 220 lineto
331 282 lineto
331 367 lineto
331 422 lineto
331 442 lineto
331 406 lineto
331 323 lineto
331 224 lineto
332 170 lineto
332 161 lineto
332 163 lineto
332 186 lineto
332 224 lineto
332 294 lineto
332 372 lineto
332 424 lineto
332 444 lineto
332 409 lineto
332 326 lineto
332 227 lineto
332 172 lineto
332 162 lineto
332 163 lineto
332 189 lineto
333 243 lineto
333 335 lineto
333 411 lineto
333 446 lineto
333 437 lineto
333 366 lineto
333 271 lineto
333 182 lineto
333 158 lineto
333 159 lineto
333 170 lineto
333 183 lineto
333 199 lineto
333 217 lineto
333 258 lineto
333 303 lineto
333 353 lineto
333 402 lineto
334 436 lineto
334 439 lineto
334 380 lineto
334 281 lineto
334 195 lineto
334 158 lineto
334 159 lineto
334 191 lineto
334 256 lineto
334 333 lineto
334 407 lineto
334 442 lineto
334 429 lineto
335 356 lineto
335 259 lineto
335 178 lineto
335 157 lineto
335 164 lineto
335 194 lineto
335 244 lineto
335 304 lineto
335 373 lineto
335 421 lineto
335 444 lineto
335 418 lineto
335 341 lineto
335 233 lineto
336 172 lineto
336 161 lineto
336 187 lineto
336 233 lineto
336 304 lineto
336 387 lineto
336 433 lineto
336 442 lineto
336 389 lineto
336 297 lineto
336 191 lineto
336 160 lineto
337 160 lineto
337 175 lineto
337 205 lineto
337 258 lineto
337 308 lineto
337 353 lineto
337 401 lineto
337 433 lineto
337 436 lineto
337 377 lineto
337 282 lineto
337 197 lineto
337 162 lineto
337 161 lineto
337 168 lineto
337 181 lineto
337 199 lineto
337 224 lineto
337 263 lineto
337 313 lineto
338 366 lineto
338 414 lineto
338 442 lineto
338 428 lineto
338 358 lineto
338 259 lineto
338 181 lineto
338 159 lineto
338 163 lineto
338 210 lineto
338 283 lineto
338 374 lineto
338 437 lineto
339 440 lineto
339 371 lineto
339 263 lineto
339 188 lineto
339 155 lineto
339 158 lineto
339 211 lineto
339 313 lineto
339 402 lineto
339 441 lineto
339 408 lineto
339 321 lineto
340 212 lineto
340 163 lineto
340 157 lineto
340 161 lineto
340 187 lineto
340 228 lineto
340 293 lineto
340 361 lineto
340 412 lineto
340 438 lineto
340 415 lineto
340 340 lineto
340 241 lineto
340 174 lineto
341 159 lineto
341 157 lineto
341 188 lineto
341 249 lineto
341 344 lineto
341 418 lineto
341 444 lineto
341 416 lineto
341 330 lineto
341 234 lineto
341 166 lineto
341 157 lineto
341 163 lineto
341 175 lineto
341 192 lineto
341 212 lineto
342 250 lineto
342 292 lineto
342 340 lineto
342 390 lineto
342 428 lineto
342 442 lineto
342 387 lineto
342 276 lineto
342 188 lineto
342 152 lineto
342 157 lineto
342 220 lineto
342 326 lineto
342 413 lineto
343 442 lineto
343 396 lineto
343 305 lineto
343 196 lineto
343 159 lineto
343 156 lineto
343 159 lineto
343 175 lineto
343 197 lineto
343 224 lineto
343 262 lineto
343 309 lineto
343 368 lineto
343 416 lineto
343 438 lineto
343 412 lineto
344 335 lineto
344 238 lineto
344 173 lineto
344 160 lineto
344 157 lineto
344 176 lineto
344 217 lineto
344 291 lineto
344 371 lineto
344 424 lineto
344 439 lineto
344 392 lineto
344 306 lineto
344 211 lineto
345 164 lineto
345 159 lineto
345 166 lineto
345 183 lineto
345 207 lineto
345 243 lineto
345 287 lineto
345 328 lineto
345 378 lineto
345 418 lineto
345 440 lineto
345 401 lineto
345 315 lineto
345 223 lineto
345 171 lineto
345 160 lineto
345 164 lineto
346 188 lineto
346 225 lineto
346 293 lineto
346 362 lineto
346 415 lineto
346 441 lineto
346 416 lineto
346 339 lineto
346 242 lineto
346 176 lineto
346 161 lineto
346 158 lineto
346 184 lineto
346 238 lineto
346 305 lineto
347 368 lineto
347 418 lineto
347 444 lineto
347 425 lineto
347 350 lineto
347 252 lineto
347 178 lineto
347 156 lineto
347 157 lineto
347 205 lineto
347 287 lineto
347 379 lineto
347 435 lineto
348 425 lineto
348 346 lineto
348 238 lineto
348 176 lineto
348 154 lineto
348 155 lineto
348 178 lineto
348 207 lineto
348 243 lineto
348 277 lineto
348 312 lineto
348 362 lineto
348 405 lineto
348 440 lineto
348 419 lineto
348 339 lineto
349 241 lineto
349 172 lineto
349 154 lineto
349 155 lineto
349 193 lineto
349 262 lineto
349 356 lineto
349 424 lineto
349 437 lineto
349 377 lineto
349 270 lineto
349 191 lineto
349 152 lineto
350 155 lineto
350 162 lineto
350 177 lineto
350 199 lineto
350 227 lineto
350 258 lineto
350 299 lineto
350 355 lineto
350 407 lineto
350 439 lineto
350 430 lineto
350 360 lineto
350 252 lineto
350 179 lineto
350 151 lineto
350 155 lineto
350 216 lineto
351 305 lineto
351 387 lineto
351 436 lineto
351 421 lineto
351 343 lineto
351 229 lineto
351 172 lineto
351 156 lineto
351 154 lineto
351 184 lineto
351 243 lineto
351 313 lineto
351 382 lineto
352 424 lineto
352 432 lineto
352 383 lineto
352 295 lineto
352 196 lineto
352 159 lineto
352 162 lineto
352 197 lineto
352 258 lineto
352 326 lineto
352 402 lineto
352 437 lineto
352 425 lineto
353 353 lineto
353 262 lineto
353 180 lineto
353 157 lineto
353 160 lineto
353 183 lineto
353 224 lineto
353 277 lineto
353 339 lineto
353 388 lineto
353 431 lineto
353 439 lineto
353 386 lineto
353 289 lineto
353 204 lineto
354 159 lineto
354 158 lineto
354 237 lineto
354 377 lineto
354 436 lineto
354 418 lineto
354 331 lineto
354 238 lineto
354 166 lineto
354 155 lineto
355 165 lineto
355 187 lineto
355 216 lineto
355 255 lineto
355 299 lineto
355 339 lineto
355 389 lineto
355 426 lineto
355 439 lineto
355 384 lineto
355 285 lineto
355 186 lineto
355 157 lineto
355 156 lineto
355 160 lineto
355 175 lineto
355 199 lineto
355 242 lineto
355 280 lineto
355 320 lineto
356 371 lineto
356 412 lineto
356 440 lineto
356 407 lineto
356 324 lineto
356 226 lineto
356 168 lineto
356 158 lineto
356 156 lineto
356 179 lineto
356 229 lineto
356 323 lineto
356 402 lineto
356 439 lineto
356 430 lineto
357 359 lineto
357 253 lineto
357 172 lineto
357 155 lineto
357 156 lineto
357 161 lineto
357 178 lineto
357 201 lineto
357 234 lineto
357 271 lineto
357 310 lineto
357 365 lineto
357 410 lineto
357 441 lineto
357 415 lineto
357 334 lineto
358 233 lineto
358 170 lineto
358 157 lineto
358 155 lineto
358 180 lineto
358 232 lineto
358 305 lineto
358 388 lineto
358 431 lineto
358 434 lineto
358 375 lineto
358 280 lineto
358 186 lineto
358 156 lineto
359 157 lineto
359 179 lineto
359 215 lineto
359 264 lineto
359 314 lineto
359 356 lineto
359 407 lineto
359 436 lineto
359 426 lineto
359 358 lineto
359 261 lineto
359 176 lineto
359 154 lineto
359 160 lineto
359 188 lineto
359 233 lineto
360 291 lineto
360 364 lineto
360 414 lineto
360 439 lineto
360 415 lineto
360 338 lineto
360 238 lineto
360 173 lineto
360 159 lineto
360 157 lineto
360 191 lineto
360 261 lineto
360 353 lineto
360 425 lineto
361 437 lineto
361 379 lineto
361 274 lineto
361 196 lineto
361 153 lineto
361 156 lineto
361 231 lineto
361 374 lineto
361 433 lineto
361 415 lineto
362 327 lineto
362 236 lineto
362 165 lineto
362 154 lineto
362 157 lineto
362 172 lineto
362 196 lineto
362 229 lineto
362 268 lineto
362 309 lineto
362 367 lineto
362 411 lineto
362 438 lineto
362 406 lineto
362 324 lineto
362 221 lineto
363 166 lineto
363 156 lineto
363 159 lineto
363 182 lineto
363 221 lineto
363 288 lineto
363 363 lineto
363 415 lineto
363 437 lineto
363 406 lineto
363 327 lineto
363 226 lineto
363 169 lineto
363 158 lineto
363 159 lineto
364 187 lineto
364 243 lineto
364 335 lineto
364 409 lineto
364 440 lineto
364 424 lineto
364 347 lineto
364 255 lineto
364 174 lineto
364 154 lineto
364 156 lineto
364 171 lineto
364 201 lineto
364 255 lineto
364 305 lineto
364 349 lineto
365 398 lineto
365 430 lineto
365 429 lineto
365 368 lineto
365 273 lineto
365 188 lineto
365 157 lineto
365 165 lineto
365 190 lineto
365 227 lineto
365 291 lineto
365 348 lineto
365 401 lineto
365 436 lineto
365 431 lineto
366 364 lineto
366 248 lineto
366 179 lineto
366 151 lineto
366 169 lineto
366 260 lineto
366 370 lineto
366 432 lineto
366 427 lineto
366 350 lineto
367 239 lineto
367 161 lineto
367 153 lineto
367 158 lineto
367 174 lineto
367 196 lineto
367 228 lineto
367 263 lineto
367 301 lineto
367 364 lineto
367 408 lineto
367 439 lineto
367 410 lineto
367 328 lineto
367 221 lineto
367 163 lineto
367 155 lineto
368 157 lineto
368 190 lineto
368 244 lineto
368 335 lineto
368 408 lineto
368 438 lineto
368 417 lineto
368 337 lineto
368 247 lineto
368 169 lineto
368 153 lineto
368 155 lineto
368 171 lineto
368 205 lineto
368 259 lineto
369 310 lineto
369 355 lineto
369 406 lineto
369 434 lineto
369 421 lineto
369 351 lineto
369 260 lineto
369 178 lineto
369 155 lineto
369 156 lineto
369 161 lineto
369 173 lineto
369 190 lineto
369 216 lineto
369 254 lineto
369 299 lineto
369 353 lineto
369 402 lineto
369 433 lineto
370 426 lineto
370 360 lineto
370 261 lineto
370 186 lineto
370 154 lineto
370 159 lineto
370 218 lineto
370 317 lineto
370 396 lineto
370 436 lineto
370 408 lineto
371 324 lineto
371 209 lineto
371 165 lineto
371 157 lineto
371 177 lineto
371 212 lineto
371 274 lineto
371 345 lineto
371 398 lineto
371 432 lineto
371 417 lineto
371 345 lineto
371 243 lineto
372 175 lineto
372 158 lineto
372 196 lineto
372 268 lineto
372 361 lineto
372 428 lineto
372 431 lineto
372 361 lineto
372 252 lineto
372 185 lineto
372 154 lineto
372 156 lineto
373 186 lineto
373 230 lineto
373 284 lineto
373 345 lineto
373 394 lineto
373 428 lineto
373 426 lineto
373 364 lineto
373 255 lineto
373 178 lineto
373 155 lineto
373 163 lineto
373 220 lineto
373 306 lineto
374 389 lineto
374 436 lineto
374 426 lineto
374 352 lineto
374 242 lineto
374 178 lineto
374 156 lineto
374 221 lineto
374 334 lineto
374 409 lineto
374 427 lineto
375 363 lineto
375 271 lineto
375 183 lineto
375 157 lineto
375 162 lineto
375 182 lineto
375 214 lineto
375 266 lineto
375 326 lineto
375 374 lineto
375 424 lineto
375 436 lineto
375 389 lineto
375 304 lineto
376 216 lineto
376 163 lineto
376 162 lineto
376 248 lineto
376 384 lineto
376 437 lineto
376 415 lineto
376 329 lineto
376 237 lineto
376 168 lineto
377 159 lineto
377 168 lineto
377 180 lineto
377 197 lineto
377 217 lineto
377 254 lineto
377 296 lineto
377 345 lineto
377 394 lineto
377 430 lineto
377 438 lineto
377 381 lineto
377 273 lineto
377 187 lineto
377 154 lineto
377 159 lineto
377 214 lineto
378 306 lineto
378 391 lineto
378 435 lineto
378 412 lineto
378 330 lineto
378 215 lineto
378 168 lineto
378 158 lineto
378 156 lineto
378 175 lineto
378 220 lineto
378 287 lineto
378 357 lineto
378 410 lineto
379 434 lineto
379 408 lineto
379 332 lineto
379 230 lineto
379 169 lineto
379 158 lineto
379 165 lineto
379 199 lineto
379 254 lineto
379 345 lineto
379 411 lineto
379 435 lineto
379 406 lineto
380 321 lineto
380 233 lineto
380 169 lineto
380 159 lineto
380 158 lineto
380 168 lineto
380 179 lineto
380 194 lineto
380 210 lineto
380 244 lineto
380 284 lineto
380 327 lineto
380 376 lineto
380 416 lineto
380 441 lineto
380 401 lineto
380 310 lineto
380 213 lineto
381 161 lineto
381 156 lineto
381 177 lineto
381 194 lineto
381 215 lineto
381 246 lineto
381 289 lineto
381 329 lineto
381 377 lineto
381 414 lineto
381 434 lineto
381 389 lineto
381 294 lineto
381 193 lineto
381 157 lineto
381 165 lineto
382 214 lineto
382 292 lineto
382 379 lineto
382 429 lineto
382 425 lineto
382 357 lineto
382 257 lineto
382 188 lineto
382 154 lineto
382 171 lineto
382 270 lineto
383 392 lineto
383 437 lineto
383 405 lineto
383 316 lineto
383 224 lineto
383 160 lineto
383 157 lineto
383 166 lineto
383 178 lineto
383 188 lineto
383 200 lineto
383 228 lineto
383 265 lineto
383 306 lineto
383 359 lineto
stroke
newpath
383 359 moveto
383 406 lineto
383 437 lineto
384 421 lineto
384 347 lineto
384 253 lineto
384 177 lineto
384 157 lineto
384 156 lineto
384 159 lineto
384 175 lineto
384 197 lineto
384 227 lineto
384 255 lineto
384 291 lineto
384 342 lineto
384 394 lineto
384 433 lineto
384 440 lineto
384 377 lineto
384 267 lineto
385 184 lineto
385 150 lineto
385 154 lineto
385 201 lineto
385 274 lineto
385 349 lineto
385 411 lineto
385 427 lineto
385 371 lineto
385 274 lineto
385 195 lineto
385 155 lineto
386 164 lineto
386 252 lineto
386 385 lineto
386 433 lineto
386 405 lineto
386 318 lineto
386 232 lineto
386 166 lineto
386 158 lineto
386 166 lineto
386 185 lineto
386 210 lineto
387 242 lineto
387 278 lineto
387 316 lineto
387 367 lineto
387 408 lineto
387 438 lineto
387 410 lineto
387 329 lineto
387 229 lineto
387 174 lineto
387 157 lineto
387 159 lineto
387 196 lineto
387 253 lineto
387 326 lineto
387 406 lineto
388 438 lineto
388 412 lineto
388 325 lineto
388 234 lineto
388 167 lineto
388 158 lineto
388 157 lineto
388 168 lineto
388 191 lineto
388 209 lineto
388 226 lineto
388 265 lineto
388 306 lineto
388 367 lineto
388 412 lineto
388 443 lineto
388 412 lineto
389 325 lineto
389 221 lineto
389 162 lineto
389 154 lineto
389 156 lineto
389 179 lineto
389 217 lineto
389 284 lineto
389 360 lineto
389 414 lineto
389 437 lineto
389 408 lineto
389 327 lineto
389 220 lineto
390 168 lineto
390 158 lineto
390 156 lineto
390 177 lineto
390 226 lineto
390 286 lineto
390 343 lineto
390 396 lineto
390 426 lineto
390 420 lineto
390 357 lineto
390 265 lineto
390 191 lineto
390 159 lineto
390 160 lineto
391 206 lineto
391 295 lineto
391 380 lineto
391 429 lineto
391 411 lineto
391 334 lineto
391 222 lineto
391 169 lineto
391 160 lineto
391 163 lineto
391 191 lineto
391 235 lineto
391 308 lineto
392 378 lineto
392 422 lineto
392 434 lineto
392 386 lineto
392 300 lineto
392 206 lineto
392 166 lineto
392 161 lineto
392 170 lineto
392 186 lineto
392 210 lineto
392 239 lineto
392 278 lineto
392 321 lineto
392 371 lineto
392 411 lineto
392 433 lineto
393 399 lineto
393 320 lineto
393 232 lineto
393 174 lineto
393 163 lineto
393 173 lineto
393 205 lineto
393 251 lineto
393 319 lineto
393 377 lineto
393 420 lineto
393 436 lineto
393 397 lineto
393 317 lineto
394 226 lineto
394 173 lineto
394 164 lineto
394 166 lineto
394 188 lineto
394 225 lineto
394 294 lineto
394 367 lineto
394 418 lineto
394 437 lineto
394 402 lineto
394 322 lineto
394 229 lineto
394 175 lineto
394 165 lineto
395 163 lineto
395 185 lineto
395 225 lineto
395 299 lineto
395 384 lineto
395 429 lineto
395 432 lineto
395 372 lineto
395 279 lineto
395 190 lineto
395 162 lineto
395 163 lineto
395 176 lineto
395 204 lineto
395 250 lineto
396 294 lineto
396 335 lineto
396 382 lineto
396 419 lineto
396 435 lineto
396 389 lineto
396 294 lineto
396 199 lineto
396 163 lineto
396 166 lineto
396 196 lineto
396 250 lineto
396 310 lineto
396 382 lineto
396 424 lineto
397 435 lineto
397 389 lineto
397 305 lineto
397 212 lineto
397 169 lineto
397 164 lineto
397 172 lineto
397 191 lineto
397 219 lineto
397 256 lineto
397 306 lineto
397 350 lineto
397 395 lineto
397 426 lineto
397 428 lineto
397 371 lineto
398 268 lineto
398 184 lineto
398 161 lineto
398 168 lineto
398 206 lineto
398 268 lineto
398 369 lineto
398 429 lineto
398 432 lineto
398 367 lineto
398 263 lineto
398 190 lineto
399 159 lineto
399 163 lineto
399 239 lineto
399 355 lineto
399 424 lineto
399 432 lineto
399 363 lineto
399 261 lineto
399 172 lineto
399 159 lineto
399 165 lineto
400 183 lineto
400 209 lineto
400 244 lineto
400 279 lineto
400 317 lineto
400 368 lineto
400 408 lineto
400 437 lineto
400 408 lineto
400 328 lineto
400 233 lineto
400 174 lineto
400 162 lineto
400 160 lineto
400 184 lineto
400 241 lineto
400 312 lineto
400 373 lineto
401 418 lineto
401 438 lineto
401 409 lineto
401 331 lineto
401 238 lineto
401 176 lineto
401 160 lineto
401 195 lineto
401 257 lineto
401 347 lineto
401 417 lineto
401 435 lineto
402 388 lineto
402 287 lineto
402 206 lineto
402 160 lineto
402 231 lineto
402 366 lineto
402 427 lineto
402 412 lineto
402 328 lineto
403 238 lineto
403 170 lineto
403 158 lineto
403 164 lineto
403 180 lineto
403 202 lineto
403 232 lineto
403 271 lineto
403 312 lineto
403 367 lineto
403 409 lineto
403 434 lineto
403 401 lineto
403 322 lineto
403 223 lineto
403 169 lineto
404 161 lineto
404 167 lineto
404 190 lineto
404 227 lineto
404 290 lineto
404 352 lineto
404 403 lineto
404 432 lineto
404 415 lineto
404 345 lineto
404 247 lineto
404 179 lineto
404 163 lineto
404 200 lineto
404 267 lineto
405 357 lineto
405 425 lineto
405 431 lineto
405 366 lineto
405 261 lineto
405 190 lineto
405 158 lineto
405 162 lineto
405 240 lineto
405 353 lineto
405 420 lineto
406 428 lineto
406 360 lineto
406 261 lineto
406 176 lineto
406 160 lineto
406 164 lineto
406 181 lineto
406 207 lineto
406 243 lineto
406 279 lineto
406 319 lineto
406 370 lineto
406 410 lineto
406 436 lineto
406 405 lineto
407 325 lineto
407 225 lineto
407 171 lineto
407 162 lineto
407 165 lineto
407 187 lineto
407 224 lineto
407 289 lineto
407 361 lineto
407 412 lineto
407 435 lineto
407 406 lineto
407 329 lineto
407 232 lineto
408 175 lineto
408 164 lineto
408 166 lineto
408 195 lineto
408 252 lineto
408 342 lineto
408 412 lineto
408 438 lineto
408 412 lineto
408 329 lineto
408 239 lineto
408 171 lineto
408 161 lineto
408 164 lineto
409 177 lineto
409 195 lineto
409 223 lineto
409 256 lineto
409 299 lineto
409 351 lineto
409 400 lineto
409 432 lineto
409 428 lineto
409 365 lineto
409 266 lineto
409 192 lineto
409 159 lineto
409 162 lineto
409 215 lineto
409 327 lineto
410 405 lineto
410 431 lineto
410 384 lineto
410 293 lineto
410 196 lineto
410 163 lineto
410 161 lineto
410 169 lineto
410 190 lineto
410 221 lineto
410 258 lineto
410 318 lineto
410 372 lineto
410 419 lineto
410 431 lineto
411 395 lineto
411 316 lineto
411 221 lineto
411 170 lineto
411 164 lineto
411 172 lineto
411 191 lineto
411 219 lineto
411 266 lineto
411 327 lineto
411 378 lineto
411 424 lineto
411 432 lineto
411 384 lineto
411 299 lineto
412 212 lineto
412 168 lineto
412 233 lineto
412 339 lineto
412 412 lineto
412 433 lineto
412 388 lineto
412 296 lineto
412 192 lineto
413 164 lineto
413 165 lineto
413 181 lineto
413 212 lineto
413 251 lineto
413 287 lineto
413 323 lineto
413 371 lineto
413 410 lineto
413 438 lineto
413 408 lineto
413 328 lineto
413 229 lineto
413 176 lineto
413 166 lineto
413 163 lineto
413 184 lineto
413 227 lineto
414 307 lineto
414 387 lineto
414 429 lineto
414 368 lineto
414 274 lineto
414 190 lineto
414 163 lineto
414 165 lineto
414 184 lineto
414 219 lineto
414 273 lineto
414 330 lineto
414 376 lineto
414 423 lineto
415 434 lineto
415 389 lineto
415 305 lineto
415 219 lineto
415 168 lineto
415 164 lineto
415 167 lineto
415 187 lineto
415 216 lineto
415 261 lineto
415 302 lineto
415 337 lineto
415 386 lineto
415 422 lineto
415 438 lineto
415 387 lineto
416 283 lineto
416 188 lineto
416 160 lineto
416 163 lineto
416 191 lineto
416 233 lineto
416 284 lineto
416 356 lineto
416 408 lineto
416 435 lineto
416 419 lineto
416 347 lineto
416 230 lineto
417 174 lineto
417 164 lineto
417 162 lineto
417 190 lineto
417 241 lineto
417 318 lineto
417 397 lineto
417 432 lineto
417 423 lineto
417 356 lineto
417 256 lineto
417 179 lineto
417 160 lineto
417 166 lineto
417 186 lineto
418 217 lineto
418 266 lineto
418 319 lineto
418 363 lineto
418 411 lineto
418 434 lineto
418 413 lineto
418 340 lineto
418 250 lineto
418 179 lineto
418 161 lineto
418 167 lineto
418 195 lineto
418 240 lineto
418 298 lineto
418 366 lineto
419 413 lineto
419 437 lineto
419 414 lineto
419 339 lineto
419 233 lineto
419 177 lineto
419 165 lineto
419 162 lineto
419 192 lineto
419 254 lineto
419 342 lineto
419 413 lineto
419 432 lineto
420 394 lineto
420 301 lineto
420 212 lineto
420 165 lineto
420 169 lineto
420 256 lineto
420 383 lineto
420 434 lineto
420 412 lineto
420 329 lineto
421 243 lineto
421 174 lineto
421 163 lineto
421 168 lineto
421 187 lineto
421 213 lineto
421 249 lineto
421 285 lineto
421 323 lineto
421 371 lineto
421 410 lineto
421 438 lineto
421 408 lineto
421 327 lineto
421 230 lineto
421 175 lineto
421 165 lineto
422 165 lineto
422 185 lineto
422 222 lineto
422 288 lineto
422 372 lineto
422 422 lineto
422 434 lineto
422 384 lineto
422 297 lineto
422 198 lineto
422 166 lineto
422 165 lineto
422 174 lineto
422 201 lineto
422 230 lineto
422 263 lineto
423 321 lineto
423 374 lineto
423 419 lineto
423 434 lineto
423 400 lineto
423 322 lineto
423 225 lineto
423 172 lineto
423 165 lineto
423 189 lineto
423 231 lineto
423 284 lineto
423 345 lineto
423 397 lineto
423 429 lineto
424 422 lineto
424 359 lineto
424 270 lineto
424 198 lineto
424 167 lineto
424 209 lineto
424 285 lineto
424 374 lineto
424 429 lineto
424 422 lineto
424 351 lineto
425 245 lineto
425 185 lineto
425 167 lineto
425 165 lineto
425 203 lineto
425 288 lineto
425 385 lineto
425 429 lineto
425 401 lineto
425 321 lineto
425 227 lineto
426 175 lineto
426 166 lineto
426 176 lineto
426 202 lineto
426 253 lineto
426 338 lineto
426 401 lineto
426 435 lineto
426 428 lineto
426 363 lineto
426 275 lineto
426 190 lineto
426 165 lineto
426 179 lineto
427 212 lineto
427 250 lineto
427 290 lineto
427 330 lineto
427 377 lineto
427 414 lineto
427 435 lineto
427 395 lineto
427 310 lineto
427 215 lineto
427 172 lineto
427 166 lineto
427 172 lineto
427 185 lineto
427 204 lineto
427 234 lineto
427 273 lineto
427 319 lineto
427 377 lineto
428 417 lineto
428 434 lineto
428 395 lineto
428 314 lineto
428 222 lineto
428 173 lineto
428 167 lineto
428 175 lineto
428 192 lineto
428 218 lineto
428 258 lineto
428 307 lineto
428 350 lineto
428 395 lineto
428 426 lineto
428 427 lineto
429 372 lineto
429 282 lineto
429 203 lineto
429 171 lineto
429 168 lineto
429 171 lineto
429 186 lineto
429 210 lineto
429 253 lineto
429 293 lineto
429 331 lineto
429 379 lineto
429 416 lineto
429 438 lineto
429 400 lineto
429 316 lineto
429 223 lineto
430 174 lineto
430 167 lineto
430 170 lineto
430 187 lineto
430 214 lineto
430 261 lineto
430 311 lineto
430 354 lineto
430 399 lineto
430 428 lineto
430 425 lineto
430 365 lineto
430 272 lineto
430 195 lineto
430 167 lineto
431 192 lineto
431 240 lineto
431 300 lineto
431 390 lineto
431 430 lineto
431 432 lineto
431 373 lineto
431 281 lineto
431 197 lineto
431 167 lineto
431 176 lineto
431 190 lineto
431 209 lineto
431 233 lineto
431 268 lineto
431 313 lineto
432 365 lineto
432 414 lineto
432 437 lineto
432 417 lineto
432 346 lineto
432 248 lineto
432 180 lineto
432 165 lineto
432 170 lineto
432 207 lineto
432 267 lineto
432 366 lineto
432 427 lineto
432 432 lineto
433 371 lineto
433 267 lineto
433 197 lineto
433 161 lineto
433 169 lineto
433 257 lineto
433 395 lineto
433 437 lineto
433 401 lineto
433 312 lineto
434 225 lineto
434 165 lineto
434 224 lineto
434 282 lineto
434 341 lineto
434 405 lineto
434 434 lineto
434 395 lineto
434 306 lineto
434 219 lineto
434 168 lineto
435 168 lineto
435 252 lineto
435 381 lineto
435 433 lineto
435 415 lineto
435 333 lineto
435 240 lineto
435 173 lineto
435 166 lineto
435 176 lineto
435 192 lineto
435 205 lineto
436 221 lineto
436 257 lineto
436 304 lineto
436 348 lineto
436 395 lineto
436 428 lineto
436 433 lineto
436 377 lineto
436 272 lineto
436 190 lineto
436 162 lineto
436 166 lineto
436 207 lineto
436 276 lineto
436 359 lineto
437 425 lineto
437 427 lineto
437 359 lineto
437 258 lineto
437 190 lineto
437 163 lineto
437 166 lineto
437 207 lineto
437 294 lineto
437 379 lineto
437 432 lineto
437 410 lineto
438 330 lineto
438 218 lineto
438 175 lineto
438 165 lineto
438 163 lineto
438 180 lineto
438 220 lineto
438 287 lineto
438 354 lineto
438 409 lineto
438 431 lineto
438 404 lineto
438 330 lineto
438 233 lineto
439 176 lineto
439 165 lineto
439 174 lineto
439 203 lineto
439 249 lineto
439 324 lineto
439 384 lineto
439 424 lineto
439 432 lineto
439 385 lineto
439 299 lineto
439 199 lineto
439 167 lineto
440 169 lineto
440 192 lineto
440 234 lineto
440 288 lineto
440 361 lineto
440 411 lineto
440 434 lineto
440 409 lineto
440 337 lineto
440 238 lineto
440 180 lineto
440 169 lineto
440 171 lineto
440 199 lineto
440 248 lineto
440 328 lineto
441 398 lineto
441 432 lineto
441 426 lineto
441 363 lineto
441 266 lineto
441 188 lineto
441 166 lineto
441 169 lineto
441 191 lineto
441 228 lineto
441 281 lineto
441 343 lineto
441 391 lineto
441 429 lineto
442 430 lineto
442 373 lineto
442 275 lineto
442 202 lineto
442 166 lineto
442 168 lineto
442 242 lineto
442 365 lineto
442 429 lineto
442 425 lineto
442 351 lineto
443 246 lineto
443 173 lineto
443 165 lineto
443 172 lineto
443 187 lineto
443 207 lineto
443 232 lineto
443 265 lineto
443 306 lineto
443 361 lineto
443 410 lineto
443 437 lineto
443 421 lineto
443 350 lineto
443 247 lineto
443 184 lineto
444 161 lineto
444 173 lineto
444 233 lineto
444 315 lineto
444 391 lineto
444 434 lineto
444 424 lineto
444 354 lineto
444 252 lineto
444 187 lineto
444 164 lineto
444 165 lineto
445 221 lineto
445 321 lineto
445 397 lineto
445 430 lineto
445 389 lineto
445 305 lineto
445 209 lineto
445 170 lineto
445 166 lineto
445 172 lineto
445 184 lineto
445 200 lineto
445 218 lineto
445 264 lineto
445 314 lineto
445 371 lineto
446 415 lineto
446 432 lineto
446 401 lineto
446 326 lineto
446 237 lineto
446 179 lineto
446 168 lineto
446 179 lineto
446 212 lineto
446 258 lineto
446 325 lineto
446 380 lineto
446 421 lineto
446 434 lineto
446 394 lineto
447 314 lineto
447 223 lineto
447 176 lineto
447 169 lineto
447 174 lineto
447 190 lineto
447 215 lineto
447 256 lineto
447 303 lineto
447 344 lineto
447 389 lineto
447 422 lineto
447 428 lineto
447 373 lineto
447 283 lineto
448 204 lineto
448 172 lineto
448 170 lineto
448 184 lineto
448 220 lineto
448 269 lineto
448 321 lineto
448 367 lineto
448 411 lineto
448 434 lineto
448 416 lineto
448 348 lineto
448 266 lineto
448 197 lineto
448 170 lineto
449 192 lineto
449 239 lineto
449 304 lineto
449 381 lineto
449 425 lineto
449 436 lineto
449 389 lineto
449 305 lineto
449 214 lineto
449 172 lineto
449 169 lineto
449 183 lineto
449 201 lineto
449 224 lineto
449 255 lineto
449 306 lineto
449 351 lineto
450 396 lineto
450 427 lineto
450 428 lineto
450 372 lineto
450 270 lineto
450 194 lineto
450 166 lineto
450 178 lineto
450 237 lineto
450 319 lineto
450 394 lineto
450 435 lineto
450 423 lineto
451 352 lineto
451 252 lineto
451 192 lineto
451 167 lineto
451 168 lineto
451 197 lineto
451 251 lineto
451 311 lineto
451 374 lineto
451 418 lineto
451 439 lineto
451 412 lineto
451 337 lineto
452 234 lineto
452 178 lineto
452 165 lineto
452 168 lineto
452 201 lineto
452 257 lineto
452 351 lineto
452 418 lineto
452 438 lineto
452 402 lineto
452 311 lineto
452 222 lineto
452 165 lineto
453 165 lineto
453 234 lineto
453 348 lineto
453 422 lineto
453 423 lineto
453 350 lineto
453 255 lineto
453 178 lineto
453 165 lineto
453 166 lineto
453 182 lineto
453 213 lineto
454 272 lineto
454 325 lineto
454 370 lineto
454 418 lineto
454 436 lineto
454 404 lineto
stroke
newpath
454 404 moveto
454 326 lineto
454 234 lineto
454 174 lineto
454 165 lineto
454 180 lineto
454 200 lineto
454 226 lineto
454 261 lineto
454 312 lineto
454 356 lineto
454 402 lineto
455 430 lineto
455 422 lineto
455 359 lineto
455 272 lineto
455 198 lineto
455 170 lineto
455 168 lineto
455 170 lineto
455 184 lineto
455 206 lineto
455 248 lineto
455 286 lineto
455 326 lineto
455 376 lineto
455 414 lineto
455 436 lineto
455 400 lineto
456 319 lineto
456 224 lineto
456 176 lineto
456 168 lineto
456 172 lineto
456 191 lineto
456 220 lineto
456 267 lineto
456 318 lineto
456 362 lineto
456 407 lineto
456 432 lineto
456 418 lineto
456 352 lineto
456 261 lineto
457 186 lineto
457 167 lineto
457 173 lineto
457 198 lineto
457 239 lineto
457 295 lineto
457 361 lineto
457 409 lineto
457 435 lineto
457 415 lineto
457 345 lineto
457 242 lineto
457 184 lineto
457 170 lineto
457 168 lineto
458 192 lineto
458 248 lineto
458 337 lineto
458 409 lineto
458 437 lineto
458 420 lineto
458 348 lineto
458 260 lineto
458 184 lineto
458 166 lineto
458 168 lineto
458 188 lineto
458 221 lineto
458 274 lineto
458 325 lineto
458 368 lineto
459 419 lineto
459 436 lineto
459 407 lineto
459 332 lineto
459 245 lineto
459 180 lineto
459 168 lineto
459 171 lineto
459 183 lineto
459 199 lineto
459 223 lineto
459 259 lineto
459 302 lineto
459 352 lineto
459 399 lineto
459 430 lineto
459 429 lineto
460 370 lineto
460 274 lineto
460 192 lineto
460 164 lineto
460 173 lineto
460 239 lineto
460 331 lineto
460 407 lineto
460 439 lineto
460 410 lineto
460 326 lineto
461 214 lineto
461 175 lineto
461 167 lineto
461 166 lineto
461 188 lineto
461 229 lineto
461 297 lineto
461 379 lineto
461 424 lineto
461 430 lineto
461 377 lineto
461 289 lineto
461 199 lineto
461 169 lineto
462 169 lineto
462 185 lineto
462 217 lineto
462 271 lineto
462 327 lineto
462 373 lineto
462 418 lineto
462 434 lineto
462 404 lineto
462 329 lineto
462 248 lineto
462 183 lineto
462 170 lineto
462 169 lineto
462 176 lineto
462 187 lineto
462 201 lineto
462 219 lineto
462 251 lineto
462 290 lineto
463 332 lineto
463 379 lineto
463 417 lineto
463 439 lineto
463 400 lineto
463 315 lineto
463 225 lineto
463 173 lineto
463 168 lineto
463 196 lineto
463 219 lineto
463 246 lineto
463 279 lineto
463 315 lineto
463 364 lineto
463 405 lineto
463 434 lineto
464 411 lineto
464 338 lineto
464 241 lineto
464 180 lineto
464 168 lineto
464 179 lineto
464 213 lineto
464 265 lineto
464 349 lineto
464 410 lineto
464 438 lineto
464 414 lineto
465 330 lineto
465 244 lineto
465 178 lineto
465 167 lineto
465 175 lineto
465 192 lineto
465 217 lineto
465 249 lineto
465 286 lineto
465 325 lineto
465 372 lineto
465 411 lineto
465 435 lineto
465 404 lineto
465 325 lineto
465 233 lineto
466 179 lineto
466 169 lineto
466 174 lineto
466 199 lineto
466 239 lineto
466 310 lineto
466 375 lineto
466 419 lineto
466 434 lineto
466 393 lineto
466 314 lineto
466 224 lineto
466 178 lineto
466 170 lineto
466 174 lineto
466 193 lineto
467 222 lineto
467 270 lineto
467 326 lineto
467 372 lineto
467 416 lineto
467 434 lineto
467 407 lineto
467 334 lineto
467 242 lineto
467 180 lineto
467 169 lineto
467 232 lineto
467 333 lineto
468 411 lineto
468 432 lineto
468 378 lineto
468 289 lineto
468 203 lineto
468 171 lineto
468 198 lineto
468 249 lineto
468 306 lineto
468 386 lineto
468 426 lineto
468 435 lineto
469 386 lineto
469 301 lineto
469 207 lineto
469 173 lineto
469 171 lineto
469 183 lineto
469 209 lineto
469 262 lineto
469 316 lineto
469 363 lineto
469 406 lineto
469 432 lineto
469 420 lineto
469 356 lineto
469 267 lineto
470 195 lineto
470 172 lineto
470 179 lineto
470 186 lineto
470 195 lineto
470 207 lineto
470 235 lineto
470 276 lineto
470 325 lineto
470 378 lineto
470 421 lineto
470 436 lineto
470 396 lineto
470 318 lineto
470 227 lineto
470 177 lineto
470 171 lineto
471 194 lineto
471 222 lineto
471 257 lineto
471 298 lineto
471 337 lineto
471 383 lineto
471 419 lineto
471 439 lineto
471 397 lineto
471 306 lineto
471 214 lineto
471 170 lineto
471 171 lineto
471 228 lineto
471 320 lineto
472 399 lineto
472 435 lineto
472 405 lineto
472 325 lineto
472 216 lineto
472 176 lineto
472 170 lineto
472 174 lineto
472 196 lineto
472 231 lineto
472 281 lineto
472 345 lineto
472 398 lineto
472 429 lineto
473 419 lineto
473 356 lineto
473 263 lineto
473 195 lineto
473 168 lineto
473 184 lineto
473 259 lineto
473 360 lineto
473 424 lineto
473 432 lineto
473 384 lineto
474 292 lineto
474 200 lineto
474 173 lineto
474 172 lineto
474 192 lineto
474 229 lineto
474 281 lineto
474 335 lineto
474 379 lineto
474 425 lineto
474 440 lineto
474 398 lineto
474 316 lineto
474 228 lineto
474 174 lineto
475 170 lineto
475 171 lineto
475 194 lineto
475 231 lineto
475 292 lineto
475 363 lineto
475 418 lineto
475 442 lineto
475 418 lineto
475 342 lineto
475 236 lineto
475 183 lineto
475 170 lineto
475 167 lineto
475 183 lineto
475 195 lineto
475 213 lineto
476 236 lineto
476 274 lineto
476 318 lineto
476 374 lineto
476 413 lineto
476 431 lineto
476 394 lineto
476 316 lineto
476 225 lineto
476 176 lineto
476 170 lineto
476 212 lineto
476 295 lineto
476 373 lineto
477 427 lineto
477 423 lineto
477 356 lineto
477 256 lineto
477 187 lineto
477 171 lineto
477 172 lineto
477 211 lineto
477 280 lineto
477 368 lineto
477 428 lineto
477 429 lineto
478 363 lineto
478 261 lineto
478 194 lineto
478 166 lineto
478 175 lineto
478 269 lineto
478 381 lineto
478 433 lineto
478 414 lineto
478 334 lineto
478 250 lineto
479 180 lineto
479 168 lineto
479 172 lineto
479 184 lineto
479 204 lineto
479 230 lineto
479 265 lineto
479 312 lineto
479 366 lineto
479 411 lineto
479 434 lineto
479 415 lineto
479 346 lineto
479 251 lineto
479 186 lineto
479 171 lineto
480 171 lineto
480 204 lineto
480 265 lineto
480 354 lineto
480 421 lineto
480 437 lineto
480 394 lineto
480 301 lineto
480 221 lineto
480 170 lineto
480 169 lineto
480 170 lineto
480 184 lineto
480 204 lineto
480 232 lineto
480 262 lineto
480 304 lineto
481 356 lineto
481 404 lineto
481 434 lineto
481 428 lineto
481 365 lineto
481 266 lineto
481 197 lineto
481 166 lineto
481 170 lineto
481 238 lineto
481 340 lineto
481 412 lineto
482 434 lineto
482 389 lineto
482 298 lineto
482 193 lineto
482 169 lineto
482 170 lineto
482 183 lineto
482 205 lineto
482 235 lineto
482 274 lineto
482 317 lineto
482 379 lineto
482 418 lineto
482 434 lineto
482 393 lineto
483 312 lineto
483 218 lineto
483 175 lineto
483 171 lineto
483 181 lineto
483 194 lineto
483 212 lineto
483 235 lineto
483 273 lineto
483 321 lineto
483 375 lineto
483 418 lineto
483 434 lineto
483 397 lineto
483 321 lineto
483 233 lineto
484 181 lineto
484 173 lineto
484 181 lineto
484 201 lineto
484 231 lineto
484 283 lineto
484 335 lineto
484 387 lineto
484 426 lineto
484 433 lineto
484 383 lineto
484 295 lineto
484 216 lineto
484 175 lineto
484 173 lineto
485 232 lineto
485 334 lineto
485 410 lineto
485 435 lineto
485 390 lineto
485 302 lineto
485 207 lineto
485 173 lineto
485 172 lineto
485 179 lineto
485 200 lineto
485 220 lineto
485 245 lineto
485 289 lineto
485 330 lineto
485 379 lineto
486 417 lineto
486 435 lineto
486 397 lineto
486 316 lineto
486 229 lineto
486 178 lineto
486 172 lineto
486 189 lineto
486 216 lineto
486 252 lineto
486 297 lineto
486 339 lineto
486 386 lineto
486 422 lineto
486 437 lineto
487 392 lineto
487 300 lineto
487 213 lineto
487 172 lineto
487 230 lineto
487 328 lineto
487 406 lineto
487 436 lineto
487 397 lineto
487 312 lineto
488 214 lineto
488 175 lineto
488 171 lineto
488 174 lineto
488 185 lineto
488 204 lineto
488 229 lineto
488 265 lineto
488 318 lineto
488 370 lineto
488 413 lineto
488 434 lineto
488 411 lineto
488 342 lineto
488 253 lineto
488 188 lineto
488 174 lineto
489 172 lineto
489 197 lineto
489 243 lineto
489 313 lineto
489 392 lineto
489 431 lineto
489 432 lineto
489 375 lineto
489 284 lineto
489 200 lineto
489 173 lineto
489 185 lineto
489 212 lineto
489 267 lineto
489 322 lineto
490 370 lineto
490 413 lineto
490 435 lineto
490 416 lineto
490 348 lineto
490 266 lineto
490 197 lineto
490 172 lineto
490 173 lineto
490 193 lineto
490 235 lineto
490 295 lineto
490 376 lineto
490 426 lineto
490 435 lineto
491 385 lineto
491 302 lineto
491 207 lineto
491 174 lineto
491 195 lineto
491 234 lineto
491 289 lineto
491 363 lineto
491 412 lineto
491 436 lineto
491 406 lineto
491 332 lineto
492 232 lineto
492 181 lineto
492 173 lineto
492 180 lineto
492 206 lineto
492 244 lineto
492 302 lineto
492 357 lineto
492 405 lineto
492 434 lineto
492 423 lineto
492 358 lineto
492 260 lineto
492 190 lineto
493 172 lineto
493 173 lineto
493 215 lineto
493 283 lineto
493 370 lineto
493 431 lineto
493 363 lineto
493 258 lineto
493 194 lineto
493 168 lineto
493 170 lineto
494 246 lineto
494 357 lineto
494 422 lineto
494 426 lineto
494 360 lineto
494 262 lineto
494 184 lineto
494 168 lineto
494 172 lineto
494 194 lineto
494 228 lineto
494 277 lineto
494 328 lineto
494 370 lineto
495 420 lineto
495 438 lineto
495 410 lineto
495 334 lineto
495 248 lineto
495 182 lineto
495 170 lineto
495 171 lineto
495 182 lineto
495 199 lineto
495 224 lineto
495 259 lineto
495 302 lineto
495 353 lineto
495 399 lineto
495 431 lineto
495 430 lineto
496 371 lineto
496 264 lineto
496 195 lineto
496 166 lineto
496 176 lineto
496 256 lineto
496 358 lineto
496 424 lineto
496 432 lineto
496 380 lineto
496 281 lineto
497 191 lineto
497 170 lineto
497 171 lineto
497 185 lineto
497 208 lineto
497 244 lineto
497 286 lineto
497 326 lineto
497 378 lineto
497 417 lineto
497 436 lineto
497 398 lineto
497 318 lineto
497 222 lineto
497 177 lineto
497 172 lineto
498 179 lineto
498 196 lineto
498 220 lineto
498 258 lineto
498 303 lineto
498 344 lineto
498 388 lineto
498 421 lineto
498 429 lineto
498 379 lineto
498 290 lineto
498 211 lineto
498 176 lineto
498 174 lineto
498 190 lineto
498 231 lineto
498 285 lineto
498 343 lineto
499 393 lineto
499 430 lineto
499 375 lineto
499 283 lineto
499 208 lineto
499 174 lineto
499 177 lineto
499 227 lineto
499 312 lineto
499 394 lineto
499 436 lineto
500 416 lineto
500 341 lineto
500 235 lineto
500 184 lineto
500 175 lineto
500 172 lineto
500 194 lineto
500 238 lineto
500 320 lineto
500 399 lineto
500 434 lineto
500 424 lineto
500 359 lineto
501 271 lineto
501 191 lineto
501 170 lineto
501 174 lineto
501 195 lineto
501 233 lineto
501 285 lineto
501 344 lineto
501 390 lineto
501 429 lineto
501 434 lineto
501 381 lineto
501 288 lineto
501 213 lineto
501 173 lineto
502 172 lineto
502 238 lineto
502 373 lineto
502 431 lineto
502 415 lineto
502 332 lineto
502 246 lineto
502 179 lineto
502 170 lineto
502 176 lineto
502 189 lineto
502 207 lineto
502 230 lineto
503 265 lineto
503 307 lineto
503 358 lineto
503 405 lineto
503 434 lineto
503 427 lineto
503 363 lineto
503 265 lineto
503 195 lineto
503 168 lineto
503 170 lineto
503 193 lineto
503 221 lineto
503 256 lineto
503 290 lineto
503 325 lineto
503 370 lineto
503 407 lineto
504 434 lineto
504 406 lineto
504 330 lineto
504 236 lineto
504 181 lineto
504 171 lineto
504 180 lineto
504 206 lineto
504 245 lineto
504 306 lineto
504 362 lineto
504 408 lineto
504 434 lineto
504 417 lineto
505 350 lineto
505 255 lineto
505 192 lineto
505 171 lineto
505 172 lineto
505 205 lineto
505 274 lineto
505 359 lineto
505 425 lineto
505 432 lineto
505 374 lineto
505 273 lineto
506 200 lineto
506 167 lineto
506 171 lineto
506 242 lineto
506 358 lineto
506 424 lineto
506 427 lineto
506 356 lineto
506 256 lineto
506 180 lineto
506 169 lineto
507 186 lineto
507 201 lineto
507 219 lineto
507 243 lineto
507 280 lineto
507 320 lineto
507 371 lineto
507 412 lineto
507 436 lineto
507 405 lineto
507 329 lineto
507 238 lineto
507 182 lineto
507 171 lineto
507 182 lineto
507 215 lineto
507 262 lineto
507 330 lineto
508 386 lineto
508 425 lineto
508 434 lineto
508 390 lineto
508 307 lineto
508 210 lineto
508 175 lineto
508 173 lineto
508 192 lineto
508 233 lineto
508 290 lineto
508 364 lineto
508 413 lineto
508 436 lineto
509 410 lineto
509 337 lineto
509 237 lineto
509 182 lineto
509 173 lineto
509 179 lineto
509 206 lineto
509 247 lineto
509 313 lineto
509 373 lineto
509 417 lineto
509 437 lineto
509 409 lineto
509 336 lineto
510 238 lineto
510 183 lineto
510 173 lineto
510 176 lineto
510 201 lineto
510 241 lineto
510 313 lineto
510 381 lineto
510 424 lineto
510 436 lineto
510 391 lineto
510 309 lineto
510 216 lineto
510 177 lineto
511 173 lineto
511 182 lineto
511 195 lineto
511 215 lineto
511 240 lineto
511 279 lineto
511 324 lineto
511 381 lineto
511 420 lineto
511 435 lineto
511 396 lineto
511 317 lineto
511 230 lineto
511 180 lineto
511 174 lineto
511 183 lineto
511 198 lineto
511 220 lineto
511 254 lineto
512 296 lineto
512 336 lineto
512 382 lineto
512 418 lineto
512 436 lineto
512 397 lineto
512 314 lineto
512 225 lineto
512 178 lineto
512 174 lineto
512 203 lineto
512 263 lineto
512 331 lineto
512 410 lineto
513 436 lineto
513 417 lineto
513 345 lineto
513 260 lineto
513 189 lineto
513 173 lineto
513 179 lineto
513 205 lineto
513 244 lineto
513 300 lineto
513 362 lineto
513 410 lineto
513 437 lineto
513 421 lineto
513 353 lineto
514 260 lineto
514 192 lineto
514 173 lineto
514 209 lineto
514 283 lineto
514 370 lineto
514 429 lineto
514 430 lineto
514 362 lineto
514 254 lineto
515 193 lineto
515 169 lineto
515 170 lineto
515 191 lineto
515 227 lineto
515 273 lineto
515 317 lineto
515 357 lineto
515 404 lineto
515 432 lineto
515 425 lineto
515 362 lineto
515 268 lineto
515 189 lineto
515 168 lineto
515 172 lineto
516 204 lineto
516 257 lineto
516 318 lineto
516 393 lineto
516 432 lineto
516 436 lineto
516 381 lineto
516 289 lineto
516 191 lineto
516 169 lineto
516 170 lineto
516 183 lineto
516 211 lineto
516 250 lineto
516 288 lineto
516 327 lineto
516 375 lineto
517 413 lineto
517 438 lineto
517 405 lineto
517 326 lineto
517 234 lineto
517 184 lineto
517 170 lineto
517 171 lineto
517 194 lineto
517 234 lineto
517 296 lineto
517 378 lineto
517 425 lineto
517 436 lineto
518 388 lineto
518 303 lineto
518 212 lineto
518 174 lineto
518 171 lineto
518 181 lineto
518 195 lineto
518 215 lineto
518 237 lineto
518 274 lineto
518 321 lineto
518 375 lineto
518 417 lineto
518 434 lineto
518 398 lineto
518 322 lineto
519 238 lineto
519 182 lineto
519 173 lineto
519 182 lineto
519 205 lineto
519 240 lineto
519 297 lineto
519 350 lineto
519 400 lineto
519 431 lineto
519 423 lineto
519 359 lineto
519 270 lineto
519 202 lineto
519 172 lineto
520 173 lineto
520 224 lineto
520 280 lineto
520 337 lineto
520 399 lineto
520 438 lineto
520 430 lineto
520 361 lineto
520 270 lineto
520 189 lineto
520 169 lineto
520 171 lineto
520 192 lineto
520 232 lineto
520 287 lineto
521 348 lineto
521 395 lineto
521 431 lineto
521 430 lineto
521 371 lineto
521 270 lineto
521 200 lineto
521 170 lineto
521 171 lineto
521 210 lineto
521 270 lineto
521 336 lineto
521 403 lineto
521 435 lineto
522 419 lineto
522 348 lineto
522 261 lineto
522 187 lineto
522 169 lineto
522 176 lineto
522 203 lineto
522 245 lineto
522 303 lineto
522 367 lineto
522 414 lineto
522 437 lineto
522 415 lineto
stroke
newpath
522 415 moveto
522 344 lineto
523 247 lineto
523 189 lineto
523 172 lineto
523 171 lineto
523 193 lineto
523 234 lineto
523 282 lineto
523 332 lineto
523 375 lineto
523 419 lineto
523 439 lineto
523 404 lineto
523 324 lineto
523 230 lineto
524 176 lineto
524 170 lineto
524 171 lineto
524 194 lineto
524 235 lineto
524 318 lineto
524 392 lineto
524 434 lineto
524 439 lineto
524 383 lineto
524 288 lineto
524 189 lineto
524 166 lineto
524 169 lineto
524 185 lineto
525 212 lineto
525 252 lineto
525 288 lineto
525 324 lineto
525 370 lineto
525 409 lineto
525 437 lineto
525 409 lineto
525 330 lineto
525 234 lineto
525 183 lineto
525 170 lineto
525 195 lineto
525 247 lineto
525 332 lineto
526 402 lineto
526 435 lineto
526 428 lineto
526 364 lineto
526 277 lineto
526 194 lineto
526 170 lineto
526 171 lineto
526 183 lineto
526 192 lineto
526 204 lineto
526 219 lineto
526 257 lineto
526 306 lineto
526 351 lineto
526 396 lineto
526 427 lineto
526 429 lineto
527 374 lineto
527 287 lineto
527 209 lineto
527 174 lineto
527 173 lineto
527 188 lineto
527 199 lineto
527 214 lineto
527 237 lineto
527 272 lineto
527 319 lineto
527 369 lineto
527 417 lineto
527 436 lineto
527 413 lineto
527 343 lineto
527 252 lineto
528 188 lineto
528 172 lineto
528 186 lineto
528 227 lineto
528 284 lineto
528 369 lineto
528 423 lineto
528 437 lineto
528 390 lineto
528 306 lineto
528 223 lineto
528 177 lineto
529 174 lineto
529 252 lineto
529 381 lineto
529 435 lineto
529 415 lineto
529 332 lineto
529 246 lineto
529 181 lineto
529 173 lineto
529 180 lineto
529 193 lineto
529 210 lineto
529 231 lineto
529 272 lineto
530 311 lineto
530 364 lineto
530 411 lineto
530 438 lineto
530 425 lineto
530 358 lineto
530 258 lineto
530 188 lineto
530 171 lineto
530 173 lineto
530 215 lineto
530 280 lineto
530 370 lineto
530 431 lineto
531 431 lineto
531 364 lineto
531 258 lineto
531 195 lineto
531 167 lineto
531 171 lineto
531 243 lineto
531 351 lineto
531 419 lineto
531 430 lineto
531 372 lineto
532 277 lineto
532 189 lineto
532 170 lineto
532 172 lineto
532 187 lineto
532 211 lineto
532 241 lineto
532 275 lineto
532 312 lineto
532 364 lineto
532 410 lineto
532 439 lineto
532 427 lineto
532 357 lineto
532 259 lineto
532 192 lineto
533 168 lineto
533 171 lineto
533 211 lineto
533 280 lineto
533 368 lineto
533 427 lineto
533 426 lineto
533 358 lineto
533 253 lineto
533 191 lineto
533 169 lineto
533 171 lineto
534 206 lineto
534 284 lineto
534 362 lineto
534 422 lineto
534 432 lineto
534 372 lineto
534 270 lineto
534 199 lineto
534 164 lineto
534 171 lineto
534 246 lineto
535 356 lineto
535 422 lineto
535 431 lineto
535 370 lineto
535 272 lineto
535 184 lineto
535 169 lineto
535 172 lineto
535 186 lineto
535 209 lineto
535 240 lineto
535 277 lineto
535 318 lineto
535 376 lineto
535 417 lineto
535 437 lineto
536 401 lineto
536 323 lineto
536 228 lineto
536 180 lineto
536 173 lineto
536 177 lineto
536 196 lineto
536 227 lineto
536 276 lineto
536 338 lineto
536 385 lineto
536 428 lineto
536 433 lineto
536 382 lineto
536 296 lineto
537 218 lineto
537 177 lineto
537 174 lineto
537 238 lineto
537 351 lineto
537 422 lineto
537 430 lineto
537 367 lineto
537 271 lineto
537 189 lineto
538 171 lineto
538 175 lineto
538 198 lineto
538 237 lineto
538 287 lineto
538 355 lineto
538 403 lineto
538 436 lineto
538 428 lineto
538 363 lineto
538 253 lineto
538 193 lineto
538 172 lineto
538 219 lineto
539 300 lineto
539 381 lineto
539 431 lineto
539 417 lineto
539 345 lineto
539 239 lineto
539 186 lineto
539 174 lineto
539 172 lineto
539 199 lineto
539 251 lineto
539 333 lineto
539 404 lineto
540 434 lineto
540 423 lineto
540 358 lineto
540 273 lineto
540 196 lineto
540 173 lineto
540 174 lineto
540 188 lineto
540 215 lineto
540 268 lineto
540 318 lineto
540 362 lineto
540 405 lineto
540 432 lineto
540 425 lineto
541 364 lineto
541 280 lineto
541 205 lineto
541 176 lineto
541 175 lineto
541 183 lineto
541 191 lineto
541 201 lineto
541 214 lineto
541 246 lineto
541 289 lineto
541 334 lineto
541 385 lineto
541 423 lineto
541 437 lineto
541 396 lineto
541 312 lineto
541 222 lineto
542 178 lineto
542 176 lineto
542 223 lineto
542 306 lineto
542 391 lineto
542 435 lineto
542 416 lineto
542 341 lineto
542 233 lineto
542 185 lineto
542 175 lineto
542 174 lineto
543 195 lineto
543 232 lineto
543 306 lineto
543 389 lineto
543 431 lineto
543 432 lineto
543 374 lineto
543 283 lineto
543 198 lineto
543 173 lineto
543 174 lineto
543 194 lineto
543 232 lineto
543 286 lineto
543 342 lineto
544 387 lineto
544 428 lineto
544 437 lineto
544 389 lineto
544 302 lineto
544 220 lineto
544 176 lineto
544 174 lineto
544 252 lineto
544 379 lineto
544 435 lineto
545 418 lineto
545 336 lineto
545 246 lineto
545 180 lineto
545 173 lineto
545 178 lineto
545 190 lineto
545 206 lineto
545 224 lineto
545 258 lineto
545 299 lineto
545 344 lineto
545 391 lineto
545 426 lineto
545 439 lineto
545 389 lineto
545 287 lineto
546 204 lineto
546 169 lineto
546 173 lineto
546 222 lineto
546 311 lineto
546 392 lineto
546 435 lineto
546 411 lineto
546 333 lineto
546 222 lineto
546 180 lineto
547 172 lineto
547 173 lineto
547 191 lineto
547 222 lineto
547 276 lineto
547 334 lineto
547 381 lineto
547 426 lineto
547 432 lineto
547 383 lineto
547 299 lineto
547 220 lineto
547 177 lineto
547 174 lineto
547 243 lineto
548 366 lineto
548 429 lineto
548 422 lineto
548 346 lineto
548 244 lineto
548 179 lineto
548 173 lineto
548 172 lineto
548 182 lineto
548 194 lineto
548 208 lineto
548 224 lineto
548 259 lineto
548 299 lineto
548 343 lineto
548 389 lineto
548 425 lineto
549 439 lineto
549 391 lineto
549 292 lineto
549 203 lineto
549 169 lineto
549 173 lineto
549 218 lineto
549 279 lineto
549 341 lineto
549 409 lineto
549 438 lineto
549 409 lineto
550 327 lineto
550 241 lineto
550 180 lineto
550 171 lineto
550 198 lineto
550 218 lineto
550 241 lineto
550 278 lineto
550 314 lineto
550 365 lineto
550 409 lineto
550 434 lineto
550 417 lineto
550 348 lineto
550 253 lineto
551 191 lineto
551 173 lineto
551 179 lineto
551 190 lineto
551 204 lineto
551 224 lineto
551 259 lineto
551 302 lineto
551 348 lineto
551 394 lineto
551 428 lineto
551 434 lineto
551 379 lineto
551 286 lineto
551 208 lineto
551 173 lineto
551 174 lineto
552 212 lineto
552 306 lineto
552 392 lineto
552 434 lineto
552 402 lineto
552 321 lineto
552 225 lineto
552 179 lineto
552 173 lineto
552 179 lineto
552 200 lineto
552 231 lineto
552 278 lineto
553 342 lineto
553 392 lineto
553 429 lineto
553 374 lineto
553 283 lineto
553 210 lineto
553 176 lineto
553 177 lineto
553 231 lineto
553 326 lineto
553 405 lineto
553 437 lineto
554 402 lineto
554 319 lineto
554 222 lineto
554 180 lineto
554 175 lineto
554 178 lineto
554 192 lineto
554 215 lineto
554 247 lineto
554 287 lineto
554 331 lineto
554 382 lineto
554 420 lineto
554 436 lineto
554 397 lineto
554 317 lineto
555 229 lineto
555 182 lineto
555 177 lineto
555 184 lineto
555 199 lineto
555 221 lineto
555 254 lineto
555 295 lineto
555 337 lineto
555 384 lineto
555 420 lineto
555 436 lineto
555 397 lineto
555 316 lineto
555 228 lineto
555 181 lineto
556 177 lineto
556 206 lineto
556 266 lineto
556 333 lineto
556 412 lineto
556 438 lineto
556 419 lineto
556 347 lineto
556 262 lineto
556 192 lineto
556 175 lineto
556 182 lineto
556 209 lineto
556 252 lineto
557 308 lineto
557 370 lineto
557 416 lineto
557 440 lineto
557 421 lineto
557 351 lineto
557 257 lineto
557 193 lineto
557 176 lineto
557 175 lineto
557 206 lineto
557 274 lineto
557 364 lineto
557 427 lineto
558 437 lineto
558 386 lineto
558 289 lineto
558 214 lineto
558 173 lineto
558 233 lineto
558 341 lineto
558 418 lineto
558 432 lineto
559 368 lineto
559 277 lineto
559 192 lineto
559 171 lineto
559 175 lineto
559 197 lineto
559 235 lineto
559 285 lineto
559 343 lineto
559 389 lineto
559 428 lineto
559 436 lineto
559 386 lineto
559 295 lineto
559 216 lineto
560 177 lineto
560 174 lineto
560 173 lineto
560 180 lineto
560 195 lineto
560 209 lineto
560 226 lineto
560 258 lineto
560 301 lineto
560 340 lineto
560 386 lineto
560 421 lineto
560 438 lineto
560 394 lineto
560 302 lineto
560 204 lineto
560 171 lineto
560 174 lineto
561 219 lineto
561 271 lineto
561 325 lineto
561 385 lineto
561 427 lineto
561 440 lineto
561 396 lineto
561 313 lineto
561 212 lineto
561 176 lineto
561 173 lineto
561 178 lineto
561 200 lineto
561 233 lineto
561 287 lineto
561 349 lineto
562 400 lineto
562 433 lineto
562 425 lineto
562 362 lineto
562 255 lineto
562 189 lineto
562 174 lineto
562 211 lineto
562 275 lineto
562 365 lineto
562 429 lineto
563 431 lineto
563 367 lineto
563 260 lineto
563 198 lineto
563 170 lineto
563 172 lineto
563 195 lineto
563 225 lineto
563 263 lineto
563 298 lineto
563 331 lineto
563 376 lineto
563 412 lineto
563 437 lineto
563 404 lineto
563 324 lineto
564 231 lineto
564 185 lineto
564 174 lineto
564 194 lineto
564 229 lineto
564 295 lineto
564 380 lineto
564 426 lineto
564 435 lineto
564 385 lineto
564 298 lineto
564 204 lineto
565 174 lineto
565 175 lineto
565 191 lineto
565 224 lineto
565 277 lineto
565 329 lineto
565 374 lineto
565 418 lineto
565 437 lineto
565 413 lineto
565 341 lineto
565 261 lineto
565 191 lineto
565 173 lineto
565 177 lineto
565 200 lineto
565 236 lineto
566 291 lineto
566 366 lineto
566 417 lineto
566 439 lineto
566 412 lineto
566 338 lineto
566 242 lineto
566 187 lineto
566 176 lineto
566 174 lineto
566 202 lineto
566 252 lineto
566 337 lineto
566 407 lineto
567 439 lineto
567 432 lineto
567 367 lineto
567 280 lineto
567 196 lineto
567 173 lineto
567 174 lineto
567 182 lineto
567 195 lineto
567 212 lineto
567 231 lineto
567 269 lineto
567 315 lineto
567 365 lineto
567 410 lineto
567 435 lineto
567 424 lineto
568 359 lineto
568 272 lineto
568 201 lineto
568 173 lineto
568 174 lineto
568 203 lineto
568 270 lineto
568 344 lineto
568 418 lineto
568 435 lineto
568 396 lineto
568 306 lineto
568 223 lineto
569 177 lineto
569 176 lineto
569 256 lineto
569 383 lineto
569 437 lineto
569 415 lineto
569 332 lineto
569 246 lineto
569 182 lineto
569 175 lineto
569 174 lineto
570 182 lineto
570 194 lineto
570 211 lineto
570 231 lineto
570 269 lineto
570 310 lineto
570 359 lineto
570 405 lineto
570 435 lineto
570 433 lineto
570 373 lineto
570 324 lineto
stroke
showpage
%%Trailer
cleartomark
countdictstack
exch sub { end } repeat
restore
%%EOF
