v 20130925 2
C 40000 40000 0 0 0 title-B.sym
C 43300 44300 1 90 0 ng-resistor-1.sym
{
T 42900 44600 5 10 0 0 90 0 1
device=RESISTOR
T 42900 44500 5 10 1 1 90 0 1
refdes=R1
T 43300 44795 5 10 1 1 90 0 1
value=r1_val
}
C 43300 42700 1 90 0 ng-resistor-1.sym
{
T 42900 43000 5 10 0 0 90 0 1
device=RESISTOR
T 42900 42900 5 10 1 1 90 0 1
refdes=R2
T 43300 43095 5 10 1 1 90 0 1
value=r2_val
}
C 44600 46600 1 90 0 ng-inductor-1.sym
{
T 44100 46800 5 10 0 0 90 0 1
device=INDUCTOR
T 44200 46700 5 10 1 1 90 0 1
refdes=Lrfc
T 43900 46800 5 10 0 0 90 0 1
symversion=0.1
T 44605 47095 5 10 1 1 90 0 1
value=lrfc_val
}
C 48700 42600 1 90 0 ng-inductor-1.sym
{
T 48200 42800 5 10 0 0 90 0 1
device=INDUCTOR
T 48300 42700 5 10 1 1 90 0 1
refdes=L1
T 48000 42800 5 10 0 0 90 0 1
symversion=0.1
T 48705 43095 5 10 1 1 90 0 1
value=l1_val
}
C 42900 41900 1 0 0 gnd-1.sym
C 44300 40700 1 0 0 gnd-1.sym
N 47300 43700 47300 42700 4
N 43000 42700 43000 42200 4
N 47300 41800 47300 41500 4
N 48500 41500 48500 42600 4
N 48500 43500 48500 44900 4
N 47300 44900 47300 44600 4
N 44400 44900 44800 44900 4
N 43000 43600 43000 44300 4
N 43800 44000 43000 44000 4
N 42000 43400 42000 44000 4
N 42000 44000 43000 44000 4
N 42000 41300 42000 42500 4
N 44400 47500 44400 47900 4
C 44200 47900 1 0 0 vcc-1.sym
C 41400 47300 1 0 0 spice-model-1.sym
{
T 41500 48000 5 10 0 1 0 0 1
device=model
T 41500 47900 5 10 1 1 0 0 1
refdes=A2
T 42700 47600 5 10 1 1 0 0 1
model-name=SS9018
T 41900 47400 5 10 1 1 0 0 1
file=QSS9018
}
C 43800 43500 1 0 0 npn-3.sym
{
T 44700 44000 5 10 0 0 0 0 1
device=NPN_TRANSISTOR
T 44700 44000 5 10 1 1 0 0 1
refdes=Q1
T 44700 43700 5 10 1 1 0 0 1
model-name=SS9018
}
C 41100 45000 1 0 0 vdc-ng.sym
{
T 41800 45650 5 10 1 1 0 0 1
refdes=Vsource
T 41800 45850 5 10 0 0 0 0 1
device=VOLTAGE_SOURCE
T 41800 46050 5 10 0 0 0 0 1
footprint=none
T 41800 45450 5 10 1 1 0 0 1
value=DC 12V
}
C 41300 44500 1 0 0 gnd-1.sym
C 41200 46400 1 0 0 vcc-1.sym
N 41400 46400 41400 46200 4
N 41400 44800 41400 45000 4
C 46000 47100 1 0 0 spice-directive-1.sym
{
T 46100 47400 5 10 0 1 0 0 1
device=directive
T 46100 47500 5 10 1 1 0 0 1
refdes=A4
T 46000 47200 5 10 1 1 0 0 1
value=.ic
}
C 48000 44900 1 90 0 output-ng.sym
{
T 47700 45000 5 10 0 0 90 0 1
device=OUTPUT
T 47700 45095 5 10 1 1 90 0 1
net=out:1
}
T 46000 46700 5 10 1 0 0 0 2
Condición inicial
para simulacion
C 41300 48200 1 0 0 spice-directive-1.sym
{
T 41400 48500 5 10 0 1 0 0 1
device=directive
T 41400 48600 5 10 1 1 0 0 1
refdes=A1
T 41400 48300 5 10 1 1 0 0 1
value=.title Oscilador
}
C 46000 47800 1 0 0 spice-directive-1.sym
{
T 46100 48100 5 10 0 1 0 0 1
device=directive
T 46100 48200 5 10 1 1 0 0 1
refdes=A3
T 46000 47900 5 10 1 1 0 0 1
file=oscilator.param
}
C 44700 45300 1 90 0 ng-resistor-1.sym
{
T 44300 45600 5 10 0 0 90 0 1
device=RESISTOR
T 44300 45500 5 10 1 1 90 0 1
refdes=Rc
T 44700 45795 5 10 1 1 90 0 1
value=rc_val
}
N 44400 45300 44400 44500 4
N 44400 46600 44400 46200 4
C 44700 41200 1 90 0 ng-resistor-1.sym
{
T 44300 41500 5 10 0 0 90 0 1
device=RESISTOR
T 44300 41400 5 10 1 1 90 0 1
refdes=Re
T 44700 41395 5 10 1 1 90 0 1
value=re_val
}
N 44400 41200 44400 41000 4
C 45100 42100 1 270 0 ng-capacitor-1.sym
{
T 45800 41900 5 10 0 0 270 0 1
device=CAPACITOR
T 45600 42000 5 10 1 1 270 0 1
refdes=Ce
T 46000 41900 5 10 0 0 270 0 1
symversion=0.1
T 45100 41505 5 10 1 1 270 0 1
value=ce_val
}
C 45300 40700 1 0 0 gnd-1.sym
C 46900 42700 1 0 0 gnd-1.sym
N 47000 43000 47000 43100 4
N 47000 43100 47300 43100 4
N 43000 45200 43000 46400 4
N 43000 46400 44400 46400 4
C 44700 42500 1 90 0 ng-resistor-1.sym
{
T 44300 42800 5 10 0 0 90 0 1
device=RESISTOR
T 44300 42700 5 10 1 1 90 0 1
refdes=Ree
T 44700 42695 5 10 1 1 90 0 1
value=ree_val
}
C 42100 41200 1 0 0 output-ng.sym
{
T 42200 41500 5 10 0 0 0 0 1
device=OUTPUT
T 42295 41500 5 10 1 1 0 0 1
net=retro:1
}
N 42000 41300 42100 41300 4
C 47800 41500 1 270 0 output-ng.sym
{
T 48100 41400 5 10 0 0 270 0 1
device=OUTPUT
T 48100 41305 5 10 1 1 270 0 1
net=retro:1
}
N 47300 41500 48500 41500 4
C 46000 45100 1 90 0 output-ng.sym
{
T 45700 45200 5 10 0 0 90 0 1
device=OUTPUT
T 45700 45295 5 10 1 1 90 0 1
net=out:1
}
N 45900 45100 45900 44900 4
N 45900 44900 45700 44900 4
N 47300 44900 48500 44900 4
N 44400 42500 44400 42100 4
N 44400 43500 44400 43400 4
N 44400 42300 45400 42300 4
N 45400 42300 45400 42100 4
N 45400 41000 45400 41200 4
C 47000 44600 1 270 0 ng-capacitor-with-R-1.sym
{
T 47700 44400 5 10 0 0 270 0 1
device=CAPACITOR
T 47500 44500 5 10 1 1 270 0 1
refdes=XC1a
T 47900 44400 5 10 0 0 270 0 1
symversion=0.1
T 46900 44400 5 10 1 0 0 0 1
value=C
T 46900 43800 5 10 1 1 0 0 1
model-name=val=c1a_val
}
C 47000 42700 1 270 0 ng-capacitor-with-R-1.sym
{
T 47700 42500 5 10 0 0 270 0 1
device=CAPACITOR
T 47500 42600 5 10 1 1 270 0 1
refdes=XC1b
T 47900 42500 5 10 0 0 270 0 1
symversion=0.1
T 46900 42500 5 10 1 1 0 0 1
value=C
T 46800 41900 5 10 1 1 0 0 1
model-name=val=c1b_val
}
C 41700 43400 1 270 0 ng-capacitor-with-R-1.sym
{
T 42400 43200 5 10 0 0 270 0 1
device=CAPACITOR
T 42200 43300 5 10 1 1 270 0 1
refdes=XCs
T 42600 43200 5 10 0 0 270 0 1
symversion=0.1
T 41600 43200 5 10 1 1 0 0 1
value=C
T 41500 42600 5 10 1 1 0 0 1
model-name=val=cs_val
}
C 44800 44600 1 0 0 ng-capacitor-with-R-1.sym
{
T 45000 45300 5 10 0 0 0 0 1
device=CAPACITOR
T 44900 45100 5 10 1 1 0 0 1
refdes=XC2
T 45000 45500 5 10 0 0 0 0 1
symversion=0.1
T 45000 44500 5 10 1 1 90 0 1
value=C
T 45600 44400 5 10 1 1 90 0 1
model-name=val=c2_val
}
C 46000 48600 1 0 0 spice-directive-1.sym
{
T 46100 48900 5 10 0 1 0 0 1
device=directive
T 46100 49000 5 10 1 1 0 0 1
refdes=A5
T 46000 48700 5 10 1 1 0 0 1
file=c.sub
}
