v 20130925 2
C 40000 40000 0 0 0 title-B.sym
C 46200 45600 1 90 0 ng-resistor-1.sym
{
T 45800 45900 5 10 0 0 90 0 1
device=RESISTOR
T 45800 45800 5 10 1 1 90 0 1
refdes=R1
T 46200 46095 5 10 1 1 90 0 1
value=r1_val
}
C 46200 44000 1 90 0 ng-resistor-1.sym
{
T 45800 44300 5 10 0 0 90 0 1
device=RESISTOR
T 45800 44200 5 10 1 1 90 0 1
refdes=R2
T 46200 44395 5 10 1 1 90 0 1
value=r2_val
}
C 47500 47900 1 90 0 ng-inductor-1.sym
{
T 47000 48100 5 10 0 0 90 0 1
device=INDUCTOR
T 47100 48000 5 10 1 1 90 0 1
refdes=Lrfc
T 46800 48100 5 10 0 0 90 0 1
symversion=0.1
T 47505 48395 5 10 1 1 90 0 1
value=lrfc_val
}
C 51600 43900 1 90 0 ng-inductor-1.sym
{
T 51100 44100 5 10 0 0 90 0 1
device=INDUCTOR
T 51200 44000 5 10 1 1 90 0 1
refdes=L1
T 50900 44100 5 10 0 0 90 0 1
symversion=0.1
T 51605 44395 5 10 1 1 90 0 1
value=l1_val
}
C 45800 43200 1 0 0 gnd-1.sym
C 47200 42000 1 0 0 gnd-1.sym
N 50200 45000 50200 44000 4
N 45900 44000 45900 43500 4
N 50200 43100 50200 42800 4
N 51400 42800 51400 43900 4
N 51400 44800 51400 46200 4
N 50200 46200 50200 45900 4
N 47300 46200 47700 46200 4
N 45900 44900 45900 45600 4
N 46700 45300 45900 45300 4
N 44600 44700 44600 45300 4
N 44600 45300 45900 45300 4
N 44600 42600 44600 43800 4
N 47300 48800 47300 49200 4
C 47100 49200 1 0 0 vcc-1.sym
C 44700 48100 1 0 0 spice-model-1.sym
{
T 44800 48800 5 10 0 1 0 0 1
device=model
T 44800 48700 5 10 1 1 0 0 1
refdes=A2
T 46000 48400 5 10 1 1 0 0 1
model-name=SS9018
T 45200 48200 5 10 1 1 0 0 1
file=QSS9018
}
C 46700 44800 1 0 0 npn-3.sym
{
T 47600 45300 5 10 0 0 0 0 1
device=NPN_TRANSISTOR
T 47600 45300 5 10 1 1 0 0 1
refdes=Q1
T 47600 45000 5 10 1 1 0 0 1
model-name=SS9018
}
C 44000 46300 1 0 0 vdc-ng.sym
{
T 44700 46950 5 10 1 1 0 0 1
refdes=Vsource
T 44700 47150 5 10 0 0 0 0 1
device=VOLTAGE_SOURCE
T 44700 47350 5 10 0 0 0 0 1
footprint=none
T 44700 46750 5 10 1 1 0 0 1
value=DC 12V
}
C 44200 45800 1 0 0 gnd-1.sym
C 44100 47700 1 0 0 vcc-1.sym
N 44300 47700 44300 47500 4
N 44300 46100 44300 46300 4
C 49300 47400 1 0 0 spice-directive-1.sym
{
T 49400 47700 5 10 0 1 0 0 1
device=directive
T 49400 47800 5 10 1 1 0 0 1
refdes=A4
T 49300 47500 5 10 1 1 0 0 1
value=.ic
}
C 50900 46200 1 90 0 output-ng.sym
{
T 50600 46300 5 10 0 0 90 0 1
device=OUTPUT
T 50600 46395 5 10 1 1 90 0 1
net=out:1
}
T 49300 47000 5 10 1 0 0 0 2
Condición inicial
para simulacion
C 44600 49000 1 0 0 spice-directive-1.sym
{
T 44700 49300 5 10 0 1 0 0 1
device=directive
T 44700 49400 5 10 1 1 0 0 1
refdes=A1
T 44700 49100 5 10 1 1 0 0 1
value=.title Oscilador
}
C 49300 48100 1 0 0 spice-directive-1.sym
{
T 49400 48400 5 10 0 1 0 0 1
device=directive
T 49400 48500 5 10 1 1 0 0 1
refdes=A3
T 49300 48200 5 10 1 1 0 0 1
file=oscilator.param
}
C 47600 46600 1 90 0 ng-resistor-1.sym
{
T 47200 46900 5 10 0 0 90 0 1
device=RESISTOR
T 47200 46800 5 10 1 1 90 0 1
refdes=Rc
T 47600 47095 5 10 1 1 90 0 1
value=rc_val
}
N 47300 46600 47300 45800 4
N 47300 47900 47300 47500 4
C 47600 42500 1 90 0 ng-resistor-1.sym
{
T 47200 42800 5 10 0 0 90 0 1
device=RESISTOR
T 47200 42700 5 10 1 1 90 0 1
refdes=Re
T 47600 42695 5 10 1 1 90 0 1
value=re_val
}
N 47300 42500 47300 42300 4
C 48000 43400 1 270 0 ng-capacitor-1.sym
{
T 48700 43200 5 10 0 0 270 0 1
device=CAPACITOR
T 48500 43300 5 10 1 1 270 0 1
refdes=Ce
T 48900 43200 5 10 0 0 270 0 1
symversion=0.1
T 48000 42805 5 10 1 1 270 0 1
value=ce_val
}
C 48200 42000 1 0 0 gnd-1.sym
C 49800 44000 1 0 0 gnd-1.sym
N 49900 44300 49900 44400 4
N 49900 44400 50200 44400 4
N 45900 46500 45900 47700 4
C 47600 43800 1 90 0 ng-resistor-1.sym
{
T 47200 44100 5 10 0 0 90 0 1
device=RESISTOR
T 47200 44000 5 10 1 1 90 0 1
refdes=Ree
T 47600 43995 5 10 1 1 90 0 1
value=ree_val
}
C 45000 42500 1 0 0 output-ng.sym
{
T 45100 42800 5 10 0 0 0 0 1
device=OUTPUT
T 45195 42800 5 10 1 1 0 0 1
net=retro:1
}
N 44600 42600 45000 42600 4
C 50700 42800 1 270 0 output-ng.sym
{
T 51000 42700 5 10 0 0 270 0 1
device=OUTPUT
T 51000 42605 5 10 1 1 270 0 1
net=retro:1
}
N 50200 42800 51400 42800 4
C 48900 46400 1 90 0 output-ng.sym
{
T 48600 46500 5 10 0 0 90 0 1
device=OUTPUT
T 48600 46595 5 10 1 1 90 0 1
net=out:1
}
N 48800 46400 48800 46200 4
N 48800 46200 48600 46200 4
N 50200 46200 51400 46200 4
N 47300 43800 47300 43400 4
N 47300 44800 47300 44700 4
N 47300 43600 48300 43600 4
N 48300 43600 48300 43400 4
N 48300 42300 48300 42500 4
C 49900 45900 1 270 0 ng-capacitor-with-R-1.sym
{
T 50600 45700 5 10 0 0 270 0 1
device=CAPACITOR
T 50600 45800 5 10 1 1 270 0 1
refdes=XC1a
T 50800 45700 5 10 0 0 270 0 1
symversion=0.1
T 49900 45700 5 10 1 1 0 0 1
value=C
T 49200 45100 5 10 1 1 0 0 1
model-name=val=c1a_val
}
C 49900 44000 1 270 0 ng-capacitor-with-R-1.sym
{
T 50600 43800 5 10 0 0 270 0 1
device=CAPACITOR
T 50400 43900 5 10 1 1 270 0 1
refdes=XC1b
T 50800 43800 5 10 0 0 270 0 1
symversion=0.1
T 49800 43800 5 10 1 1 0 0 1
value=C
T 49200 43300 5 10 1 1 0 0 1
model-name=val=c1b_val
}
C 44300 44700 1 270 0 ng-capacitor-with-R-1.sym
{
T 45000 44500 5 10 0 0 270 0 1
device=CAPACITOR
T 44700 44400 5 10 1 1 0 0 1
refdes=XCs
T 45200 44500 5 10 0 0 270 0 1
symversion=0.1
T 44300 44400 5 10 1 1 0 0 1
value=C
T 44700 44000 5 10 1 1 0 0 1
model-name=val=cs_val
}
C 47700 45900 1 0 0 ng-capacitor-with-R-1.sym
{
T 47900 46600 5 10 0 0 0 0 1
device=CAPACITOR
T 47800 46500 5 10 1 1 0 0 1
refdes=XC2
T 47900 46800 5 10 0 0 0 0 1
symversion=0.1
T 47900 45800 5 10 1 1 90 0 1
value=C
T 49100 46100 5 10 1 1 180 0 1
model-name=val=c2_val
}
C 49300 48900 1 0 0 spice-directive-1.sym
{
T 49400 49200 5 10 0 1 0 0 1
device=directive
T 49400 49300 5 10 1 1 0 0 1
refdes=A5
T 49300 49000 5 10 1 1 0 0 1
file=c.sub
}
C 45700 47700 1 0 0 vcc-1.sym
