v 20130925 2
C 40000 40000 0 0 0 title-B.sym
C 44100 46400 1 90 0 ng-resistor-1.sym
{
T 43700 46700 5 10 0 0 90 0 1
device=RESISTOR
T 43700 46600 5 10 1 1 90 0 1
refdes=R1
T 44100 46895 5 10 1 1 90 0 1
value=20k
}
C 44100 44800 1 90 0 ng-resistor-1.sym
{
T 43700 45100 5 10 0 0 90 0 1
device=RESISTOR
T 43700 45000 5 10 1 1 90 0 1
refdes=R2
T 44100 45295 5 10 1 1 90 0 1
value=10k
}
C 45400 48600 1 90 0 ng-inductor-1.sym
{
T 44900 48800 5 10 0 0 90 0 1
device=INDUCTOR
T 45000 48700 5 10 1 1 90 0 1
refdes=Lrfc
T 44700 48800 5 10 0 0 90 0 1
symversion=0.1
T 45405 49095 5 10 1 1 90 0 1
value=1m
}
C 45600 46700 1 0 0 ng-capacitor-1.sym
{
T 45800 47400 5 10 0 0 0 0 1
device=CAPACITOR
T 45700 47200 5 10 1 1 0 0 1
refdes=C2
T 45800 47600 5 10 0 0 0 0 1
symversion=0.1
T 46195 46700 5 10 1 1 0 0 1
value=100p
}
C 46900 46500 1 270 0 ng-capacitor-1.sym
{
T 47600 46300 5 10 0 0 270 0 1
device=CAPACITOR
T 47400 46400 5 10 1 1 270 0 1
refdes=C1a
T 47800 46300 5 10 0 0 270 0 1
symversion=0.1
T 46900 45905 5 10 1 1 270 0 1
value=10p
}
C 47500 43900 1 90 0 ng-capacitor-1.sym
{
T 46800 44100 5 10 0 0 90 0 1
device=CAPACITOR
T 47000 44000 5 10 1 1 90 0 1
refdes=C1b
T 46600 44100 5 10 0 0 90 0 1
symversion=0.1
T 47500 44495 5 10 1 1 90 0 1
value=10p
}
C 43700 44000 1 0 0 gnd-1.sym
C 45100 43800 1 0 0 gnd-1.sym
N 47200 45600 47200 44800 4
N 45200 45200 47200 45200 4
N 43800 44800 43800 44300 4
N 47200 43900 47200 43600 4
N 42800 43600 48400 43600 4
N 46500 47000 48600 47000 4
N 47200 47000 47200 46500 4
N 45200 47000 45600 47000 4
N 43800 45700 43800 46400 4
N 44600 46100 43800 46100 4
C 42500 45500 1 270 0 ng-capacitor-1.sym
{
T 43200 45300 5 10 0 0 270 0 1
device=CAPACITOR
T 43000 45400 5 10 1 1 270 0 1
refdes=Cs
T 43400 45300 5 10 0 0 270 0 1
symversion=0.1
T 42500 44905 5 10 1 1 270 0 1
value=1u
}
N 42800 45500 42800 46100 4
N 42800 46100 43800 46100 4
N 42800 44600 42800 43600 4
N 43800 47300 43800 49600 4
C 45000 49700 1 0 0 vcc-1.sym
C 46100 48900 1 0 0 spice-model-1.sym
{
T 46200 49600 5 10 0 1 0 0 1
device=model
T 46200 49500 5 10 1 1 0 0 1
refdes=A1
T 47400 49200 5 10 1 1 0 0 1
model-name=SS9018
T 46600 49000 5 10 1 1 0 0 1
file=QSS9018
}
C 44600 45600 1 0 0 npn-3.sym
{
T 45500 46100 5 10 0 0 0 0 1
device=NPN_TRANSISTOR
T 45500 46100 5 10 1 1 0 0 1
refdes=Q1
T 45500 45800 5 10 1 1 0 0 1
model-name=SS9018
}
C 42100 47600 1 0 0 vdc-ng.sym
{
T 42800 48250 5 10 1 1 0 0 1
refdes=Vsource
T 42800 48450 5 10 0 0 0 0 1
device=VOLTAGE_SOURCE
T 42800 48650 5 10 0 0 0 0 1
footprint=none
T 42800 48050 5 10 1 1 0 0 1
value=DC 12V
}
C 42300 47100 1 0 0 gnd-1.sym
C 42200 49000 1 0 0 vcc-1.sym
N 42400 49000 42400 48800 4
N 42400 47400 42400 47600 4
C 45500 44200 1 90 0 ng-resistor-1.sym
{
T 45100 44500 5 10 0 0 90 0 1
device=RESISTOR
T 45100 44400 5 10 1 1 90 0 1
refdes=R3
T 45500 44695 5 10 1 1 90 0 1
value=10k
}
N 45200 44100 45200 44200 4
N 45200 45100 45200 45600 4
C 45500 47400 1 90 0 ng-resistor-1.sym
{
T 45100 47700 5 10 0 0 90 0 1
device=RESISTOR
T 45100 47600 5 10 1 1 90 0 1
refdes=R4
T 45500 47895 5 10 1 1 90 0 1
value=20k
}
N 45200 46600 45200 47400 4
N 45200 48300 45200 48600 4
N 45200 49500 45200 49700 4
N 43800 49600 45200 49600 4
C 46100 48000 1 0 0 spice-directive-1.sym
{
T 46200 48300 5 10 0 1 0 0 1
device=directive
T 46200 48400 5 10 1 1 0 0 1
refdes=A2
T 46200 48100 5 10 1 1 0 0 1
value=.ic v(4)=0 v(out)=0
}
C 48600 44700 1 90 0 ng-inductor-1.sym
{
T 48100 44900 5 10 0 0 90 0 1
device=INDUCTOR
T 48200 44800 5 10 1 1 90 0 1
refdes=L?
T 47900 44900 5 10 0 0 90 0 1
symversion=0.1
T 48605 45195 5 10 1 1 90 0 1
value=470n
}
N 48400 44700 48400 43600 4
N 48400 45600 48400 47000 4
C 48600 46900 1 0 0 output-ng.sym
{
T 48700 47200 5 10 0 0 0 0 1
device=OUTPUT
T 48795 47200 5 10 1 1 0 0 1
net=out:1
}
