%!PS-Adobe-3.0 EPSF-3.0
%%Creator: nutmeg
%%BoundingBox: 54 54 612 612
/ReEncode { % inFont outFont encoding | -
   /MyEncoding exch def
      exch findfont
      dup length dict
      begin
         {def} forall
         /Encoding MyEncoding def
         currentdict
      end
      definefont
} def
/Helvetica /HelveticaLatin1 ISOLatin1Encoding ReEncode
1 1 scale
1.000 1.000 1.000 setrgbcolor
newpath
54 54 moveto 612 54 lineto
612 612 lineto 54 612 lineto
closepath fill
/HelveticaLatin1 findfont 10 scalefont setfont

0.000 0.000 0.000 setrgbcolor
0.502 0.502 0.502 setrgbcolor
0.000 0.000 0.000 setrgbcolor
0.000 0.000 0.000 setrgbcolor
243 66 moveto
0 rotate
(frequency) show
-0 rotate
0.000 0.000 0.000 setrgbcolor
0.502 0.502 0.502 setrgbcolor
0.000 0.000 0.000 setrgbcolor
0.000 0.000 0.000 setrgbcolor
54 596 moveto
0 rotate
(sp1: Oscilador ) show
-0 rotate
0.000 0.000 0.000 setrgbcolor
0.502 0.502 0.502 setrgbcolor
0.000 0.000 0.000 setrgbcolor
newpath
78 104 moveto
78 544 lineto
stroke
0.502 0.502 0.502 setrgbcolor
0.000 0.000 0.000 setrgbcolor
0.000 0.000 0.000 setrgbcolor
69 87 moveto
0 rotate
(0.0) show
-0 rotate
0.000 0.000 0.000 setrgbcolor
0.502 0.502 0.502 setrgbcolor
newpath
161 104 moveto
161 544 lineto
stroke
0.000 0.000 0.000 setrgbcolor
0.000 0.000 0.000 setrgbcolor
146 87 moveto
0 rotate
(100.0) show
-0 rotate
0.000 0.000 0.000 setrgbcolor
0.502 0.502 0.502 setrgbcolor
newpath
244 104 moveto
244 544 lineto
stroke
0.000 0.000 0.000 setrgbcolor
0.000 0.000 0.000 setrgbcolor
229 87 moveto
0 rotate
(200.0) show
-0 rotate
0.000 0.000 0.000 setrgbcolor
0.502 0.502 0.502 setrgbcolor
newpath
327 104 moveto
327 544 lineto
stroke
0.000 0.000 0.000 setrgbcolor
0.000 0.000 0.000 setrgbcolor
312 87 moveto
0 rotate
(300.0) show
-0 rotate
0.000 0.000 0.000 setrgbcolor
0.502 0.502 0.502 setrgbcolor
newpath
410 104 moveto
410 544 lineto
stroke
0.000 0.000 0.000 setrgbcolor
0.000 0.000 0.000 setrgbcolor
395 87 moveto
0 rotate
(400.0) show
-0 rotate
0.000 0.000 0.000 setrgbcolor
0.502 0.502 0.502 setrgbcolor
newpath
493 104 moveto
493 544 lineto
stroke
0.000 0.000 0.000 setrgbcolor
0.000 0.000 0.000 setrgbcolor
478 87 moveto
0 rotate
(500.0) show
-0 rotate
0.000 0.000 0.000 setrgbcolor
0.502 0.502 0.502 setrgbcolor
newpath
576 104 moveto
576 544 lineto
stroke
0.000 0.000 0.000 setrgbcolor
0.000 0.000 0.000 setrgbcolor
561 87 moveto
0 rotate
(600.0) show
-0 rotate
0.000 0.000 0.000 setrgbcolor
0.502 0.502 0.502 setrgbcolor
0.000 0.000 0.000 setrgbcolor
0.000 0.000 0.000 setrgbcolor
382 66 moveto
0 rotate
(MHz) show
-0 rotate
0.000 0.000 0.000 setrgbcolor
0.502 0.502 0.502 setrgbcolor
newpath
78 104 moveto
576 104 lineto
stroke
0.000 0.000 0.000 setrgbcolor
0.000 0.000 0.000 setrgbcolor
54 101 moveto
0 rotate
(-3.0) show
-0 rotate
0.000 0.000 0.000 setrgbcolor
0.502 0.502 0.502 setrgbcolor
newpath
78 159 moveto
576 159 lineto
stroke
0.000 0.000 0.000 setrgbcolor
0.000 0.000 0.000 setrgbcolor
54 156 moveto
0 rotate
(-2.0) show
-0 rotate
0.000 0.000 0.000 setrgbcolor
0.502 0.502 0.502 setrgbcolor
newpath
78 214 moveto
576 214 lineto
stroke
0.000 0.000 0.000 setrgbcolor
0.000 0.000 0.000 setrgbcolor
54 211 moveto
0 rotate
(-1.0) show
-0 rotate
0.000 0.000 0.000 setrgbcolor
0.502 0.502 0.502 setrgbcolor
0.000 0.000 0.000 setrgbcolor
newpath
78 269 moveto
576 269 lineto
stroke
0.502 0.502 0.502 setrgbcolor
0.000 0.000 0.000 setrgbcolor
0.000 0.000 0.000 setrgbcolor
60 266 moveto
0 rotate
(0.0) show
-0 rotate
0.000 0.000 0.000 setrgbcolor
0.502 0.502 0.502 setrgbcolor
newpath
78 324 moveto
576 324 lineto
stroke
0.000 0.000 0.000 setrgbcolor
0.000 0.000 0.000 setrgbcolor
60 321 moveto
0 rotate
(1.0) show
-0 rotate
0.000 0.000 0.000 setrgbcolor
0.502 0.502 0.502 setrgbcolor
newpath
78 379 moveto
576 379 lineto
stroke
0.000 0.000 0.000 setrgbcolor
0.000 0.000 0.000 setrgbcolor
60 376 moveto
0 rotate
(2.0) show
-0 rotate
0.000 0.000 0.000 setrgbcolor
0.502 0.502 0.502 setrgbcolor
newpath
78 434 moveto
576 434 lineto
stroke
0.000 0.000 0.000 setrgbcolor
0.000 0.000 0.000 setrgbcolor
60 431 moveto
0 rotate
(3.0) show
-0 rotate
0.000 0.000 0.000 setrgbcolor
0.502 0.502 0.502 setrgbcolor
newpath
78 489 moveto
576 489 lineto
stroke
0.000 0.000 0.000 setrgbcolor
0.000 0.000 0.000 setrgbcolor
60 486 moveto
0 rotate
(4.0) show
-0 rotate
0.000 0.000 0.000 setrgbcolor
0.502 0.502 0.502 setrgbcolor
newpath
78 544 moveto
576 544 lineto
stroke
0.000 0.000 0.000 setrgbcolor
0.000 0.000 0.000 setrgbcolor
60 541 moveto
0 rotate
(5.0) show
-0 rotate
0.000 0.000 0.000 setrgbcolor
0.502 0.502 0.502 setrgbcolor
0.000 0.000 0.000 setrgbcolor
0.000 0.000 0.000 setrgbcolor
54 582 moveto
0 rotate
(Units) show
-0 rotate
0.000 0.000 0.000 setrgbcolor
0.502 0.502 0.502 setrgbcolor
1.000 0.000 0.000 setrgbcolor
newpath
297 586 moveto
321 586 lineto
stroke
0.000 0.000 0.000 setrgbcolor
0.000 0.000 0.000 setrgbcolor
327 582 moveto
0 rotate
(v(outrload)) show
-0 rotate
0.000 0.000 0.000 setrgbcolor
1.000 0.000 0.000 setrgbcolor
newpath
78 268 moveto
78 269 lineto
79 269 lineto
80 269 lineto
81 269 lineto
82 269 lineto
83 269 lineto
84 269 lineto
85 269 lineto
86 269 lineto
87 269 lineto
88 269 lineto
89 269 lineto
90 269 lineto
91 269 lineto
92 269 lineto
93 269 lineto
94 269 lineto
95 269 lineto
96 269 lineto
97 269 lineto
98 269 lineto
99 269 lineto
100 269 lineto
101 269 lineto
102 269 lineto
103 269 lineto
104 269 lineto
105 269 lineto
106 269 lineto
107 269 lineto
108 269 lineto
109 269 lineto
110 269 lineto
111 269 lineto
112 269 lineto
113 269 lineto
114 269 lineto
115 269 lineto
116 269 lineto
117 269 lineto
118 269 lineto
119 269 lineto
120 269 lineto
121 269 lineto
122 269 lineto
123 269 lineto
124 269 lineto
125 269 lineto
126 269 lineto
127 269 lineto
128 269 lineto
129 269 lineto
130 269 lineto
131 269 lineto
132 269 lineto
133 269 lineto
134 269 lineto
135 269 lineto
136 269 lineto
137 269 lineto
138 269 lineto
139 269 lineto
140 269 lineto
141 269 lineto
142 269 lineto
143 269 lineto
144 269 lineto
145 269 lineto
146 269 lineto
147 269 lineto
148 269 lineto
149 269 lineto
150 269 lineto
151 269 lineto
152 269 lineto
153 269 lineto
154 269 lineto
155 268 lineto
155 266 lineto
155 152 lineto
155 531 lineto
155 123 lineto
155 273 lineto
156 270 lineto
156 269 lineto
157 269 lineto
158 269 lineto
159 269 lineto
160 269 lineto
161 269 lineto
162 269 lineto
163 269 lineto
164 269 lineto
165 269 lineto
166 269 lineto
167 269 lineto
168 269 lineto
169 269 lineto
170 269 lineto
170 267 lineto
170 273 lineto
171 267 lineto
171 269 lineto
172 269 lineto
173 269 lineto
174 269 lineto
175 269 lineto
176 269 lineto
177 269 lineto
178 269 lineto
179 269 lineto
180 269 lineto
181 269 lineto
182 269 lineto
183 269 lineto
184 269 lineto
185 269 lineto
186 269 lineto
186 270 lineto
186 268 lineto
186 269 lineto
187 269 lineto
188 269 lineto
189 269 lineto
190 269 lineto
191 269 lineto
192 269 lineto
193 269 lineto
194 269 lineto
195 269 lineto
196 269 lineto
197 269 lineto
198 269 lineto
199 269 lineto
200 269 lineto
201 269 lineto
201 268 lineto
201 270 lineto
202 269 lineto
203 269 lineto
204 269 lineto
205 269 lineto
206 269 lineto
207 269 lineto
208 269 lineto
209 269 lineto
210 269 lineto
211 269 lineto
212 269 lineto
213 269 lineto
214 269 lineto
215 269 lineto
216 269 lineto
217 270 lineto
217 268 lineto
217 269 lineto
218 269 lineto
219 269 lineto
220 269 lineto
221 269 lineto
222 269 lineto
223 269 lineto
224 269 lineto
225 269 lineto
226 269 lineto
227 269 lineto
228 269 lineto
229 269 lineto
230 269 lineto
231 269 lineto
232 269 lineto
232 270 lineto
232 267 lineto
232 270 lineto
232 269 lineto
233 269 lineto
234 269 lineto
235 269 lineto
236 269 lineto
237 269 lineto
238 269 lineto
239 269 lineto
240 269 lineto
241 269 lineto
242 269 lineto
243 269 lineto
244 269 lineto
245 269 lineto
246 269 lineto
247 269 lineto
247 270 lineto
248 269 lineto
249 269 lineto
250 269 lineto
251 269 lineto
252 269 lineto
253 269 lineto
254 269 lineto
255 269 lineto
256 269 lineto
257 269 lineto
258 269 lineto
259 269 lineto
260 269 lineto
261 269 lineto
262 269 lineto
263 269 lineto
264 269 lineto
265 269 lineto
266 269 lineto
267 269 lineto
268 269 lineto
269 269 lineto
270 269 lineto
271 269 lineto
272 269 lineto
273 269 lineto
274 269 lineto
275 269 lineto
276 269 lineto
277 269 lineto
278 269 lineto
279 269 lineto
280 269 lineto
281 269 lineto
282 269 lineto
283 269 lineto
284 269 lineto
285 269 lineto
286 269 lineto
287 269 lineto
288 269 lineto
289 269 lineto
290 269 lineto
291 269 lineto
292 269 lineto
293 269 lineto
294 269 lineto
295 269 lineto
296 269 lineto
297 269 lineto
298 269 lineto
299 269 lineto
300 269 lineto
301 269 lineto
302 269 lineto
303 269 lineto
304 269 lineto
305 269 lineto
306 269 lineto
307 269 lineto
308 269 lineto
309 269 lineto
309 268 lineto
309 269 lineto
310 269 lineto
311 269 lineto
312 269 lineto
313 269 lineto
314 269 lineto
315 269 lineto
316 269 lineto
317 269 lineto
318 269 lineto
319 269 lineto
320 269 lineto
321 269 lineto
322 269 lineto
323 269 lineto
324 269 lineto
325 269 lineto
326 269 lineto
327 269 lineto
328 269 lineto
329 269 lineto
330 269 lineto
331 269 lineto
332 269 lineto
333 269 lineto
334 269 lineto
335 269 lineto
336 269 lineto
337 269 lineto
338 269 lineto
339 269 lineto
340 269 lineto
341 269 lineto
342 269 lineto
343 269 lineto
344 269 lineto
345 269 lineto
346 269 lineto
347 269 lineto
348 269 lineto
349 269 lineto
350 269 lineto
351 269 lineto
352 269 lineto
353 269 lineto
354 269 lineto
355 269 lineto
356 269 lineto
357 269 lineto
358 269 lineto
359 269 lineto
360 269 lineto
361 269 lineto
362 269 lineto
363 269 lineto
364 269 lineto
365 269 lineto
366 269 lineto
367 269 lineto
368 269 lineto
369 269 lineto
370 269 lineto
371 269 lineto
372 269 lineto
373 269 lineto
374 269 lineto
375 269 lineto
376 269 lineto
377 269 lineto
378 269 lineto
379 269 lineto
380 269 lineto
381 269 lineto
382 269 lineto
383 269 lineto
384 269 lineto
385 269 lineto
386 269 lineto
387 269 lineto
388 269 lineto
389 269 lineto
390 269 lineto
391 269 lineto
392 269 lineto
393 269 lineto
394 269 lineto
395 269 lineto
396 269 lineto
397 269 lineto
398 269 lineto
399 269 lineto
400 269 lineto
401 269 lineto
402 269 lineto
403 269 lineto
404 269 lineto
405 269 lineto
406 269 lineto
407 269 lineto
408 269 lineto
409 269 lineto
410 269 lineto
411 269 lineto
412 269 lineto
413 269 lineto
414 269 lineto
415 269 lineto
416 269 lineto
417 269 lineto
418 269 lineto
419 269 lineto
420 269 lineto
421 269 lineto
422 269 lineto
423 269 lineto
424 269 lineto
425 269 lineto
426 269 lineto
427 269 lineto
428 269 lineto
429 269 lineto
430 269 lineto
431 269 lineto
432 269 lineto
433 269 lineto
434 269 lineto
435 269 lineto
436 269 lineto
437 269 lineto
438 269 lineto
439 269 lineto
440 269 lineto
441 269 lineto
442 269 lineto
443 269 lineto
444 269 lineto
445 269 lineto
446 269 lineto
447 269 lineto
448 269 lineto
449 269 lineto
450 269 lineto
451 269 lineto
452 269 lineto
453 269 lineto
454 269 lineto
455 269 lineto
456 269 lineto
457 269 lineto
458 269 lineto
459 269 lineto
460 269 lineto
461 269 lineto
462 269 lineto
463 269 lineto
463 270 lineto
463 268 lineto
463 269 lineto
464 269 lineto
465 269 lineto
466 269 lineto
467 269 lineto
468 269 lineto
469 269 lineto
470 269 lineto
471 269 lineto
472 269 lineto
473 269 lineto
474 269 lineto
475 269 lineto
476 269 lineto
477 269 lineto
478 269 lineto
479 269 lineto
480 269 lineto
481 269 lineto
482 269 lineto
483 269 lineto
484 269 lineto
485 269 lineto
486 269 lineto
487 269 lineto
488 269 lineto
489 269 lineto
490 269 lineto
491 269 lineto
492 269 lineto
493 269 lineto
494 269 lineto
stroke
showpage
%%EOF
