%!PS-Adobe-3.0 EPSF-3.0
%%BoundingBox: 54 64 583 604
%%HiResBoundingBox: 54.500000 64.000000 583.000000 603.500000
%%Creator: nutmeg
%%EndComments
% EPSF created by ps2eps 1.68
%%BeginProlog
save
countdictstack
mark
newpath
/showpage {} def
/setpagedevice {pop} def
%%EndProlog
%%Page 1 1
/ReEncode { % inFont outFont encoding | -
   /MyEncoding exch def
      exch findfont
      dup length dict
      begin
         {def} forall
         /Encoding MyEncoding def
         currentdict
      end
      definefont
} def
/Helvetica /HelveticaLatin1 ISOLatin1Encoding ReEncode
1 1 scale
1.000 1.000 1.000 setrgbcolor
newpath
54 54 moveto 612 54 lineto
612 612 lineto 54 612 lineto
closepath fill
/HelveticaLatin1 findfont 10 scalefont setfont
0.000 0.000 0.000 setrgbcolor
0.502 0.502 0.502 setrgbcolor
0.000 0.000 0.000 setrgbcolor
0.000 0.000 0.000 setrgbcolor
243 66 moveto
0 rotate
(frequency) show
-0 rotate
0.000 0.000 0.000 setrgbcolor
0.502 0.502 0.502 setrgbcolor
0.000 0.000 0.000 setrgbcolor
0.000 0.000 0.000 setrgbcolor
54 596 moveto
0 rotate
(sp3: Oscilador ) show
-0 rotate
0.000 0.000 0.000 setrgbcolor
0.502 0.502 0.502 setrgbcolor
newpath
78 104 moveto
78 548 lineto
stroke
0.000 0.000 0.000 setrgbcolor
0.000 0.000 0.000 setrgbcolor
66 87 moveto
0 rotate
(90.0) show
-0 rotate
0.000 0.000 0.000 setrgbcolor
0.502 0.502 0.502 setrgbcolor
newpath
161 104 moveto
161 548 lineto
stroke
0.000 0.000 0.000 setrgbcolor
0.000 0.000 0.000 setrgbcolor
149 87 moveto
0 rotate
(91.0) show
-0 rotate
0.000 0.000 0.000 setrgbcolor
0.502 0.502 0.502 setrgbcolor
newpath
244 104 moveto
244 548 lineto
stroke
0.000 0.000 0.000 setrgbcolor
0.000 0.000 0.000 setrgbcolor
232 87 moveto
0 rotate
(92.0) show
-0 rotate
0.000 0.000 0.000 setrgbcolor
0.502 0.502 0.502 setrgbcolor
newpath
327 104 moveto
327 548 lineto
stroke
0.000 0.000 0.000 setrgbcolor
0.000 0.000 0.000 setrgbcolor
315 87 moveto
0 rotate
(93.0) show
-0 rotate
0.000 0.000 0.000 setrgbcolor
0.502 0.502 0.502 setrgbcolor
newpath
410 104 moveto
410 548 lineto
stroke
0.000 0.000 0.000 setrgbcolor
0.000 0.000 0.000 setrgbcolor
398 87 moveto
0 rotate
(94.0) show
-0 rotate
0.000 0.000 0.000 setrgbcolor
0.502 0.502 0.502 setrgbcolor
newpath
493 104 moveto
493 548 lineto
stroke
0.000 0.000 0.000 setrgbcolor
0.000 0.000 0.000 setrgbcolor
481 87 moveto
0 rotate
(95.0) show
-0 rotate
0.000 0.000 0.000 setrgbcolor
0.502 0.502 0.502 setrgbcolor
newpath
576 104 moveto
576 548 lineto
stroke
0.000 0.000 0.000 setrgbcolor
0.000 0.000 0.000 setrgbcolor
564 87 moveto
0 rotate
(96.0) show
-0 rotate
0.000 0.000 0.000 setrgbcolor
0.502 0.502 0.502 setrgbcolor
0.000 0.000 0.000 setrgbcolor
0.000 0.000 0.000 setrgbcolor
382 66 moveto
0 rotate
(MHz) show
-0 rotate
0.000 0.000 0.000 setrgbcolor
0.502 0.502 0.502 setrgbcolor
newpath
78 104 moveto
576 104 lineto
stroke
0.000 0.000 0.000 setrgbcolor
0.000 0.000 0.000 setrgbcolor
54 101 moveto
0 rotate
(-2.0) show
-0 rotate
0.000 0.000 0.000 setrgbcolor
0.502 0.502 0.502 setrgbcolor
0.000 0.000 0.000 setrgbcolor
newpath
78 178 moveto
576 178 lineto
stroke
0.502 0.502 0.502 setrgbcolor
0.000 0.000 0.000 setrgbcolor
0.000 0.000 0.000 setrgbcolor
60 175 moveto
0 rotate
(0.0) show
-0 rotate
0.000 0.000 0.000 setrgbcolor
0.502 0.502 0.502 setrgbcolor
newpath
78 252 moveto
576 252 lineto
stroke
0.000 0.000 0.000 setrgbcolor
0.000 0.000 0.000 setrgbcolor
60 249 moveto
0 rotate
(2.0) show
-0 rotate
0.000 0.000 0.000 setrgbcolor
0.502 0.502 0.502 setrgbcolor
newpath
78 326 moveto
576 326 lineto
stroke
0.000 0.000 0.000 setrgbcolor
0.000 0.000 0.000 setrgbcolor
60 323 moveto
0 rotate
(4.0) show
-0 rotate
0.000 0.000 0.000 setrgbcolor
0.502 0.502 0.502 setrgbcolor
newpath
78 400 moveto
576 400 lineto
stroke
0.000 0.000 0.000 setrgbcolor
0.000 0.000 0.000 setrgbcolor
60 397 moveto
0 rotate
(6.0) show
-0 rotate
0.000 0.000 0.000 setrgbcolor
0.502 0.502 0.502 setrgbcolor
newpath
78 474 moveto
576 474 lineto
stroke
0.000 0.000 0.000 setrgbcolor
0.000 0.000 0.000 setrgbcolor
60 471 moveto
0 rotate
(8.0) show
-0 rotate
0.000 0.000 0.000 setrgbcolor
0.502 0.502 0.502 setrgbcolor
newpath
78 548 moveto
576 548 lineto
stroke
0.000 0.000 0.000 setrgbcolor
0.000 0.000 0.000 setrgbcolor
54 545 moveto
0 rotate
(10.0) show
-0 rotate
0.000 0.000 0.000 setrgbcolor
0.502 0.502 0.502 setrgbcolor
0.000 0.000 0.000 setrgbcolor
0.000 0.000 0.000 setrgbcolor
54 582 moveto
0 rotate
(Units) show
-0 rotate
0.000 0.000 0.000 setrgbcolor
0.502 0.502 0.502 setrgbcolor
1.000 0.000 0.000 setrgbcolor
newpath
297 586 moveto
321 586 lineto
stroke
0.000 0.000 0.000 setrgbcolor
0.000 0.000 0.000 setrgbcolor
327 582 moveto
0 rotate
(mag(v(outrload))) show
-0 rotate
0.000 0.000 0.000 setrgbcolor
1.000 0.000 0.000 setrgbcolor
newpath
78 180 moveto
95 180 lineto
111 180 lineto
128 179 lineto
144 179 lineto
161 179 lineto
178 179 lineto
194 179 lineto
211 179 lineto
227 180 lineto
244 180 lineto
261 181 lineto
277 183 lineto
294 184 lineto
310 183 lineto
327 181 lineto
344 188 lineto
360 381 lineto
377 469 lineto
393 293 lineto
410 185 lineto
427 181 lineto
443 181 lineto
460 180 lineto
476 180 lineto
493 179 lineto
510 179 lineto
526 178 lineto
543 178 lineto
559 179 lineto
576 178 lineto
stroke
0.000 0.000 1.000 setrgbcolor
newpath
78 586 moveto
102 586 lineto
stroke
0.000 0.000 0.000 setrgbcolor
0.000 0.000 0.000 setrgbcolor
108 582 moveto
0 rotate
(mag(sp1.v(outrload))) show
-0 rotate
0.000 0.000 0.000 setrgbcolor
0.000 0.000 1.000 setrgbcolor
newpath
78 179 moveto
95 179 lineto
111 179 lineto
128 179 lineto
144 179 lineto
161 179 lineto
178 179 lineto
194 179 lineto
211 180 lineto
227 179 lineto
244 179 lineto
261 179 lineto
277 179 lineto
294 181 lineto
310 185 lineto
327 191 lineto
344 279 lineto
360 471 lineto
377 385 lineto
393 203 lineto
410 185 lineto
427 181 lineto
443 179 lineto
460 179 lineto
476 179 lineto
493 179 lineto
510 179 lineto
526 179 lineto
543 179 lineto
559 179 lineto
576 178 lineto
stroke
1.000 0.647 0.000 setrgbcolor
newpath
297 572 moveto
321 572 lineto
stroke
0.000 0.000 0.000 setrgbcolor
0.000 0.000 0.000 setrgbcolor
327 568 moveto
0 rotate
(mag(sp2.v(outrload))) show
-0 rotate
0.000 0.000 0.000 setrgbcolor
1.000 0.647 0.000 setrgbcolor
newpath
78 179 moveto
95 179 lineto
111 179 lineto
128 179 lineto
144 179 lineto
161 180 lineto
178 180 lineto
194 180 lineto
211 180 lineto
227 181 lineto
244 181 lineto
261 181 lineto
277 180 lineto
294 178 lineto
310 182 lineto
327 186 lineto
344 321 lineto
360 480 lineto
377 346 lineto
393 185 lineto
410 182 lineto
427 181 lineto
443 179 lineto
460 179 lineto
476 179 lineto
493 179 lineto
510 179 lineto
526 179 lineto
543 179 lineto
559 179 lineto
576 179 lineto
stroke
showpage
%%Trailer
cleartomark
countdictstack
exch sub { end } repeat
restore
%%EOF
