v 20130925 2
C 40000 40000 0 0 0 title-B.sym
C 47500 46600 1 90 0 ng-resistor-1.sym
{
T 47100 46900 5 10 0 0 90 0 1
device=RESISTOR
T 47100 46800 5 10 1 1 90 0 1
refdes=R1
T 47500 47095 5 10 1 1 90 0 1
value=r1_val
}
C 47500 45000 1 90 0 ng-resistor-1.sym
{
T 47100 45300 5 10 0 0 90 0 1
device=RESISTOR
T 47100 45200 5 10 1 1 90 0 1
refdes=R2
T 47500 45395 5 10 1 1 90 0 1
value=r2_val
}
C 48800 47900 1 90 0 ng-inductor-1.sym
{
T 48300 48100 5 10 0 0 90 0 1
device=INDUCTOR
T 48400 48000 5 10 1 1 90 0 1
refdes=Lrfc
T 48100 48100 5 10 0 0 90 0 1
symversion=0.1
T 48805 48395 5 10 1 1 90 0 1
value=lrfc_val
}
C 52900 44900 1 90 0 ng-inductor-1.sym
{
T 52400 45100 5 10 0 0 90 0 1
device=INDUCTOR
T 52500 45000 5 10 1 1 90 0 1
refdes=L1
T 52200 45100 5 10 0 0 90 0 1
symversion=0.1
T 52905 45395 5 10 1 1 90 0 1
value=l1_val
}
C 47100 44200 1 0 0 gnd-1.sym
C 48500 43000 1 0 0 gnd-1.sym
N 51500 46000 51500 45000 4
N 47200 45000 47200 44500 4
N 51500 44100 51500 43800 4
N 52700 43800 52700 44900 4
N 52700 45800 52700 47200 4
N 51500 47200 51500 46900 4
N 48600 47200 50100 47200 4
N 47200 45900 47200 46600 4
N 48000 46300 47200 46300 4
N 45900 45700 45900 46300 4
N 45900 43600 45900 44800 4
N 48600 48800 48600 49400 4
C 48400 49400 1 0 0 vcc-1.sym
C 46000 49100 1 0 0 spice-model-1.sym
{
T 46100 49800 5 10 0 1 0 0 1
device=model
T 46100 49700 5 10 1 1 0 0 1
refdes=A2
T 47300 49400 5 10 1 1 0 0 1
model-name=SS9018
T 46500 49200 5 10 1 1 0 0 1
file=QSS9018
}
C 48000 45800 1 0 0 npn-3.sym
{
T 48900 46300 5 10 0 0 0 0 1
device=NPN_TRANSISTOR
T 48900 46300 5 10 1 1 0 0 1
refdes=Q1
T 48900 46000 5 10 1 1 0 0 1
model-name=SS9018
}
C 45300 47300 1 0 0 vdc-ng.sym
{
T 46000 47950 5 10 1 1 0 0 1
refdes=Vsource
T 46000 48150 5 10 0 0 0 0 1
device=VOLTAGE_SOURCE
T 46000 48350 5 10 0 0 0 0 1
footprint=none
T 46000 47750 5 10 1 1 0 0 1
value=DC 12V
}
C 45500 46800 1 0 0 gnd-1.sym
C 45400 48700 1 0 0 vcc-1.sym
N 45600 48700 45600 48500 4
N 45600 47100 45600 47300 4
C 50400 49300 1 0 0 spice-directive-1.sym
{
T 50500 49600 5 10 0 1 0 0 1
device=directive
T 50500 49700 5 10 1 1 0 0 1
refdes=A4
T 50400 49400 5 10 1 1 0 0 1
value=.ic
}
C 52200 47200 1 90 0 output-ng.sym
{
T 51900 47300 5 10 0 0 90 0 1
device=OUTPUT
T 51900 47395 5 10 1 1 90 0 1
net=out:1
}
T 50600 48200 5 10 1 0 0 0 2
Condición inicial
para simulacion
C 45900 50000 1 0 0 spice-directive-1.sym
{
T 46000 50300 5 10 0 1 0 0 1
device=directive
T 46000 50400 5 10 1 1 0 0 1
refdes=A1
T 46000 50100 5 10 1 1 0 0 1
value=.title Oscilador
}
C 50400 50000 1 0 0 spice-directive-1.sym
{
T 50500 50300 5 10 0 1 0 0 1
device=directive
T 50500 50400 5 10 1 1 0 0 1
refdes=A3
T 50400 50100 5 10 1 1 0 0 1
file=oscilator.param
}
N 48600 46800 48600 47900 4
C 48900 43500 1 90 0 ng-resistor-1.sym
{
T 48500 43800 5 10 0 0 90 0 1
device=RESISTOR
T 48500 43700 5 10 1 1 90 0 1
refdes=Re
T 48900 43695 5 10 1 1 90 0 1
value=re_val
}
N 48600 43500 48600 43300 4
C 49300 44400 1 270 0 ng-capacitor-1.sym
{
T 50000 44200 5 10 0 0 270 0 1
device=CAPACITOR
T 49800 44300 5 10 1 1 270 0 1
refdes=CE
T 50200 44200 5 10 0 0 270 0 1
symversion=0.1
T 49300 43805 5 10 1 1 270 0 1
value=ce_val
}
C 49500 43000 1 0 0 gnd-1.sym
C 51100 45000 1 0 0 gnd-1.sym
N 51200 45300 51200 45400 4
N 51200 45400 51500 45400 4
N 47200 47500 47200 48700 4
C 46300 43500 1 0 0 output-ng.sym
{
T 46400 43800 5 10 0 0 0 0 1
device=OUTPUT
T 46495 43800 5 10 1 1 0 0 1
net=retro:1
}
N 45900 43600 46300 43600 4
C 52000 43800 1 270 0 output-ng.sym
{
T 52300 43700 5 10 0 0 270 0 1
device=OUTPUT
T 52300 43605 5 10 1 1 270 0 1
net=retro:1
}
N 51500 43800 52700 43800 4
C 50200 47400 1 90 0 output-ng.sym
{
T 49900 47500 5 10 0 0 90 0 1
device=OUTPUT
T 49900 47595 5 10 1 1 90 0 1
net=out:1
}
N 50100 47400 50100 47200 4
N 51500 47200 52700 47200 4
N 48600 44400 48600 45800 4
N 48600 44600 49600 44600 4
N 49600 44600 49600 44400 4
N 49600 43300 49600 43500 4
C 51200 46900 1 270 0 ng-capacitor-with-R-1.sym
{
T 51900 46700 5 10 0 0 270 0 1
device=CAPACITOR
T 51800 46700 5 10 1 1 270 0 1
refdes=XC1
T 52100 46700 5 10 0 0 270 0 1
symversion=0.1
T 51200 46700 5 10 1 1 0 0 1
value=C
T 50500 46100 5 10 1 1 0 0 1
model-name=val=c1_val
}
C 51200 45000 1 270 0 ng-capacitor-with-R-1.sym
{
T 51900 44800 5 10 0 0 270 0 1
device=CAPACITOR
T 51700 44900 5 10 1 1 270 0 1
refdes=XC2
T 52100 44800 5 10 0 0 270 0 1
symversion=0.1
T 51100 44800 5 10 1 1 0 0 1
value=C
T 50500 44300 5 10 1 1 0 0 1
model-name=val=c2_val
}
C 45600 45700 1 270 0 ng-capacitor-with-R-1.sym
{
T 46300 45500 5 10 0 0 270 0 1
device=CAPACITOR
T 46000 45400 5 10 1 1 0 0 1
refdes=XCB
T 46500 45500 5 10 0 0 270 0 1
symversion=0.1
T 45600 45400 5 10 1 1 0 0 1
value=C
T 46000 45000 5 10 1 1 0 0 1
model-name=val=cb_val
}
C 50400 48600 1 0 0 spice-directive-1.sym
{
T 50500 48900 5 10 0 1 0 0 1
device=directive
T 50500 49000 5 10 1 1 0 0 1
refdes=A5
T 50400 48700 5 10 1 1 0 0 1
file=c.sub
}
C 47000 48700 1 0 0 vcc-1.sym
C 47700 42800 1 180 0 ng-capacitor-with-R-1.sym
{
T 47500 42100 5 10 0 0 180 0 1
device=CAPACITOR
T 47600 42300 5 10 1 1 180 0 1
refdes=XCO
T 47500 41900 5 10 0 0 180 0 1
symversion=0.1
T 47105 42800 5 10 1 1 180 0 1
value=C
T 46700 41900 5 10 1 1 0 0 1
model-name=val=co_val
}
C 46500 42600 1 180 0 output-ng.sym
{
T 46400 42300 5 10 0 0 180 0 1
device=OUTPUT
T 46305 42300 5 10 1 1 180 0 1
net=out:1
}
C 48400 42200 1 0 0 ng-resistor-1.sym
{
T 48700 42600 5 10 0 0 0 0 1
device=RESISTOR
T 48600 42600 5 10 1 1 0 0 1
refdes=Rl
T 48895 42200 5 10 1 1 0 0 1
value=rl_val
}
C 49900 42400 1 90 0 gnd-1.sym
N 49600 42500 49300 42500 4
N 48400 42500 47700 42500 4
C 48000 42300 1 270 0 output-ng.sym
{
T 48300 42200 5 10 0 0 270 0 1
device=OUTPUT
T 48295 41800 5 10 1 1 0 0 1
net=outRload:1
}
N 48100 42300 48100 42500 4
N 46800 42500 46500 42500 4
C 42900 49800 1 0 0 spice-model-1.sym
{
T 43000 50500 5 10 0 1 0 0 1
device=model
T 43000 50400 5 10 1 1 0 0 1
refdes=A6
T 44200 50100 5 10 1 1 0 0 1
model-name=D1N5250
T 43400 49900 5 10 1 1 0 0 1
file=1n5259.mod
}
C 41300 42800 1 0 0 vsin-1-ng.sym
{
T 42000 43450 5 10 1 1 0 0 1
refdes=Vin
T 42000 43650 5 10 0 0 0 0 1
device=vsin
T 42000 43850 5 10 0 0 0 0 1
footprint=none
T 42000 43250 5 10 1 1 0 0 1
value=dc 0 sin 0 2 20k 0ms 0
}
C 41500 42300 1 0 0 gnd-1.sym
C 43900 43200 1 0 0 gnd-1.sym
N 41600 42600 41600 42800 4
N 41600 44000 41600 45000 4
N 41600 45000 42800 45000 4
N 43700 45000 44000 45000 4
N 44000 44700 44000 45200 4
N 44000 46100 44000 46300 4
C 44200 45200 1 90 0 diode-ng.sym
{
T 43600 45600 5 10 0 0 90 0 1
device=DIODE
T 43500 45500 5 10 1 1 90 0 1
refdes=D1
T 43700 45495 5 10 1 1 90 0 1
model-name=D1N5250
}
C 43800 44700 1 270 0 diode-ng.sym
{
T 44400 44300 5 10 0 0 270 0 1
device=DIODE
T 44500 44400 5 10 1 1 270 0 1
refdes=D2
T 44300 44405 5 10 1 1 270 0 1
model-name=D1N5250
}
N 44000 43500 44000 43800 4
C 42800 44700 1 0 0 ng-resistor-1.sym
{
T 43100 45100 5 10 0 0 0 0 1
device=RESISTOR
T 43000 45100 5 10 1 1 0 0 1
refdes=Rmez
T 43295 44700 5 10 1 1 0 0 1
value=10k
}
T 41400 48800 9 10 0 1 0 0 1
device=include
C 41200 48200 1 0 0 spice-directive-1.sym
{
T 41300 48500 5 10 0 1 0 0 1
device=directive
T 41300 48600 5 10 1 1 0 0 1
refdes=A8
T 41200 48300 5 10 1 1 0 0 1
file=oscilator.ngsim
T 41200 48100 5 10 1 1 0 0 1
value=unknown
}
C 44400 46000 1 0 0 ng-capacitor-with-R-1.sym
{
T 44600 46700 5 10 0 0 0 0 1
device=CAPACITOR
T 44700 46400 5 10 1 1 90 0 1
refdes=XCB1
T 44600 46900 5 10 0 0 0 0 1
symversion=0.1
T 44700 46000 5 10 1 1 90 0 1
value=C
T 45100 46400 5 10 1 1 90 0 1
model-name=val=cb_val
}
N 44000 46300 44400 46300 4
N 45300 46300 47200 46300 4
