%!PS-Adobe-3.0 EPSF-3.0
%%BoundingBox: 48 66 589 604
%%HiResBoundingBox: 48.500000 66.000000 588.500000 603.500000
%%Creator: nutmeg
%%EndComments
% EPSF created by ps2eps 1.68
%%BeginProlog
save
countdictstack
mark
newpath
/showpage {} def
/setpagedevice {pop} def
%%EndProlog
%%Page 1 1
/ReEncode { % inFont outFont encoding | -
   /MyEncoding exch def
      exch findfont
      dup length dict
      begin
         {def} forall
         /Encoding MyEncoding def
         currentdict
      end
      definefont
} def
/Helvetica /HelveticaLatin1 ISOLatin1Encoding ReEncode
1 1 scale
1.000 1.000 1.000 setrgbcolor
newpath
54 54 moveto 612 54 lineto
612 612 lineto 54 612 lineto
closepath fill
/HelveticaLatin1 findfont 10 scalefont setfont
0.000 0.000 0.000 setrgbcolor
0.502 0.502 0.502 setrgbcolor
0.000 0.000 0.000 setrgbcolor
0.000 0.000 0.000 setrgbcolor
243 66 moveto
0 rotate
(time) show
-0 rotate
0.000 0.000 0.000 setrgbcolor
0.502 0.502 0.502 setrgbcolor
0.000 0.000 0.000 setrgbcolor
0.000 0.000 0.000 setrgbcolor
54 596 moveto
0 rotate
(tran1: Oscilador ) show
-0 rotate
0.000 0.000 0.000 setrgbcolor
0.502 0.502 0.502 setrgbcolor
newpath
78 104 moveto
78 544 lineto
stroke
0.000 0.000 0.000 setrgbcolor
0.000 0.000 0.000 setrgbcolor
57 87 moveto
0 rotate
(229.960) show
-0 rotate
0.000 0.000 0.000 setrgbcolor
0.502 0.502 0.502 setrgbcolor
newpath
202 104 moveto
202 544 lineto
stroke
0.000 0.000 0.000 setrgbcolor
0.000 0.000 0.000 setrgbcolor
181 87 moveto
0 rotate
(229.970) show
-0 rotate
0.000 0.000 0.000 setrgbcolor
0.502 0.502 0.502 setrgbcolor
newpath
326 104 moveto
326 544 lineto
stroke
0.000 0.000 0.000 setrgbcolor
0.000 0.000 0.000 setrgbcolor
305 87 moveto
0 rotate
(229.980) show
-0 rotate
0.000 0.000 0.000 setrgbcolor
0.502 0.502 0.502 setrgbcolor
newpath
450 104 moveto
450 544 lineto
stroke
0.000 0.000 0.000 setrgbcolor
0.000 0.000 0.000 setrgbcolor
429 87 moveto
0 rotate
(229.990) show
-0 rotate
0.000 0.000 0.000 setrgbcolor
0.502 0.502 0.502 setrgbcolor
newpath
574 104 moveto
574 544 lineto
stroke
0.000 0.000 0.000 setrgbcolor
0.000 0.000 0.000 setrgbcolor
553 87 moveto
0 rotate
(230.000) show
-0 rotate
0.000 0.000 0.000 setrgbcolor
0.502 0.502 0.502 setrgbcolor
0.000 0.000 0.000 setrgbcolor
0.000 0.000 0.000 setrgbcolor
382 66 moveto
0 rotate
(us) show
-0 rotate
0.000 0.000 0.000 setrgbcolor
0.502 0.502 0.502 setrgbcolor
newpath
78 104 moveto
574 104 lineto
stroke
0.000 0.000 0.000 setrgbcolor
0.000 0.000 0.000 setrgbcolor
48 101 moveto
0 rotate
(-10.0) show
-0 rotate
0.000 0.000 0.000 setrgbcolor
0.502 0.502 0.502 setrgbcolor
newpath
78 148 moveto
574 148 lineto
stroke
0.000 0.000 0.000 setrgbcolor
0.000 0.000 0.000 setrgbcolor
54 145 moveto
0 rotate
(-8.0) show
-0 rotate
0.000 0.000 0.000 setrgbcolor
0.502 0.502 0.502 setrgbcolor
newpath
78 192 moveto
574 192 lineto
stroke
0.000 0.000 0.000 setrgbcolor
0.000 0.000 0.000 setrgbcolor
54 189 moveto
0 rotate
(-6.0) show
-0 rotate
0.000 0.000 0.000 setrgbcolor
0.502 0.502 0.502 setrgbcolor
newpath
78 236 moveto
574 236 lineto
stroke
0.000 0.000 0.000 setrgbcolor
0.000 0.000 0.000 setrgbcolor
54 233 moveto
0 rotate
(-4.0) show
-0 rotate
0.000 0.000 0.000 setrgbcolor
0.502 0.502 0.502 setrgbcolor
newpath
78 280 moveto
574 280 lineto
stroke
0.000 0.000 0.000 setrgbcolor
0.000 0.000 0.000 setrgbcolor
54 277 moveto
0 rotate
(-2.0) show
-0 rotate
0.000 0.000 0.000 setrgbcolor
0.502 0.502 0.502 setrgbcolor
0.000 0.000 0.000 setrgbcolor
newpath
78 324 moveto
574 324 lineto
stroke
0.502 0.502 0.502 setrgbcolor
0.000 0.000 0.000 setrgbcolor
0.000 0.000 0.000 setrgbcolor
60 321 moveto
0 rotate
(0.0) show
-0 rotate
0.000 0.000 0.000 setrgbcolor
0.502 0.502 0.502 setrgbcolor
newpath
78 368 moveto
574 368 lineto
stroke
0.000 0.000 0.000 setrgbcolor
0.000 0.000 0.000 setrgbcolor
60 365 moveto
0 rotate
(2.0) show
-0 rotate
0.000 0.000 0.000 setrgbcolor
0.502 0.502 0.502 setrgbcolor
newpath
78 412 moveto
574 412 lineto
stroke
0.000 0.000 0.000 setrgbcolor
0.000 0.000 0.000 setrgbcolor
60 409 moveto
0 rotate
(4.0) show
-0 rotate
0.000 0.000 0.000 setrgbcolor
0.502 0.502 0.502 setrgbcolor
newpath
78 456 moveto
574 456 lineto
stroke
0.000 0.000 0.000 setrgbcolor
0.000 0.000 0.000 setrgbcolor
60 453 moveto
0 rotate
(6.0) show
-0 rotate
0.000 0.000 0.000 setrgbcolor
0.502 0.502 0.502 setrgbcolor
newpath
78 500 moveto
574 500 lineto
stroke
0.000 0.000 0.000 setrgbcolor
0.000 0.000 0.000 setrgbcolor
60 497 moveto
0 rotate
(8.0) show
-0 rotate
0.000 0.000 0.000 setrgbcolor
0.502 0.502 0.502 setrgbcolor
newpath
78 544 moveto
574 544 lineto
stroke
0.000 0.000 0.000 setrgbcolor
0.000 0.000 0.000 setrgbcolor
54 541 moveto
0 rotate
(10.0) show
-0 rotate
0.000 0.000 0.000 setrgbcolor
0.502 0.502 0.502 setrgbcolor
0.000 0.000 0.000 setrgbcolor
0.000 0.000 0.000 setrgbcolor
54 582 moveto
0 rotate
(V) show
-0 rotate
0.000 0.000 0.000 setrgbcolor
0.502 0.502 0.502 setrgbcolor
1.000 0.000 0.000 setrgbcolor
newpath
296 586 moveto
320 586 lineto
stroke
0.000 0.000 0.000 setrgbcolor
0.000 0.000 0.000 setrgbcolor
326 582 moveto
0 rotate
(v(outrload)) show
-0 rotate
0.000 0.000 0.000 setrgbcolor
1.000 0.000 0.000 setrgbcolor
newpath
79 405 moveto
80 414 lineto
82 423 lineto
83 432 lineto
84 440 lineto
85 448 lineto
87 456 lineto
88 463 lineto
89 469 lineto
90 475 lineto
91 481 lineto
93 486 lineto
94 490 lineto
95 494 lineto
96 497 lineto
98 499 lineto
99 501 lineto
100 502 lineto
101 503 lineto
103 503 lineto
104 502 lineto
105 501 lineto
106 499 lineto
108 496 lineto
109 493 lineto
110 489 lineto
111 484 lineto
113 479 lineto
114 474 lineto
115 467 lineto
116 461 lineto
118 453 lineto
119 446 lineto
120 438 lineto
121 429 lineto
122 420 lineto
124 411 lineto
125 402 lineto
126 392 lineto
127 382 lineto
129 371 lineto
130 361 lineto
131 350 lineto
132 340 lineto
134 329 lineto
135 318 lineto
136 307 lineto
137 297 lineto
139 286 lineto
140 276 lineto
141 266 lineto
142 255 lineto
144 246 lineto
145 236 lineto
146 227 lineto
147 218 lineto
149 210 lineto
150 202 lineto
151 194 lineto
152 187 lineto
153 180 lineto
155 174 lineto
156 169 lineto
157 164 lineto
158 159 lineto
160 155 lineto
161 152 lineto
162 150 lineto
163 148 lineto
165 146 lineto
166 146 lineto
167 146 lineto
168 146 lineto
170 147 lineto
171 149 lineto
172 151 lineto
173 154 lineto
175 157 lineto
176 162 lineto
177 167 lineto
178 173 lineto
180 179 lineto
181 186 lineto
182 193 lineto
183 201 lineto
184 209 lineto
186 217 lineto
187 226 lineto
188 235 lineto
189 244 lineto
191 253 lineto
192 263 lineto
193 273 lineto
194 284 lineto
196 294 lineto
197 305 lineto
198 316 lineto
199 326 lineto
201 337 lineto
202 348 lineto
203 358 lineto
204 369 lineto
206 379 lineto
207 389 lineto
208 399 lineto
209 409 lineto
211 418 lineto
212 427 lineto
213 436 lineto
214 444 lineto
215 452 lineto
217 459 lineto
218 466 lineto
219 472 lineto
220 478 lineto
222 483 lineto
223 488 lineto
224 492 lineto
225 495 lineto
227 498 lineto
228 500 lineto
229 502 lineto
230 503 lineto
232 503 lineto
233 503 lineto
234 502 lineto
235 500 lineto
237 498 lineto
238 495 lineto
239 491 lineto
240 487 lineto
242 482 lineto
243 477 lineto
244 471 lineto
245 465 lineto
246 458 lineto
248 450 lineto
249 442 lineto
250 434 lineto
251 425 lineto
253 416 lineto
254 407 lineto
255 397 lineto
256 387 lineto
258 377 lineto
259 367 lineto
260 356 lineto
261 346 lineto
263 335 lineto
264 324 lineto
265 313 lineto
266 303 lineto
268 292 lineto
269 282 lineto
270 271 lineto
271 261 lineto
273 251 lineto
274 242 lineto
275 232 lineto
276 223 lineto
277 214 lineto
279 206 lineto
280 198 lineto
281 191 lineto
282 184 lineto
284 178 lineto
285 172 lineto
286 166 lineto
287 162 lineto
289 158 lineto
290 154 lineto
291 151 lineto
292 149 lineto
294 147 lineto
295 146 lineto
296 145 lineto
297 146 lineto
299 146 lineto
300 148 lineto
301 150 lineto
302 152 lineto
304 155 lineto
305 159 lineto
306 164 lineto
307 170 lineto
308 176 lineto
310 182 lineto
311 189 lineto
312 196 lineto
313 204 lineto
315 212 lineto
316 221 lineto
317 230 lineto
318 239 lineto
320 248 lineto
321 258 lineto
322 268 lineto
323 278 lineto
325 288 lineto
326 299 lineto
327 309 lineto
328 320 lineto
330 331 lineto
331 342 lineto
332 352 lineto
333 363 lineto
335 373 lineto
336 384 lineto
337 394 lineto
338 403 lineto
339 413 lineto
341 422 lineto
342 431 lineto
343 439 lineto
344 447 lineto
346 455 lineto
347 462 lineto
348 469 lineto
349 475 lineto
351 480 lineto
352 485 lineto
353 490 lineto
354 493 lineto
356 497 lineto
357 499 lineto
358 501 lineto
359 502 lineto
361 503 lineto
362 503 lineto
363 502 lineto
364 501 lineto
366 499 lineto
367 496 lineto
368 493 lineto
369 489 lineto
370 485 lineto
372 480 lineto
373 474 lineto
374 468 lineto
375 462 lineto
377 455 lineto
378 447 lineto
379 439 lineto
380 430 lineto
382 422 lineto
383 412 lineto
384 403 lineto
385 393 lineto
387 383 lineto
388 373 lineto
389 362 lineto
390 352 lineto
392 341 lineto
393 330 lineto
394 320 lineto
395 309 lineto
397 298 lineto
398 288 lineto
399 277 lineto
400 267 lineto
401 257 lineto
403 247 lineto
404 237 lineto
405 228 lineto
406 219 lineto
408 211 lineto
409 203 lineto
410 195 lineto
411 188 lineto
413 181 lineto
414 175 lineto
415 169 lineto
416 164 lineto
418 160 lineto
419 156 lineto
420 153 lineto
421 150 lineto
423 148 lineto
424 146 lineto
425 146 lineto
426 145 lineto
428 146 lineto
429 147 lineto
430 148 lineto
431 150 lineto
432 153 lineto
434 157 lineto
435 161 lineto
436 166 lineto
437 172 lineto
439 178 lineto
440 185 lineto
441 192 lineto
442 200 lineto
444 208 lineto
445 216 lineto
446 225 lineto
447 234 lineto
449 243 lineto
450 252 lineto
451 262 lineto
452 272 lineto
454 282 lineto
455 293 lineto
456 303 lineto
457 314 lineto
459 325 lineto
460 336 lineto
461 346 lineto
462 357 lineto
463 368 lineto
465 378 lineto
466 388 lineto
467 398 lineto
468 408 lineto
470 417 lineto
471 426 lineto
472 435 lineto
473 443 lineto
475 451 lineto
476 458 lineto
477 465 lineto
478 471 lineto
480 477 lineto
481 483 lineto
482 487 lineto
483 491 lineto
485 495 lineto
486 498 lineto
487 500 lineto
488 502 lineto
490 503 lineto
491 503 lineto
492 503 lineto
493 502 lineto
494 500 lineto
496 498 lineto
497 495 lineto
498 492 lineto
499 488 lineto
501 483 lineto
502 478 lineto
503 472 lineto
504 465 lineto
506 459 lineto
507 451 lineto
508 443 lineto
509 435 lineto
511 427 lineto
512 418 lineto
513 408 lineto
514 399 lineto
516 389 lineto
517 379 lineto
518 368 lineto
519 358 lineto
521 347 lineto
522 336 lineto
523 326 lineto
524 315 lineto
525 304 lineto
527 294 lineto
528 283 lineto
529 273 lineto
530 262 lineto
532 252 lineto
533 243 lineto
534 233 lineto
535 224 lineto
537 216 lineto
538 207 lineto
539 199 lineto
540 192 lineto
542 185 lineto
543 178 lineto
544 172 lineto
545 167 lineto
547 162 lineto
548 158 lineto
549 154 lineto
550 151 lineto
552 149 lineto
553 147 lineto
554 146 lineto
555 145 lineto
556 145 lineto
558 146 lineto
559 147 lineto
560 149 lineto
561 152 lineto
563 155 lineto
564 158 lineto
565 163 lineto
566 169 lineto
568 175 lineto
569 181 lineto
570 188 lineto
571 195 lineto
573 203 lineto
574 211 lineto
574 212 lineto
stroke
showpage
%%Trailer
cleartomark
countdictstack
exch sub { end } repeat
restore
%%EOF
