v 20130925 2
C 40000 40000 0 0 0 title-B.sym
C 43100 46500 1 90 0 ng-resistor-1.sym
{
T 42700 46800 5 10 0 0 90 0 1
device=RESISTOR
T 42700 46700 5 10 1 1 90 0 1
refdes=R1
T 43100 46995 5 10 1 1 90 0 1
value=r1_val
}
C 43100 44900 1 90 0 ng-resistor-1.sym
{
T 42700 45200 5 10 0 0 90 0 1
device=RESISTOR
T 42700 45100 5 10 1 1 90 0 1
refdes=R2
T 43100 45295 5 10 1 1 90 0 1
value=r2_val
}
C 44400 47800 1 90 0 ng-inductor-1.sym
{
T 43900 48000 5 10 0 0 90 0 1
device=INDUCTOR
T 44000 47900 5 10 1 1 90 0 1
refdes=Lrfc
T 43700 48000 5 10 0 0 90 0 1
symversion=0.1
T 44405 48295 5 10 1 1 90 0 1
value=lrfc_val
}
C 48500 44800 1 90 0 ng-inductor-1.sym
{
T 48000 45000 5 10 0 0 90 0 1
device=INDUCTOR
T 48100 44900 5 10 1 1 90 0 1
refdes=L1
T 47800 45000 5 10 0 0 90 0 1
symversion=0.1
T 48505 45295 5 10 1 1 90 0 1
value=l1_val
}
C 42700 44100 1 0 0 gnd-1.sym
C 44100 42900 1 0 0 gnd-1.sym
N 47100 45900 47100 44900 4
N 42800 44900 42800 44400 4
N 47100 44000 47100 43700 4
N 48300 43700 48300 44800 4
N 48300 45700 48300 47100 4
N 47100 47100 47100 46800 4
N 44200 47100 45700 47100 4
N 42800 45800 42800 46500 4
N 43600 46200 42800 46200 4
N 41500 45600 41500 46200 4
N 41500 46200 42800 46200 4
N 41500 43500 41500 44700 4
N 44200 48700 44200 49300 4
C 44000 49300 1 0 0 vcc-1.sym
C 41600 49000 1 0 0 spice-model-1.sym
{
T 41700 49700 5 10 0 1 0 0 1
device=model
T 41700 49600 5 10 1 1 0 0 1
refdes=A2
T 42900 49300 5 10 1 1 0 0 1
model-name=SS9018
T 42100 49100 5 10 1 1 0 0 1
file=QSS9018
}
C 43600 45700 1 0 0 npn-3.sym
{
T 44500 46200 5 10 0 0 0 0 1
device=NPN_TRANSISTOR
T 44500 46200 5 10 1 1 0 0 1
refdes=Q1
T 44500 45900 5 10 1 1 0 0 1
model-name=SS9018
}
C 40900 47200 1 0 0 vdc-ng.sym
{
T 41600 47850 5 10 1 1 0 0 1
refdes=Vsource
T 41600 48050 5 10 0 0 0 0 1
device=VOLTAGE_SOURCE
T 41600 48250 5 10 0 0 0 0 1
footprint=none
T 41600 47650 5 10 1 1 0 0 1
value=DC 12V
}
C 41100 46700 1 0 0 gnd-1.sym
C 41000 48600 1 0 0 vcc-1.sym
N 41200 48600 41200 48400 4
N 41200 47000 41200 47200 4
C 46200 48300 1 0 0 spice-directive-1.sym
{
T 46300 48600 5 10 0 1 0 0 1
device=directive
T 46300 48700 5 10 1 1 0 0 1
refdes=A4
T 46200 48400 5 10 1 1 0 0 1
value=.ic
}
C 47800 47100 1 90 0 output-ng.sym
{
T 47500 47200 5 10 0 0 90 0 1
device=OUTPUT
T 47500 47295 5 10 1 1 90 0 1
net=out:1
}
T 46200 47900 5 10 1 0 0 0 2
Condición inicial
para simulacion
C 41500 49900 1 0 0 spice-directive-1.sym
{
T 41600 50200 5 10 0 1 0 0 1
device=directive
T 41600 50300 5 10 1 1 0 0 1
refdes=A1
T 41600 50000 5 10 1 1 0 0 1
value=.title Oscilador
}
C 46200 49000 1 0 0 spice-directive-1.sym
{
T 46300 49300 5 10 0 1 0 0 1
device=directive
T 46300 49400 5 10 1 1 0 0 1
refdes=A3
T 46200 49100 5 10 1 1 0 0 1
file=oscilator.param
}
N 44200 46700 44200 47800 4
C 44500 43400 1 90 0 ng-resistor-1.sym
{
T 44100 43700 5 10 0 0 90 0 1
device=RESISTOR
T 44100 43600 5 10 1 1 90 0 1
refdes=Re
T 44500 43595 5 10 1 1 90 0 1
value=re_val
}
N 44200 43400 44200 43200 4
C 44900 44300 1 270 0 ng-capacitor-1.sym
{
T 45600 44100 5 10 0 0 270 0 1
device=CAPACITOR
T 45400 44200 5 10 1 1 270 0 1
refdes=CE
T 45800 44100 5 10 0 0 270 0 1
symversion=0.1
T 44900 43705 5 10 1 1 270 0 1
value=ce_val
}
C 45100 42900 1 0 0 gnd-1.sym
C 46700 44900 1 0 0 gnd-1.sym
N 46800 45200 46800 45300 4
N 46800 45300 47100 45300 4
N 42800 47400 42800 48600 4
C 41900 43400 1 0 0 output-ng.sym
{
T 42000 43700 5 10 0 0 0 0 1
device=OUTPUT
T 42095 43700 5 10 1 1 0 0 1
net=retro:1
}
N 41500 43500 41900 43500 4
C 47600 43700 1 270 0 output-ng.sym
{
T 47900 43600 5 10 0 0 270 0 1
device=OUTPUT
T 47900 43505 5 10 1 1 270 0 1
net=retro:1
}
N 47100 43700 48300 43700 4
C 45800 47300 1 90 0 output-ng.sym
{
T 45500 47400 5 10 0 0 90 0 1
device=OUTPUT
T 45500 47495 5 10 1 1 90 0 1
net=out:1
}
N 45700 47300 45700 47100 4
N 47100 47100 48300 47100 4
N 44200 44300 44200 45700 4
N 44200 44500 45200 44500 4
N 45200 44500 45200 44300 4
N 45200 43200 45200 43400 4
C 46800 46800 1 270 0 ng-capacitor-with-R-1.sym
{
T 47500 46600 5 10 0 0 270 0 1
device=CAPACITOR
T 47400 46600 5 10 1 1 270 0 1
refdes=XC1
T 47700 46600 5 10 0 0 270 0 1
symversion=0.1
T 46800 46600 5 10 1 1 0 0 1
value=C
T 46100 46000 5 10 1 1 0 0 1
model-name=val=c1_val
}
C 46800 44900 1 270 0 ng-capacitor-with-R-1.sym
{
T 47500 44700 5 10 0 0 270 0 1
device=CAPACITOR
T 47300 44800 5 10 1 1 270 0 1
refdes=XC2
T 47700 44700 5 10 0 0 270 0 1
symversion=0.1
T 46700 44700 5 10 1 1 0 0 1
value=C
T 46100 44200 5 10 1 1 0 0 1
model-name=val=c2_val
}
C 41200 45600 1 270 0 ng-capacitor-with-R-1.sym
{
T 41900 45400 5 10 0 0 270 0 1
device=CAPACITOR
T 41600 45300 5 10 1 1 0 0 1
refdes=XCB
T 42100 45400 5 10 0 0 270 0 1
symversion=0.1
T 41200 45300 5 10 1 1 0 0 1
value=C
T 41600 44900 5 10 1 1 0 0 1
model-name=val=cb_val
}
C 46200 49800 1 0 0 spice-directive-1.sym
{
T 46300 50100 5 10 0 1 0 0 1
device=directive
T 46300 50200 5 10 1 1 0 0 1
refdes=A5
T 46200 49900 5 10 1 1 0 0 1
file=c.sub
}
C 42600 48600 1 0 0 vcc-1.sym
C 43300 42700 1 180 0 ng-capacitor-with-R-1.sym
{
T 43100 42000 5 10 0 0 180 0 1
device=CAPACITOR
T 43200 42200 5 10 1 1 180 0 1
refdes=XCO
T 43100 41800 5 10 0 0 180 0 1
symversion=0.1
T 42705 42700 5 10 1 1 180 0 1
value=C
T 42300 41800 5 10 1 1 0 0 1
model-name=val=co_val
}
C 42100 42500 1 180 0 output-ng.sym
{
T 42000 42200 5 10 0 0 180 0 1
device=OUTPUT
T 41905 42200 5 10 1 1 180 0 1
net=out:1
}
C 44000 42100 1 0 0 ng-resistor-1.sym
{
T 44300 42500 5 10 0 0 0 0 1
device=RESISTOR
T 44200 42500 5 10 1 1 0 0 1
refdes=Rl
T 44495 42100 5 10 1 1 0 0 1
value=rl_val
}
C 45500 42300 1 90 0 gnd-1.sym
N 45200 42400 44900 42400 4
N 44000 42400 43300 42400 4
C 43600 42200 1 270 0 output-ng.sym
{
T 43900 42100 5 10 0 0 270 0 1
device=OUTPUT
T 43895 41700 5 10 1 1 0 0 1
net=outRload:1
}
N 43700 42200 43700 42400 4
N 42400 42400 42100 42400 4
