v 20130925 2
C 40000 40000 0 0 0 title-B.sym
C 43200 45100 1 0 0 vpulse-1.sym
{
T 43900 45750 5 10 1 1 0 0 1
refdes=V1
T 43900 45950 5 10 0 0 0 0 1
device=vpulse
T 43900 46150 5 10 0 0 0 0 1
footprint=none
T 43900 45550 5 10 1 1 0 0 1
value=barrido frec
}
C 43600 46500 1 90 0 resistor-2.sym
{
T 43250 46900 5 10 0 0 90 0 1
device=RESISTOR
T 43300 46400 5 10 1 1 90 0 1
refdes=Z_generador
}
N 43500 45100 43500 44700 4
N 43500 44700 48400 44700 4
N 43500 47400 43500 48100 4
N 43500 47700 48400 47700 4
N 43500 46500 43500 46300 4
C 43700 49100 1 0 0 output-2.sym
{
T 44600 49300 5 10 0 0 0 0 1
net=OUTPUT:1
T 43900 49800 5 10 0 0 0 0 1
device=none
T 44000 49600 5 10 1 1 180 1 1
value=sonda_ch1
}
C 43600 48100 1 90 0 resistor-2.sym
{
T 43250 48500 5 10 0 0 90 0 1
device=RESISTOR
T 43300 48000 5 10 1 1 90 0 1
refdes=Z_sonda1
T 43700 48500 5 10 1 1 0 0 1
value=1Meg
}
N 43700 49200 43500 49200 4
N 43500 49200 43500 49000 4
C 48200 49300 1 180 0 output-2.sym
{
T 47300 49100 5 10 0 0 180 0 1
net=OUTPUT:1
T 48000 48600 5 10 0 0 180 0 1
device=none
T 47300 49600 5 10 1 1 0 1 1
value=sonda_ch2
}
N 48200 49200 48400 49200 4
N 48400 49200 48400 49000 4
N 48400 48100 48400 47700 4
C 48300 48100 1 270 1 resistor-2.sym
{
T 48650 48500 5 10 0 0 90 2 1
device=RESISTOR
T 48600 48000 5 10 1 1 90 2 1
refdes=Z_sonda2
T 48200 48500 5 10 1 1 0 6 1
value=1Meg
}
C 48300 44400 1 0 0 gnd-1.sym
L 46800 47500 46800 44900 3 0 0 0 -1 -1
L 46800 44900 46900 45100 3 0 0 0 -1 -1
L 46800 44900 46700 45100 3 0 0 0 -1 -1
L 46800 47500 46700 47200 3 0 0 0 -1 -1
L 46800 47500 46900 47200 3 0 0 0 -1 -1
T 45700 46000 9 10 1 0 0 0 3
Separación 
entre 
cables
B 43000 47800 1600 2000 3 0 0 0 -1 -1 0 -1 -1 -1 -1 -1
B 47200 47800 1600 2000 3 0 0 0 -1 -1 0 -1 -1 -1 -1 -1
T 45500 47800 9 10 1 0 0 0 1
Cables
T 45700 44800 9 10 1 0 0 0 1
Cables
T 47900 46100 9 10 1 0 0 0 3
Terminación
en circuito
abierto
